DB01076 & P35367 & 624.12968 &  \\
DB01076 & P08913 & 578.00920 &  \\
DB01076 & P14416 & 543.97270 &  \\
DB01076 & P28223 & 538.99634 &  \\
DB01076 & P08908 & 502.79712 &  \\
DB01076 & P23975 & 495.52637 &  \\
DB00641 & P35367 & 487.51709 &  \\
DB00605 & P28223 & 454.52408 &  \\
DB01169 & P28223 & 454.31310 &  \\
DB00641 & P08913 & 452.19244 &  \\
DB00641 & P28223 & 444.73493 &  \\
DB01076 & P21728 & 439.18840 &  \\
DB00641 & P14416 & 437.48196 &  \\
DB01076 & P11229 & 436.21622 &  \\
DB01169 & P35367 & 431.55751 &  \\
DB00605 & P14416 & 424.38940 &  \\
DB01169 & P08913 & 420.35348 &  \\
DB01169 & P14416 & 415.72278 &  \\
DB00641 & P08908 & 412.74783 &  \\
DB01076 & P35348 & 411.71812 &  \\
DB00605 & P08913 & 408.33654 &  \\
DB00605 & P35367 & 406.48101 &  \\
DB01076 & P21917 & 405.21677 &  \\
DB01076 & P31645 & 397.96707 &  \\
DB00184 & P30536 & 389.88715 &  \\
DB00641 & P23975 & 384.36333 &  \\
DB01296 & P35367 & 367.34921 &  \\
DB00605 & P08908 & 361.05607 &  \\
DB00605 & P23975 & 358.74737 &  \\
DB01296 & P28223 & 358.18958 &  \\
DB01296 & P08913 & 356.52560 &  \\
DB01169 & P08908 & 356.15037 &  \\
DB01169 & P23975 & 349.04037 &  \\
DB00641 & P21728 & 346.33990 &  \\
DB01041 & P35367 & 344.98472 &  \\
DB01017 & P28223 & 342.78494 &  \\
DB01169 & P21728 & 342.42803 &  \\
DB01076 & P08588 & 341.64553 &  \\
DB01076 & P28335 & 339.72890 &  \\
DB00641 & P11229 & 337.24493 &  \\
DB01041 & P28223 & 333.62026 &  \\
DB01041 & P08913 & 333.34067 &  \\
DB01017 & P35367 & 332.25719 &  \\
DB01296 & P14416 & 329.43005 &  \\
DB01017 & P08913 & 328.53517 &  \\
DB01169 & P31645 & 327.19730 &  \\
DB01234 & P28223 & 326.08207 &  \\
DB00013 & P28223 & 325.18302 &  \\
DB01076 & P08912 & 325.06793 &  \\
DB01169 & P35348 & 323.41717 &  \\
DB00605 & P31645 & 321.78724 &  \\
DB00641 & P35348 & 320.70550 &  \\
DB00641 & P31645 & 319.96860 &  \\
DB01076 & P20309 & 318.39038 &  \\
DB01017 & P14416 & 317.83204 &  \\
DB00641 & P21917 & 317.30765 &  \\
DB01076 & P35368 & 316.02815 &  \\
DB01254 & P28223 & 315.26224 &  \\
DB01268 & P28223 & 314.34950 &  \\
DB01296 & P08908 & 313.72493 &  \\
DB00013 & P35367 & 313.67038 &  \\
DB01234 & P35367 & 313.54776 &  \\
DB01041 & P14416 & 310.52924 &  \\
DB00159 & P28223 & 305.58690 &  \\
DB01076 & P18825 & 301.29559 &  \\
DB01076 & P18089 & 299.54210 &  \\
DB01296 & P23975 & 298.12945 &  \\
DB01009 & P28223 & 297.52682 &  \\
DB01076 & P08172 & 293.94900 &  \\
DB00159 & P35367 & 291.80546 &  \\
DB00013 & P08913 & 291.61692 &  \\
DB00605 & P11229 & 290.96664 &  \\
DB00013 & P14416 & 290.62978 &  \\
DB00786 & P28223 & 289.98152 &  \\
DB00605 & P21728 & 289.95799 &  \\
DB01232 & P14416 & 288.72489 &  \\
DB01234 & P08913 & 287.83470 &  \\
DB01234 & P14416 & 287.70623 &  \\
DB00741 & P35367 & 285.88202 &  \\
DB01232 & P28223 & 285.18383 &  \\
DB00641 & P28335 & 282.99224 &  \\
DB01041 & P08908 & 282.42466 &  \\
DB00605 & P21917 & 282.37239 &  \\
DB01232 & P35367 & 282.21643 &  \\
DB01009 & P08913 & 281.94467 &  \\
DB00159 & P08913 & 281.79889 &  \\
DB01169 & P21917 & 281.76737 &  \\
DB01254 & P35367 & 281.62209 &  \\
DB01041 & P23975 & 281.19437 &  \\
DB01076 & Q12809 & 280.62901 &  \\
DB00159 & P14416 & 279.95739 &  \\
DB01076 & P62158 & 279.23880 &  \\
DB01169 & P11229 & 279.17093 &  \\
DB01009 & P35367 & 278.45313 &  \\
DB01076 & P08173 & 277.12805 &  \\
DB00031 & P28223 & 277.12449 &  \\
DB00741 & P28223 & 276.60194 &  \\
DB00741 & P08913 & 275.92431 &  \\
DB01009 & P14416 & 275.92387 &  \\
