f95378bd_CTCCTT	303662	99815	382	0.0038270800981816360634979456989412938128225505352020263671875
f9c10add_CTTT	2018	910	26	0.0285714285714285705364279266404992085881531238555908203125
fdc5827c_CTPT	9244	2813	25	0.0088873089228581579612775698251425637863576412200927734375
