585addbc_CIT	85139	66224	244	0.0036844648465813	5
fc7012de_CITTIT	44002766	655137	658	0.0010043700783194966	183
bfa9568a_CCTCT	218807	108615	252	0.00232012153017539	18
bdbc82f7_CTPT=2	9244	2813	25	0.008887308922858158	9
f12afae8_CCCTCT	608922	71107	83	0.0011672549819286427	93
1c904a3e_CTPCPTCT=1	382576	13582	4	2.945074363127669E-4	102
8326f594_CITCT=2	945368	292728	398	0.0013596239512448417	174
dcf8aa89_CTCTCTT	4894842	482734	748	0.0015495075963159835	192
b8920bda_CTCTIT	77407275	2108202	1050	4.980547404850199E-4	46
f1540d89_CTTCT	12912	5478	122	0.02227090178897408	179
396e4783_CTPPT=1	53	44	0	0.0	193
8c38b4d0_CICTTT	56148	8425	57	0.006765578635014837	172
a322e1a2_CCCTCTIT	230915713	670620	240	3.5787778473651247E-4	190
94f34f5b_CTIIT	544005	307228	376	0.0012238467847982607	83
294fc704_CTT	18271	12420	711	0.0572463768115942	1
2bfb2043_CCT	27499	21389	281	0.013137594090420309	3
2237de84_CTPT	1976	905	28	0.030939226519337018	145
3b058ea0_CTITTT	1527829	92472	127	0.0013733887014447616	146
4925cea8_CTCTPT	123475	19018	120	0.0063098117572825746	186
a01a6a94_CIICT	19119	9022	52	0.005763688760806916	166
ae53a62e_CITITCT	1278922520	1217584	630	5.174181001064403E-4	81
ab5e4b6d_CTPPT	4666	2461	5	0.0020316944331572532	115
58a5bf44_CICCT	48198	20158	265	0.013146145450937593	58
5eb7b66b_CTCCTCCT	5093736	849741	508	5.978292209037813E-4	43
788843c5_CTTIT	7332074	979047	654	6.67996531320764E-4	12
50924da6_CTTIT	609201	195219	152	7.786127374896911E-4	167
902dbc06_CTPPTCT	228914	72817	44	6.042545010093796E-4	120
bd6aaebe_CCTPT=2	12156	2648	13	0.004909365558912387	163
c5b5db68_CTITCT	51606527	2195719	958	4.3630355250375843E-4	13
d459dbc9_CITCT	945368	292728	398	0.0013596239512448417	34
e9c53ca9_CTITCCT	58798303	2051596	809	3.943271482299634E-4	21
115fa5f6_CITT	8573	6059	21	0.0034659184683941244	48
a46ac0a6_CTPMPT=2	62486613	1519032	887	5.839244992863876E-4	170
ced86f0e_CTPBPTCT	140271069	1919147	956	4.981379748398637E-4	92
776f33d4_CICT	95538	32090	435	0.013555624805235277	123
3b67c6c5_CTTCICT	202490	23694	99	0.004178272980501393	160
cd158065_CTITCTTCT	453400362	2543461	989	3.888402456338037E-4	191
3607cf83_CTTT	2102	952	21	0.022058823529411766	65
62ef4e4e_CTCICT	2143326	202302	677	0.003346481992268984	110
cfe1454f_CTPMPT	62486613	1519032	887	5.839244992863876E-4	109
a693795f_CTPCPTCT	521583462	3239407	1045	3.225899061155329E-4	105
87a8a658_CTPBPT	16897972	748248	812	0.0010852016978328042	140
18429d43_CTTCT	15428	5802	84	0.014477766287487074	131
396e4783_CTPPT=2	29785	15329	29	0.0018918389979776893	194
0ea63084_CTT	1368	1106	34	0.03074141048824593	14
e8607726_CTPCPT	59302224	1728906	909	5.257660046295171E-4	30
21014476_CICTTCT=1	939976	126647	370	0.0029215062338626262	141
7be84d60_CTPT	896	692	2	0.002890173410404624	66
e2496892_CTPMPT=2	62486613	1519032	887	5.839244992863876E-4	76
2f80178f_CTPT	411	258	17	0.06589147286821706	68
10cbef95_CITT	173227	80300	260	0.0032378580323785804	19
83e65f5b_CTPPT	24453	13213	18	0.0013622947097555438	99
9128ead8_CTCIT	1620033	340527	561	0.0016474464579901153	33
48ab1a0f_CTPT	2035	908	28	0.030837004405286344	69
930f15ba_CCTT	34362	17519	193	0.011016610537131115	11
214a5b00_CCCIT	116473	25798	23	8.915419799984495E-4	112
0353f21a_CICT=2	95538	32090	435	0.013555624805235277	78
ef8c7654_CTIIIT	2799366	707398	610	8.623151323583047E-4	95
031c7952_CCICT	100677	27106	202	0.007452224599719619	35
382dcd11_CTPPTCT	218568	82796	107	0.0012923329629450698	161
7ab70dd6_CTTICT	1084037	259122	399	0.0015398152221733391	116
694c31f8_CITIT=2	136787222	735508	722	9.816344621676448E-4	38
ba3c0c4e_CTIIT	524958	281027	338	0.0012027314101492026	55
44fb2789_CTTITCT	76317908	2187104	829	3.790400456494067E-4	159
ded69af1_CTCCT	227578	120063	451	0.003756361243680401	20
a9b096d0_CIIT	40458	26989	46	0.0017043980881099707	40
f8242058_CTCTCCTIT	730173577	2773926	1133	4.084463680718231E-4	36
430abf8d_CTCTITCT	805111240	3932763	1109	2.819900410983321E-4	178
0353f21a_CICT=1	95538	32090	435	0.013555624805235277	77
72054db9_CTPCPTCCT=1	149855	17368	1	5.757715338553662E-5	143
f17411a6_CTTCTCT	1844246	378387	568	0.001501108653309971	119
7acb7440_CCTCTTT	186837	22666	54	0.0023824230124415424	128
bd6aaebe_CCTPT=1	0	0	0	NaN	162
e2e1b702_CTCTCT	2485055	491177	749	0.0015249085360267277	26
ce02e152_CTCTCTCT	42538303	1854804	966	5.208097459354196E-4	89
232a661e_CTPTCT=1	0	0	0	NaN	96
5e1dfd37_CTPPPTCT	613742795	3801900	1118	2.9406349456850524E-4	107
316f5fdf_CTTT	401	247	16	0.06477732793522267	153
fdfcf13e_CCTITCTT	109682410	868250	356	4.100201554851713E-4	135
24afde88_CTPPPT	78711675	2326566	905	3.8898531139885993E-4	28
3f7bbdcd_CTPPPT=1	33304	8462	4	4.727014890096904E-4	180
e8d8a866_CIIT	7565	6832	20	0.002927400468384075	149
2e06fec7_CCTT	942	704	9	0.01278409090909091	60
21014476_CICTTCT=2	939976	126647	370	0.0029215062338626262	142
8387efeb_CITICT	25499894	442653	696	0.0015723377001850207	158
19718765_CCTTCCCT	1615630	97040	26	2.679307502061006E-4	87
bff93e7b_CTTIIT	842518	347820	298	8.567649933873843E-4	147
3edb9e16_CTTT	14597	3090	40	0.012944983818770227	7
e7d40bf2_CTIIT	149144	109789	159	0.001448232518740493	177
8f8c97ed_CTPPT	29785	15329	29	0.0018918389979776893	129
232a661e_CTPTCT=2	70587	13723	136	0.009910369452743569	97
b2cbdd24_CTIICT	248061	98255	271	0.0027581293572846166	88
e66e9594_CTPBPTCTT	297313162	1262289	798	6.321848641634364E-4	121
0943c82e_CICCT=2	48198	20158	265	0.013146145450937593	134
ee4b9cec_CTCITCT	19558609	1123893	739	6.575359042186401E-4	168
f17e975d_CTITPT=1	0	0	0	NaN	117
5d904641_CITIT	136787222	735508	722	9.816344621676448E-4	80
d6b7ac31_CTPBPT=2	16897972	748248	812	0.0010852016978328042	165
0943c82e_CICCT=1	48198	20158	265	0.013146145450937593	133
e3372c9e_CCTCCT	698182	201116	197	9.79534199168639E-4	29
9f07f4c8_CTTCTIT	58608849	1623471	833	5.130981705247584E-4	185
14371b2c_CCTCICT	1791973	140171	233	0.0016622553880617245	53
ecf2c600_CCIIT	48634	26236	26	9.910047263302333E-4	113
23ee9c27_CTTCTT	223832	64960	277	0.004264162561576355	126
593ae161_CTIIT	194932	146006	143	9.794118049943153E-4	187
694c31f8_CITIT=1	136787222	735508	722	9.816344621676448E-4	37
b972068b_CCTTT	18153	2993	18	0.006014032743067156	61
0be9e24e_CTCCCCT	2950327	92390	111	0.001201428726052603	79
59894be6_CIT=1	85139	66224	244	0.0036844648465813	62
54ed8166_CTTCT	122676	57977	320	0.00551943011884023	32
16e07296_CCTPT	12156	2648	13	0.004909365558912387	94
e3ed5db0_CIT	85139	66224	244	0.0036844648465813	64
844c0c40_CTT	914	780	33	0.04230769230769231	24
ae53a62e_CITITCT	541963227	1197081	630	5.262801765294078E-4	81
c956e358_CCTITCT	68977674	1553978	403	2.593344307319666E-4	50
82d04e6c_CTITCTCCT	983613015	2766763	931	3.3649430760784356E-4	100
7887c1a1_CTTITCCT	86909730	2035135	688	3.380611114250406E-4	108
a791d01f_CCCICT	90606	11683	68	0.005820422836600188	73
47aca418_CCCCT	492882	21444	73	0.00340421563141205	84
c4623a17_CTITCTCTCT	-465959328	3392238	1175	3.463789981717085E-4	130
51102ef9_CIICTCT	254843	54574	81	0.0014842232564957671	154
25569059_CIICT	19119	9022	52	0.005763688760806916	114
7d520dd1_CTCTT	247239	92623	580	0.006261943577729074	27
a7469814_CITIT	136787222	735508	722	9.816344621676448E-4	23
aea562ff_CTICT	772850	244370	495	0.002025616892417236	31
1b51c4a9_CTTCCT	242592	105576	149	0.0014113055997575206	57
72054db9_CTPCPTCCT=2	781116124	3053867	847	2.7735327046004296E-4	144
d6f23a60_CCICTT	170371	32516	134	0.00412104809939722	132
f95378bd_CTCCTT	303662	99815	382	0.003827080098181636	86
7eb737c2_CTITTTCT	78099285	650406	539	8.287131422526852E-4	137
8c38a5a0_CCCTCCT	1956776	136316	95	6.969101206021303E-4	171
b2f0b8af_CCCT	104479	16111	122	0.007572466017007014	17
bdbc82f7_CTPT=1	0	0	0	NaN	8
87a042b2_CCTICT	1055435	212513	146	6.870167942667037E-4	91
91ac1ef7_CCTITT	14165625	648821	321	4.947435425178902E-4	139
fa26b7d9_CCTICCT	609879	153126	109	7.118320859945404E-4	101
f10572d7_CTITT	10537633	882229	753	8.535198910940356E-4	15
8416b9ac_CTCTCTCTCT	630271267	3901609	1127	2.888551876930774E-4	156
043c2b7c_CCCTT	125517	12352	99	0.008014896373056996	47
2f134aa3_CTPT	667	431	15	0.03480278422273782	71
925a0f87_CCCTIT	15044470	406032	176	4.3346337234503684E-4	85
8326f594_CITCT=1	945368	292728	398	0.0013596239512448417	173
15d7f706_CCTPMPT	105489172	1034057	380	3.674845777360436E-4	98
e2496892_CTPMPT=1	67253	9975	0	0.0	75
7315e7ed_CIICT=1	19119	9022	52	0.005763688760806916	188
c247c47e_CICTT	163133	37912	313	0.0082559611732433	42
6a0aef0d_CTICTCCT	13499739	979060	569	5.811696933793639E-4	67
78002a18_CCTT	1422	1075	13	0.012093023255813953	54
c1df7c29_CTITTCTCT	45017377	1277031	773	6.053102861246125E-4	151
be66827b_CTCTCCT	2903808	709792	597	8.410914746855417E-4	45
a9d08ab0_CTCT	133474	77154	763	0.009889312284521865	4
07357e44_CTITTCCT	134289111	2057152	750	3.6458171297016457E-4	74
1c904a3e_CTPCPTCT=2	521583462	3239407	1045	3.225899061155329E-4	103
d6b7ac31_CTPBPT=1	22730	3936	0	0.0	164
bef12ecc_CTITCCCT	161414536	1319357	488	3.698771447000319E-4	124
c251e495_CTITCCTCCT	1377363946	2767620	902	3.259117942492105E-4	155
59894be6_CIT=2	85139	66224	244	0.0036844648465813	63
1489e9c7_CCTIT	6593235	744238	347	4.662487000126304E-4	16
d1d8780c_CTITIT	515062474	1820152	1116	6.131356062570599E-4	22
447e3b0f_CTCTTCT	1713918	356681	620	0.0017382479021871083	150
0ba5810c_CTICICT	19431403	700865	724	0.001033009210047584	122
e2129f85_CTPMPT	22	15	0	0.0	182
5d95ff91_CTCCTCT	2102113	533000	658	0.0012345215759849905	41
af155063_CTCTCIT	27088403	1072321	821	7.656289487942509E-4	127
87535c4f_CTCCCT	797113	88366	153	0.0017314351673720662	70
e8425fc8_CIIT	5924	5653	11	0.0019458694498496374	72
1aea4239_CTITT	639873	105171	127	0.0012075572163429082	49
28fbea70_CICT	95538	32090	435	0.013555624805235277	10
4e794fae_CTPPPT=1	78711675	2326566	905	3.8898531139885993E-4	51
119c531b_CTPPPT	8879	4293	15	0.0034940600978336828	184
d1f06c26_CTPCPTCCT=2	781116124	3053867	847	2.7735327046004296E-4	176
d357f4e7_CTPPPT	14700	3892	69	0.017728674203494346	157
5e13b73a_CCIT	86935	53659	82	0.0015281686203619152	25
29a4e79c_CTIT	4900313	967922	852	8.802362173811526E-4	2
b9ed62e9_CTITT	492497	84607	91	0.0010755611237840842	59
7315e7ed_CIICT=2	19119	9022	52	0.005763688760806916	189
4e794fae_CTPPPT=2	78711675	2326566	905	3.8898531139885993E-4	52
3f7bbdcd_CTPPPT=2	78711675	2326566	905	3.8898531139885993E-4	181
233a0135_CCTPT	691	372	6	0.016129032258064516	106
d1f06c26_CTPCPTCCT=1	507601	13591	3	2.2073430946950188E-4	175
e23481ff_CCTTT	3132	890	6	0.006741573033707865	136
938e41ae_CTTITCTCT	978027001	3012567	943	3.130220838241938E-4	148
f9c10add_CTTT	2018	910	26	0.02857142857142857	56
f17e975d_CTITPT=2	11883047	205815	187	9.085829507081602E-4	118
23b47b66_CIIT	21063	17045	44	0.0025814021707245526	39
111d8dae_CTCCTTCT	1869792	428086	531	0.0012404049653574282	125
d7d12a23_CTCCTIT	56092379	2033998	923	4.5378609025180947E-4	44
fdc5827c_CTPT	9244	2813	25	0.008887308922858158	6
5fc9ecda_CTCTTIT	82719532	2056629	1004	4.881774982264667E-4	90
d352196b_CCTTCCTT	498915	105472	83	7.86938713592233E-4	111
debfaf59_CTPMPTCT	488409710	3003840	1047	3.485538510706296E-4	138
a46ac0a6_CTPMPT=1	17405	3454	4	0.0011580775911986102	169
