0.38774056326663797	DB00777	P34969	69
0.3187449047229169	DB00777	P30939	52
0.30675886480203374	DB00777	Q13639	83
0.304302569469161	DB00777	P28222	91
0.29249722647653675	DB00777	P35348	100
0.2894902403205675	DB00777	P13945	72
0.2878502711418884	DB00777	P28221	85
0.28550010347103505	DB00777	P08908	78
0.2853678335426592	DB00777	P28566	48
0.2651024571154906	DB00777	P21918	86
0.26132376462071283	DB00777	P11229	94
0.22387722890094264	DB00777	P08588	97
0.2217432136501898	DB00777	P25021	82
0.22171013503328726	DB00777	P41595	89
0.21778498620576658	DB00777	P07550	91
0.21774400697056492	DB00777	P35367	74
0.21247323859290448	DB00777	P28335	91
0.20032077379518298	DB00777	P08173	86
0.19126610778959766	DB00777	P23975	94
0.18509728151445004	DB00777	P31645	89
0.17353149836916695	DB00777	P08913	88
0.16884710534084368	DB00777	P35462	77
0.16650186459975053	DB00777	Q96RJ0	79
0.15615566904194025	DB00777	P47869	69
0.15134387135737704	DB00777	P31644	64
0.14956442145570392	DB00777	P14867	70
0.1493073196573748	DB00777	P34903	62
0.1493073196573748	DB00777	P48169	62
0.1475848726501841	DB00777	Q16445	57
0.14218803815009282	DB00777	Q05586	83
0.13690135231397246	DB00777	Q8TCU5	72
0.13308627984712226	DB00777	P30536	49
0.13251593021087188	DB00777	P18089	80
0.13214069707034823	DB00777	Q01959	88
0.12912355441142975	DB00777	P62158	87
0.12904237528520732	DB00777	O15399	67
0.12708052732060726	DB00777	P02768	85
0.12488574520354813	DB00777	P46098	76
0.12359746090684752	DB00777	P18825	79
0.11733825719242993	DB00777	O60391	54
0.11692929254180298	DB00777	P41145	87
0.11568575700841217	DB00777	Q14097	51
0.11294922677806964	DB00777	Q12809	76
0.10987973454166308	DB00777	P18505	56
0.10931267891547193	DB00777	O00555	82
0.10791189837057238	DB00777	P08183	78
0.10773317676095205	DB00777	P27361	83
0.10764669891397391	DB00777	P05023	68
0.10717916039561909	DB00777	P47870	54
0.10641886790283701	DB00777	P27338	72
0.10483112164077409	DB00777	P00918	68
0.10399938476390495	DB00777	P00915	68
0.10267287387197496	DB00777	P17405	61
0.09777660861476198	DB00777	Q9NYX4	59
0.0977101858489576	DB00777	O95180	67
0.09537497254970367	DB00777	P30967	62
0.09363009058704061	DB00777	P27986	68
0.09269942545613671	DB00777	P07140	86
0.09181069587147167	DB00777	P20648	62
0.0912012195201202	DB00777	P30531	68
0.08920448209357357	DB00777	P02763	53
0.08604965987805627	DB00777	P15207	77
0.08544192297988192	DB00777	P21396	70
0.0854186534422674	DB00777	P41143	80
0.08521587545667052	DB00777	P16860	63
0.08510697586532523	DB00777	P17302	60
0.08493092659769338	DB00777	P03372	75
0.0843151392618546	DB00777	O43497	58
0.08372104085881626	DB00777	Q13224	77
0.08364902057178891	DB00777	Q14524	75
0.08350359827669436	DB00777	P05184	57
0.08235636631096177	DB00777	Q9Y5Y9	66
0.08222244483121156	DB00777	P10635	77
0.08170921749727815	DB00777	P15692	55
0.08162508151664058	DB00777	P35372	81
0.08113649667730252	DB00777	P06401	73
0.08027188815213676	DB00777	Q16568	61
0.08026085022547595	DB00777	P10145	55
0.07744004123843232	DB00777	P01375	62
0.07729325699464482	DB00777	P30542	77
0.07374699886632362	DB00777	P42261	73
0.07216548270075515	DB00777	B1AQM5	18
0.07205891629340427	DB00777	P29477	82
0.0713385034919407	DB00777	P16435	55
0.07096493410300184	DB00777	P21452	61
0.06894832721088978	DB00777	Q15822	60
0.06884897289019261	DB00777	P98194	62
0.06881912993729346	DB00777	Q9H3N8	42
0.06742696461683399	DB00777	P29274	63
0.065937097251598	DB00777	P11511	43
0.06531546257797247	DB00777	P19491	66
0.06520771844043913	DB00777	O95298	32
0.06504442661141203	DB00777	P21964	64
0.06489067644888676	DB00777	P01138	47
0.06486255442277629	DB00777	P04177	71
0.06473590876538722	DB00777	Q12879	70
0.06472669948011439	DB00777	P50406	45
0.06339367206889651	DB00777	P23415	65
0.06321551820407957	DB00777	P04150	75
0.06296760689561502	DB00777	P09917	74
0.06258882132558745	DB00777	Q07343	76
0.06223531044024036	DB00777	P05093	71
0.06216194560346156	DB00777	Q13936	64
0.062002485422763466	DB00777	P09172	52
0.06134234412712228	DB00777	P39086	66
0.061262684750291195	DB00777	Q9UI33	50
0.06119560564910797	DB00777	Q92887	75
0.0606020587579466	DB00777	Q9Y271	45
0.060483217190327454	DB00777	P09211	62
0.06036962552295031	DB00777	P33765	67
0.059884688086270156	DB00777	P00387	64
0.05965241774841307	DB00777	Q9Y5N1	39
0.059084194922019356	DB00777	P35498	60
0.05859210501618348	DB00777	P27815	72
0.05813733576599465	DB00777	P16220	58
0.05806387386680081	DB00777	P33527	70
0.05746412513734529	DB00777	P28472	55
0.05595676841153231	DB00777	P51828	66
0.05588163493559335	DB00777	Q5TZY3	48
0.05582157357013694	DB00777	P03886	54
0.055619376968875596	DB00777	P80147	62
0.055291381788203954	DB00777	null	7
0.05525739544331217	DB00777	P47712	66
0.0551737827075533	DB00777	P04083	71
0.05503320847711395	DB00777	Q9UNQ0	69
0.05496674970873858	DB00777	P00533	64
0.05474476711214125	DB00777	Q12791	59
0.05463828853798544	DB00777	O43526	63
0.05463671229351981	DB00777	P25103	55
0.05455672389184846	DB00777	P05979	67
0.0544777545453529	DB00777	P12821	63
0.054467108174795505	DB00777	Q9NS75	41
0.05434315705553697	DB00777	P22906	68
0.05411906979870968	DB00777	P06276	53
0.05407917876378866	DB00777	P01584	33
0.05406521404448355	DB00777	Q9Y6L6	64
0.053663661194793044	DB00777	Q9GZZ6	50
0.05360696133093142	DB00777	P30872	58
0.0535255137278775	DB00777	Q15858	54
0.053455361419883926	DB00777	Q9UQD0	50
0.053142378557498614	DB00777	P01189	63
0.05299793511160191	DB00777	Q9P0X4	32
0.05281296446340584	DB00777	P41146	61
0.05238777083081789	DB00777	P17752	64
0.052292879181039385	DB00777	Q05769	65
0.05224751622491891	DB00777	Q09470	54
0.05137009442402912	DB00777	P08185	67
0.05120409354977786	DB00777	Q14432	60
0.050930651785394104	DB00777	P36544	53
0.050667949610504755	DB00777	Q00975	53
0.05049972259247723	DB00777	P19838	65
0.050448389680626704	DB00777	P29275	55
0.050055329861030326	DB00777	P48029	47
0.0498536314151183	DB00777	P21462	38
0.049280977773921784	DB00777	P20171	72
0.04911389263775945	DB00777	Q13258	36
0.04906269462347062	DB00777	P43681	53
0.04902957003096368	DB00777	P28482	67
0.04879067398302637	DB00777	Q16678	53
0.04876010065333272	DB00777	Q08828	64
0.048753889118632494	DB00777	Q99250	47
0.04864785922153607	DB00777	Q5SQC4	50
0.048528758571494884	DB00777	O95742	45
0.04838594716034158	DB00777	P04278	60
0.04830531962218749	DB00777	Q14654	59
0.04807319603102856	DB00777	P29473	67
0.04791228189094009	DB00777	O76074	59
0.047872616822579775	DB00777	P51787	55
0.04695798597546445	DB00777	P24530	44
0.046921854264158916	DB00777	P35031	64
0.04668553107954567	DB00777	P20815	54
0.04659696446706158	DB00777	Q9PTT3	57
0.04658765908176023	DB00777	P25101	44
0.04648394255315542	DB00777	P13569	57
0.04631117564907307	DB00777	P17787	53
0.04624627769272493	DB00777	P00749	60
0.04624272409084336	DB00777	P35222	57
0.04619814085964049	DB00777	Q9NP56	36
0.0460479461011083	DB00777	Q9UN76	44
0.04601040767019599	DB00777	P30411	44
0.04575100667542306	DB00777	P01132	66
0.0456539771191058	DB00777	P23297	37
0.04549432256321552	DB00777	Q8IWU9	53
0.04540667950236726	DB00777	P80276	68
0.04539868087733229	DB00777	Q07785	63
0.04520570810883469	DB00777	Q9WV60	63
0.04498975741508119	DB00777	P37288	36
0.04495689479310737	DB00777	P29476	64
0.04487283248666903	DB00777	P35499	37
0.044865821366460626	DB00777	P47901	36
0.04485431858787835	DB00777	null	15
0.04475547965635264	DB00777	P16109	64
0.044453457177942676	DB00777	P59071	41
0.044401248269419887	DB00777	O15530	61
0.04427907345533128	DB00777	P11712	41
0.044249847356508526	DB00777	O15554	57
0.04414248650188381	DB00777	null	14
0.04392626575633879	DB00777	Q9N587	43
0.043677228476075365	DB00777	Q13946	31
0.04362305071135746	DB00777	P35346	51
0.043523933778205855	DB00777	Q14957	44
0.043064669826041145	DB00777	O60840	44
0.042957298245714995	DB00777	P05091	51
0.04288811745986369	DB00777	P11509	40
0.04261815861175511	DB00777	P61278	48
0.04227110595523838	DB00777	O00305	50
0.0421549905281854	DB00777	P63316	49
0.04210927122620141	DB00777	P23141	45
0.042015317990423205	DB00777	P48061	53
0.042007776867345234	DB00777	null	10
0.04184189231789442	DB00777	P30518	32
0.041786671281733974	DB00777	Q01668	42
0.04176918282705048	DB00777	P00750	67
0.04170028000592875	DB00777	P24941	60
0.04139983744256925	DB00777	P03958	65
0.04127682492109388	DB00777	P05412	50
0.04125413399130638	DB00777	Q00535	57
0.04124815072745737	DB00777	Q62986	56
0.04122709920742695	DB00777	P54289	56
0.04108025192779004	DB00777	P00735	61
0.04094423085787971	DB00777	Q13621	51
0.04077863113568783	DB00777	Q9NY47	55
0.04025326133366811	DB00777	P55011	51
0.040171375509131906	DB00777	P31749	62
0.04011143538119945	DB00777	Q14416	55
0.03998130728603331	DB00777	P62508	56
0.03991913821635114	DB00777	P01275	45
0.03977813987091365	DB00777	Q9NY46	34
0.039607953869405785	DB00777	P11388	51
0.039563403443785776	DB00777	Q9UKX5	50
0.039559713976044956	DB00777	Q16853	43
0.03952551799481725	DB00777	Q14832	55
0.03940012200867521	DB00777	O14732	42
0.03934275199313786	DB00777	P30049	34
0.03930540178323474	DB00777	P12931	65
0.03910645533874889	DB00777	P10828	61
0.03905547908261614	DB00777	P30559	30
0.03902032028264828	DB00777	O95342	49
0.03895876086049592	DB00777	P05154	51
0.038857620491434784	DB00777	P23416	40
0.03879627122286582	DB00777	Q13698	40
0.03872909414161588	DB00777	Q6VVX0	40
0.03872298758582276	DB00777	P07511	57
0.03864887447756008	DB00777	P55017	47
0.038590106987492816	DB00777	P05121	59
0.03855286777618007	DB00777	P10648	55
0.03847422340197704	DB00777	P10721	61
0.03844340584334177	DB00777	P28702	55
0.038432092715956996	DB00777	Q08345	62
0.03843064641310706	DB00777	P54707	29
0.03840873800447183	DB00777	P26358	44
0.03822019080515061	DB00777	P25116	48
0.038168567855742006	DB00777	P01008	52
0.03815962432848581	DB00777	P46881	37
0.038107569393485585	DB00777	Q99884	33
0.03806988003204851	DB00777	Q9H252	44
0.03803578911221924	DB00777	P51843	47
0.03803543378298478	DB00777	P08069	62
0.038005797429714404	DB00777	P62994	40
0.03793628395709721	DB00777	P08253	56
0.03785314538001353	DB00777	O15230	51
0.03785020374740267	DB00777	P05231	51
0.037799147406623504	DB00777	P05787	50
0.03778478794346464	DB00777	P06213	60
0.037776370497175436	DB00777	Q05329	60
0.0376815743951716	DB00777	P02671	53
0.037634780465790434	DB00777	Q05940	39
0.03762817948439704	DB00777	P29972	59
0.037622054990559296	DB00777	P08235	52
0.03742004280535489	DB00777	P00747	62
0.037371757182753526	DB00777	P10276	58
0.03732702460416825	DB00777	P02787	59
0.03730146584182515	DB00777	P10826	58
0.03728201896263313	DB00777	P01019	54
0.03726169380435351	DB00777	P02774	52
0.037225778744158826	DB00777	P07824	58
0.037180064397452285	DB00777	Q28943	58
0.03713006538013852	DB00777	P04629	60
0.03699224882282057	DB00777	Q99259	59
0.036708561079437256	DB00777	P49441	39
0.03669702255158214	DB00777	P16234	60
0.0366808635864408	DB00777	P13009	61
0.036674226546202615	DB00777	P48048	44
0.03666422125135532	DB00777	P07437	53
0.03664893247688833	DB00777	P78348	47
0.03662460455800791	DB00777	P72849	62
0.036517797515013724	DB00777	Q16539	41
0.03628504753394309	DB00777	P14780	57
0.03604246652222779	DB00777	Q03181	55
0.03601004957389867	DB00777	P04905	58
0.03598976384468805	DB00777	P34995	45
0.03596435754197174	DB00777	P19793	57
0.03594667380969427	DB00777	P54687	47
0.035946303748449045	DB00777	Q9BYF1	35
0.03586252548931783	DB00777	P13631	52
0.03583885465751772	DB00777	P63000	59
0.03583558923987178	DB00777	Q16515	44
0.0357897507048207	DB00777	P06870	51
0.035751318824704816	DB00777	P13702	53
0.0356595254550872	DB00777	Q9H244	48
0.03561794297727223	DB00777	Q9UGM1	36
0.03555381699568987	DB00777	P16092	52
0.03540393781267348	DB00777	Q9NR96	48
0.03524936053501446	DB00777	Q9Y251	47
0.03514735378032162	DB00777	P08842	55
0.03511210959179465	DB00777	P41594	49
0.035016643347337235	DB00777	P11802	59
0.03490105838708978	DB00777	P00352	56
0.034883627441270854	DB00777	Q9UM73	58
0.034880436498061135	DB00777	P01009	58
0.03485065499250235	DB00777	P04626	52
0.03476637749279671	DB00777	O95665	17
0.03475961497020495	DB00777	P17252	52
0.034750989542951534	DB00777	P22455	53
0.03472616775179955	DB00777	P01579	52
0.034697531182015295	DB00777	O02697	58
0.03466455403052209	DB00777	P24385	52
0.03466108401970024	DB00777	P08684	36
0.0346324352637562	DB00777	O15439	53
0.03457508061826752	DB00777	P34914	51
0.034546602119574124	DB00777	Q99720	52
0.03443868992225166	DB00777	P16050	47
0.0344279482608619	DB00777	P21554	33
0.034371431727968665	DB00777	P29218	43
0.034371264242984936	DB00777	P18241	52
0.03433186827235165	DB00777	P00743	53
0.034230372850046584	DB00777	O02705	60
0.034228882930881055	DB00777	O60488	59
0.03419027115966925	DB00777	P05107	57
0.03418292247170493	DB00777	P11766	58
0.034110423949326035	DB00777	P08254	49
0.0340457751139007	DB00777	Q5SQR9	35
0.03399756415738155	DB00777	P54284	39
0.03394482783969697	DB00777	P68403	52
0.033931015587347305	DB00777	P15559	53
0.033848301978231105	DB00777	P27169	51
0.033701937613955554	DB00777	P06241	52
0.03364771591722614	DB00777	Q7Z2W7	43
0.03351996374082662	DB00777	P15502	37
0.03348280116533609	DB00777	P08514	51
0.03346023896558712	DB00777	P62941	53
0.03344164132090157	DB00777	P10415	51
0.03340832632526135	DB00777	Q08881	56
0.033376112913230414	DB00777	P19634	40
0.033362660123702	DB00777	P07949	47
0.03335332167807003	DB00777	P42574	55
0.033217169466660916	DB00777	Q8NET8	42
0.03303498077886581	DB00777	Q08188	57
0.032980799716581605	DB00777	P05164	37
0.032924176815068866	DB00777	O75762	38
0.03291086288129448	DB00777	P22966	38
0.03290500810332596	DB00777	P23385	47
0.032845425483868616	DB00777	P04117	57
0.032838410373353166	DB00777	P43405	57
0.03276765697427537	DB00777	Q04759	54
0.032763189165329304	DB00777	Q9UKV0	42
0.03273939867183317	DB00777	P23109	51
0.032704364043788035	DB00777	Q9H2X9	44
0.03269217912011316	DB00777	P21802	50
0.032630488267036066	DB00777	P07996	50
0.03262094898689962	DB00777	P0A884	54
0.032618297471986656	DB00777	P21817	44
0.032603822335287275	DB00777	P34972	35
0.03252366760318313	DB00777	P20711	50
0.03251463449609048	DB00777	P01137	46
0.03244828358889996	DB00777	O18924	53
0.03235885748474594	DB00777	P01042	49
0.032305495722468804	DB00777	O15540	54
0.032270496258273544	DB00777	Q02641	38
0.032267784028116295	DB00777	P23946	47
0.032243301701100506	DB00777	P06239	55
0.03214073272498435	DB00777	Q07954	52
0.03209795377552354	DB00777	P18031	55
0.03207491604265193	DB00777	P06858	47
0.03206821114169574	DB00777	O75311	33
0.03202273589558271	DB00777	P13500	44
0.032008305662806394	DB00777	Q9UBK8	43
0.031967183567599554	DB00777	P08581	40
0.03193621504913691	DB00777	P48167	33
0.03191219534460972	DB00777	P00760	49
0.031808755609103824	DB00777	P19971	46
0.03179110297029574	DB00777	O00519	48
0.031560790809899965	DB00777	Q17328	21
0.031526582467960536	DB00777	P05106	50
0.031453108604826994	DB00777	Q14749	41
0.03136383950124516	DB00777	P21980	55
0.03136046029008363	DB00777	P12259	51
0.03129019812769126	DB00777	P63098	37
0.0312884422107518	DB00777	P41240	54
0.03126891769060306	DB00777	P14210	53
0.031166921031293524	DB00777	Q02318	45
0.031127917352072588	DB00777	P48443	48
0.03109093164982964	DB00777	P43119	41
0.03101496795529247	DB00777	Q08289	43
0.03099286061100015	DB00777	Q8NER1	53
0.030956772071073176	DB00777	P28523	56
0.030910072643391313	DB00777	P00797	52
0.030905037220886236	DB00777	O60603	46
0.0308549035389755	DB00777	P17936	46
0.030850877873905204	DB00777	P06307	45
0.030800238681172293	DB00777	P02679	45
0.030728964468288846	DB00777	P10827	49
0.030697526831054527	DB00777	P21589	46
0.030642424623083954	DB00777	P07947	49
0.03060583059009412	DB00777	P02461	46
0.030600785118894813	DB00777	Q06432	38
0.030591459694633488	DB00777	P51172	41
0.030569032521227425	DB00777	P00450	50
0.03055285106593786	DB00777	P01213	49
0.030538080919530305	DB00777	P46883	33
0.030531243438856943	DB00777	Q5FBE1	45
0.0305029103990081	DB00777	P06850	46
0.030427040087332186	DB00777	P22411	53
0.030334084699736186	DB00777	P49327	36
0.030255121691886655	DB00777	P35968	44
0.03024743495064757	DB00777	P78559	47
0.030205320262394766	DB00777	O94788	51
0.030202670079921185	DB00777	P00808	38
0.03018014951490726	DB00777	P22748	35
0.030121892122387396	DB00777	O95864	55
0.03006532085712873	DB00777	P22607	48
0.03002296320217461	DB00777	Q9UP95	41
0.02999417301254488	DB00777	P51170	47
0.029969193090717605	DB00777	P02741	42
0.02994223473502374	DB00777	P42330	56
0.029894637883697145	DB00777	P16410	47
0.029844147536447933	DB00777	P00178	29
0.0297772085889908	DB00777	P01130	43
0.02977345385165293	DB00777	P16066	36
0.029744910304598648	DB00777	P12497	43
0.029719638145548396	DB00777	P61586	54
0.02969916602286872	DB00777	P09619	50
0.029587984721389314	DB00777	O75899	33
0.029465218310362376	DB00777	P02675	43
0.02936517766574268	DB00777	P09038	48
0.02936106874082704	DB00777	P23921	45
0.02924171719967778	DB00777	O95477	51
0.02923139599590646	DB00777	P00390	53
0.029221070131367745	DB00777	P09871	48
0.029220756979936025	DB00777	P50613	54
0.029139010627727377	DB00777	P13745	50
0.029121517948733074	DB00777	P02788	52
0.029078890140831107	DB00777	P68135	50
0.029009092755346497	DB00777	P00488	52
0.028996050129689803	DB00777	Q14289	45
0.028991689255230907	DB00777	P14543	41
0.02897985474499549	DB00777	Q15111	40
0.028960578631276657	DB00777	P05413	51
0.028960385362671107	DB00777	P62942	45
0.028915739247656697	DB00777	P32418	51
0.028819640186949033	DB00777	P16581	47
0.028760905895702012	DB00777	Q09428	46
0.028713955607586317	DB00777	P35557	49
0.028693530512847017	DB00777	P12532	39
0.028691367495903147	DB00777	O60733	37
0.028616880452850615	DB00777	P36952	52
0.02860373609401787	DB00777	P55055	53
0.028585724675611057	DB00777	P82197	52
0.028530156138842307	DB00777	Q9UBS5	36
0.0284995343936476	DB00777	P12318	46
0.02845736338054905	DB00777	P07333	52
0.02845457329514625	DB00777	P00761	47
0.02841523889254251	DB00777	Q92876	43
0.028369511548466134	DB00777	P29460	45
0.028341429686082456	DB00777	P13612	46
0.028326716226788264	DB00777	P43007	52
0.028319307133108804	DB00777	O43272	34
0.028283031549848573	DB00777	P22932	47
0.02827867429024291	DB00777	P08631	49
0.028268934697321176	DB00777	P19367	51
0.028237878029531482	DB00777	Q9Y285	43
0.028214974886154133	DB00777	Q07869	43
0.02821174219780337	DB00777	P11974	51
0.028173519406980263	DB00777	P11166	44
0.02812712995744668	DB00777	P00519	47
0.028106945461400308	DB00777	P12277	34
0.028098020764678214	DB00777	P14778	37
0.028070049323324023	DB00777	P06746	51
0.02806182116257911	DB00777	P16442	49
0.028018911979325337	DB00777	P06732	38
0.027985458927035193	DB00777	P19801	46
0.027909763971540703	DB00777	Q9UPY5	43
0.02789864947768511	DB00777	P28329	44
0.027885264824787905	DB00777	P50172	51
0.0278806091682065	DB00777	P13674	37
0.027876276707004884	DB00777	Q03405	42
0.027695015733655313	DB00777	P14902	47
0.027678299748875475	DB00777	O75015	45
0.027574495954762857	DB00777	P78540	50
0.027541663369947064	DB00777	O75891	50
0.0275413815121162	DB00777	O60706	45
0.027523034275137893	DB00777	P55859	51
0.027512774801829898	DB00777	Q04760	46
0.027439824117230567	DB00777	P00326	49
0.027425995711345068	DB00777	P06881	32
0.027383738409300366	DB00777	P07339	44
0.027375411868474284	DB00777	P35916	42
0.02732243301338349	DB00777	P48507	45
0.0272755052683528	DB00777	P42224	48
0.027270366574023503	DB00777	P37088	44
0.027222232901903898	DB00777	Q9QYY9	43
0.027168139134434666	DB00777	P11309	51
0.027165362342792737	DB00777	P11137	40
0.027152304537066414	DB00777	Q06520	50
0.02712638847041768	DB00777	P14625	43
0.02712137035174213	DB00777	P98160	47
0.027096157420555694	DB00777	P12269	49
0.02708754942139958	DB00777	P04004	36
0.027054396080502776	DB00777	P04070	44
0.027014234386108154	DB00777	Q13231	48
0.027003973409280364	DB00777	P48039	43
0.026990696970137115	DB00777	O94956	40
0.026899446221336203	DB00777	P24298	48
0.02688766966432596	DB00777	Q13131	50
0.026829965232708086	DB00777	Q08220	39
0.02681967395425192	DB00777	Q15758	48
0.02681555695055749	DB00777	P58154	36
0.026811438782738777	DB00777	P02751	42
0.026709659667878773	DB00777	P10997	33
0.026676971203012864	DB00777	O14965	48
0.026666774619452337	DB00777	Q13547	40
0.026651799563132055	DB00777	P29373	48
0.026650080832010654	DB00777	P07204	40
0.02661961248766848	DB00777	P00451	44
0.02659711378977717	DB00777	P01023	45
0.026560600276458915	DB00777	Q9UHW9	42
0.026528908037491576	DB00777	P30086	45
0.02648544913561718	DB00777	P02452	45
0.026471522873821256	DB00777	O15553	44
0.02643669092156644	DB00777	P40394	48
0.026418353649081114	DB00777	P29762	48
0.02635167625859105	DB00777	P05120	45
0.026314061339557163	DB00777	P37023	49
0.026309732716560653	DB00777	P16070	40
0.026293425455205584	DB00777	Q01063	36
0.026240453070501116	DB00777	P11021	44
0.026227226311186187	DB00777	P37840	42
0.02622441987098407	DB00777	O15438	44
0.02621055523289653	DB00777	P02792	42
0.026121067645224923	DB00777	P51168	43
0.026116888716751482	DB00777	P09486	41
0.02611027044824755	DB00777	Q06187	48
0.026101228673571363	DB00777	P20366	39
0.02609175507529346	DB00777	P02699	45
0.026059775577810574	DB00777	O14920	39
0.026056495273112552	DB00777	P12319	44
0.026052112984100137	DB00777	Q5T1J1	45
0.026007461902686987	DB00777	O75469	38
0.026002999618943697	DB00777	P30556	35
0.025991225951629265	DB00777	P29317	42
0.02594464002275595	DB00777	P78556	47
0.025940685261791992	DB00777	P04191	43
0.025921705047803195	DB00777	P31213	45
0.025913408238310398	DB00777	P35030	41
0.02587692411180475	DB00777	P49888	49
0.025872257119783054	DB00777	Q9UHI5	44
0.025849983086020524	DB00777	P11473	38
0.02584499647197233	DB00777	P10868	41
0.025824200563094007	DB00777	P04156	30
0.02580846894470336	DB00777	Q9Y286	50
0.025805417841895082	DB00777	P43133	35
0.025800914935679375	DB00777	P45452	35
0.025688967897241264	DB00777	P22449	45
0.025680436335160196	DB00777	P42260	27
0.025678710152386174	DB00777	P14779	35
0.025641169236222595	DB00777	P39900	34
0.02563553462158622	DB00777	Q02127	45
0.02561246629130387	DB00777	Q8TDS4	42
0.025610040574534986	DB00777	P17948	35
0.025592711885164033	DB00777	P11586	48
0.025578194389003803	DB00777	O76082	42
0.02557510130048408	DB00777	P43702	30
0.025523047455623882	DB00777	P43115	30
0.025522882156475687	DB00777	P35520	44
0.025512566602512415	DB00777	P29120	43
0.025509596201129924	DB00777	Q02817	41
0.025506474191156633	DB00777	Q9Y478	48
0.025443314384937837	DB00777	P08037	48
0.025417521237916463	DB00777	O15528	43
0.02540502373419626	DB00777	Q8XJ01	27
0.02539949567851886	DB00777	Q05603	33
0.02534307264027151	DB00777	P17735	36
0.02533333765572354	DB00777	P29466	44
0.02530690790210687	DB00777	O14786	43
0.02518353814345162	DB00777	P02818	36
0.02513439839195923	DB00777	P05113	38
0.025095507488356025	DB00777	O95069	38
0.025088696443677134	DB00777	P63104	39
0.02507200924739506	DB00777	P08709	41
0.025070536521624234	DB00777	P12724	47
0.024997001780461384	DB00777	P04271	35
0.02497057822229823	DB00777	P82251	40
0.02495672804050213	DB00777	P00325	47
0.024945313805227614	DB00777	Q06124	38
0.024912906235252615	DB00777	Q9NVS9	44
0.024903799337474598	DB00777	P98164	36
0.024894747001914717	DB00777	P50416	40
0.02484538007633491	DB00777	P84010	48
0.024806259544427195	DB00777	P13444	43
0.024746140878504196	DB00777	O43570	38
0.024721170426603597	DB00777	P03951	43
0.02468580545958641	DB00777	P50225	47
0.0246745377856742	DB00777	P08473	36
0.02464866685620621	DB00777	P05230	46
0.024598060865827425	DB00777	P04114	36
0.024595709720828147	DB00777	P0A512	42
0.024571093857946393	DB00777	P36888	41
0.024545953532798172	DB00777	P00004	45
0.024537678649527203	DB00777	P51681	32
0.024526858234635584	DB00777	P15056	44
0.024457730664150783	DB00777	P43116	38
0.024273573310745186	DB00777	O95820	36
0.024186715084399516	DB00777	P36873	48
0.02412080341791201	DB00777	P18405	39
0.02410806653679792	DB00777	Q00534	44
0.02410637845312092	DB00777	P04040	38
0.024104597625420422	DB00777	P49419	42
0.02402751902889634	DB00777	P21266	41
0.02401483815288154	DB00777	P22894	33
0.023965236587546075	DB00777	P49137	46
0.023893285237225587	DB00777	P15144	39
0.023890286936597296	DB00777	P49773	45
0.023883925870567584	DB00777	Q9BQB6	33
0.023881838325666482	DB00777	P50440	35
0.02385050886397713	DB00777	P15382	29
0.023827082221051885	DB00777	P0A7J6	33
0.023822650103069033	DB00777	P0A6T8	44
0.023803295504375963	DB00777	P00504	45
0.023797750245672704	DB00777	P52895	45
0.023785327452926396	DB00777	P03706	32
0.023735138858086473	DB00777	P01012	37
0.02371437316025479	DB00777	P02794	39
0.023686744739603673	DB00777	O60760	40
0.023675549370890312	DB00777	Q16881	43
0.02355855360223963	DB00777	P42861	45
0.02355778593334564	DB00777	P30825	46
0.023556214333730653	DB00777	Q13464	33
0.023495172378188687	DB00777	P20333	33
0.02348421362299781	DB00777	P13726	36
0.023465195195443152	DB00777	P10153	46
0.02345513720510648	DB00777	O43741	46
0.02345232311051333	DB00777	P07711	46
0.023443063311492863	DB00777	P06737	46
0.023430522340982207	DB00777	P01374	36
0.023425234762886438	DB00777	P06612	43
0.023416157391363965	DB00777	P13501	38
0.023379695569405404	DB00777	P01589	36
0.023375450456311713	DB00777	O60858	42
0.023374035027653905	DB00777	O95573	48
0.023345459327129805	DB00777	P69905	36
0.023335802694493556	DB00777	P04062	40
0.023292119278850196	DB00777	P12235	44
0.02315331430402792	DB00777	P09874	39
0.02313599992464958	DB00777	P14735	40
0.02305356607348697	DB00777	P61073	32
0.023034115713553373	DB00777	Q9NSA0	40
0.023008290905490413	DB00777	P34897	32
0.02298338868451949	DB00777	P43700	27
0.02290126459116862	DB00777	Q99808	40
0.02287278933097481	DB00777	P01270	37
0.02283103501572778	DB00777	Q9P2W7	42
0.022821975837975607	DB00777	P05132	44
0.022798889101715073	DB00777	Q9Y663	47
0.022798177043172912	DB00777	P04695	38
0.02277891912537412	DB00777	P14061	43
0.02270683932823348	DB00777	P45954	41
0.022703909254778123	DB00777	Q16773	45
0.022693174035953355	DB00777	Q99497	35
0.02261389499014967	DB00777	P00440	46
0.02259916044892957	DB00777	P49619	40
0.0225898040546072	DB00777	P30044	34
0.022519998238968303	DB00777	P05452	30
0.022509388486837954	DB00777	P22413	36
0.022494531263462226	DB00777	P27443	45
0.02241865120314879	DB00777	P07805	47
0.022392497149894487	DB00777	P30968	36
0.02236592223615104	DB00777	P33121	44
0.022365865730359827	DB00777	O14727	42
0.022365515187058465	DB00777	P50750	42
0.022363409755426764	DB00777	P27930	32
0.022334291477259394	DB00777	P30566	31
0.022313660200203828	DB00777	P43220	40
0.022302013882945063	DB00777	P16083	35
0.022244576328593328	DB00777	O60427	45
0.02214367547333996	DB00777	P00395	35
0.02205253838507568	DB00777	P20062	32
0.02204983698722394	DB00777	P08637	38
0.02203087483332174	DB00777	P02690	41
0.02201522177964904	DB00777	P16233	24
0.02201452095968167	DB00777	P00366	40
0.0219944897842254	DB00777	P02745	34
0.02195884583827203	DB00777	Q14894	37
0.02195788047825376	DB00777	P51164	25
0.021920837242827926	DB00777	Q12794	40
0.02190373944252938	DB00777	P42684	43
0.021881282971069546	DB00777	Q9UJ68	34
0.021847788564235172	DB00777	P50389	36
0.02184162079605374	DB00777	P07998	41
0.021840682447940574	DB00777	P07688	33
0.02181820572964887	DB00777	P42345	29
0.02181304295119386	DB00777	Q26998	38
0.02181040296635735	DB00777	Q9NP99	38
0.021792733983041743	DB00777	P54710	25
0.021770527396734025	DB00777	P17540	32
0.021679297873005543	DB00777	P00690	45
0.021669740387897627	DB00777	Q14500	35
0.021654940379841517	DB00777	O43447	30
0.02161922110881899	DB00777	Q59334	42
0.021591931375922337	DB00777	Q12806	23
0.021562479435349755	DB00777	Q29550	21
0.02151371304604531	DB00777	P16455	38
0.02150226231358061	DB00777	P31153	40
0.02149433335914189	DB00777	Q07912	33
0.021441212047986474	DB00777	Q9Y666	39
0.021437679398948126	DB00777	Q8ITG2	17
0.021437679398948126	DB00777	P24046	17
0.021437679398948126	DB00777	Q75NA5	17
0.02138836070282143	DB00777	P50579	38
0.021381188128118633	DB00777	O95865	38
0.021370990224934456	DB00777	Q9RME2	42
0.021356715152902727	DB00777	P26196	40
0.02134014794912853	DB00777	O76054	42
0.021332113256047315	DB00777	P29187	38
0.021306888542525618	DB00777	P47989	28
0.021293412511505544	DB00777	P41180	30
0.021257466634294276	DB00777	Q64105	44
0.021213277351816738	DB00777	P02185	35
0.02117945273855934	DB00777	Q9L5C8	25
0.021064514300470877	DB00777	Q9BWD1	42
0.021048400174503507	DB00777	Q9Y6T7	39
0.021031244005224357	DB00777	Q8WTV0	38
0.02103076570244705	DB00777	P08519	34
0.02098385830254233	DB00777	P37243	36
0.02086075108241175	DB00777	null	20
0.02081286184461678	DB00777	P62714	39
0.02078328041218627	DB00777	P02692	41
0.020775705485193575	DB00777	P19157	26
0.02077047331790021	DB00777	O15460	30
0.020744429674513648	DB00777	P48506	36
0.02069644742470272	DB00777	Q9WVT6	29
0.02069391395598469	DB00777	P30122	19
0.020677301399670597	DB00777	P30305	43
0.020670703520046792	DB00777	Q96A70	43
0.020643459707534086	DB00777	P00339	30
0.020632557679917722	DB00777	P08236	39
0.020628821450523638	DB00777	O94760	39
0.020628593383626662	DB00777	P21430	14
0.02061428315951144	DB00777	P38435	27
0.020596285176102156	DB00777	P20839	37
0.020588011565637256	DB00777	P41231	35
0.02056771489741363	DB00777	P16870	37
0.02043794430566798	DB00777	Q9NYK1	29
0.02043367198617729	DB00777	P21549	30
0.020418797626575596	DB00777	P02743	25
0.020384951106997132	DB00777	P23743	38
0.020366217311869324	DB00777	P10696	34
0.02036153995278722	DB00777	P02458	30
0.02035054040377435	DB00777	P24472	40
0.02031988418680763	DB00777	P20810	31
0.020317074505237155	DB00777	P53779	19
0.020315648611892365	DB00777	P06400	33
0.020289959976258945	DB00777	P23526	44
0.020288125007479067	DB00777	P0A094	33
0.02026138514818683	DB00777	P20594	20
0.02022853756255862	DB00777	Q96LZ3	33
0.02022024020881883	DB00777	P46100	35
0.020214694801483486	DB00777	P31224	28
0.0202058670024374	DB00777	P0C278	40
0.020205623681964678	DB00777	O60674	29
0.02020067353075766	DB00777	P49747	33
0.02015978022792019	DB00777	P01178	29
0.02011418420187709	DB00777	Q9GZT4	37
0.02011067436517525	DB00777	P43088	23
0.02009020675474984	DB00777	P00167	30
0.020032883869236955	DB00777	P26769	17
0.02001331694225237	DB00777	P47871	35
0.019940279105666894	DB00777	P23589	21
0.01992888081611881	DB00777	Q9UBB5	38
0.019901177801810267	DB00777	Q02643	26
0.01984599184605086	DB00777	P02649	24
0.019841231523595293	DB00777	P05546	39
0.019804785398635807	DB00777	Q12891	36
0.01979613651479039	DB00777	P0C0H6	39
0.019769354774677065	DB00777	P22361	37
0.019743064911776388	DB00777	P35558	36
0.019734165494649868	DB00777	P11413	43
0.01971624362730143	DB00777	O60494	30
0.01967978082286672	DB00777	P14555	26
0.01966047575397229	DB00777	O57380	37
0.01960044819707171	DB00777	P26439	36
0.019586322605835132	DB00777	Q01718	35
0.01955876155812481	DB00777	P08246	30
0.019525967734489988	DB00777	Q02809	23
0.019513083799749698	DB00777	P08697	25
0.019480928422134856	DB00777	P16519	37
0.019473668814624145	DB00777	P27797	38
0.019462891078950117	DB00777	O00180	35
0.019410338762941584	DB00777	O75100	38
0.019407257516301495	DB00777	P22888	30
0.019402485924355138	DB00777	P19711	39
0.019370957006890465	DB00777	P55157	29
0.019350238963052185	DB00777	O15379	33
0.019275820388942197	DB00777	Q5R1W0	41
0.019245681458250705	DB00777	P80188	28
0.01923612812984894	DB00777	Q9UKU7	41
0.019218666317548087	DB00777	Q9BY64	33
0.01919735608373334	DB00777	O00408	35
0.01910183136596055	DB00777	Q01469	37
0.019073531381288297	DB00777	P06244	37
0.019010012778406804	DB00777	P10688	31
0.018967569031509538	DB00777	Q15031	34
0.01885180501462525	DB00777	P00521	34
0.018840031068052814	DB00777	P20586	33
0.018838596455374255	DB00777	O14733	31
0.01880252410660152	DB00777	P34059	36
0.018781128911175993	DB00777	P49286	24
0.01878099730317976	DB00777	P54577	27
0.018750501942034443	DB00777	Q16647	34
0.018733090106731676	DB00777	Q9H015	35
0.018692135054825434	DB00777	Q9UI32	37
0.018609240996564788	DB00777	P19113	30
0.018569683719144716	DB00777	P23786	33
0.018549990078001906	DB00777	P51606	33
0.01854710797824531	DB00777	P04049	35
0.018526037392568414	DB00777	P24752	27
0.01849167709832046	DB00777	Q9Y259	33
0.018461171390397307	DB00777	P0A749	25
0.0184568729612192	DB00777	P62332	35
0.01842827022967277	DB00777	Q92769	29
0.018408681067811225	DB00777	P98170	27
0.018377905656422742	DB00777	P02652	37
0.018362200637689497	DB00777	Q92820	38
0.018334324178479668	DB00777	Q9UBN7	33
0.01829802790100444	DB00777	P29994	33
0.01829191415630686	DB00777	P00763	29
0.018248012340981185	DB00777	P05543	35
0.018222702614676123	DB00777	O43246	39
0.018222702614676123	DB00777	Q8WY07	39
0.018209707872782886	DB00777	P07814	26
0.018198751026543634	DB00777	P51512	27
0.01818418300273405	DB00777	P31800	29
0.018151545023758188	DB00777	P17707	37
0.018142227274046786	DB00777	P06971	34
0.018106835929314138	DB00777	P31335	39
0.01810630194326501	DB00777	Q46509	39
0.018086801056540137	DB00777	P10398	39
0.018072586119202295	DB00777	P32238	22
0.01806547174584227	DB00777	Q10588	37
0.01806380054872329	DB00777	P45478	36
0.018030577373893818	DB00777	P0A1F6	30
0.01792705409573957	DB00777	P19438	21
0.017917949645950573	DB00777	P00568	33
0.0179150729951456	DB00777	P49069	29
0.017901812735713122	DB00777	P10646	31
0.01790104552686785	DB00777	P68871	34
0.017877262567530295	DB00777	P08799	38
0.01787437837816661	DB00777	Q9NZV6	30
0.017861311713418072	DB00777	P31358	19
0.017846645240187257	DB00777	P53355	26
0.017846272328571458	DB00777	Q967M2	36
0.017840096540912967	DB00777	P45880	31
0.01779390123780532	DB00777	P18902	30
0.017772697317709744	DB00777	P83696	39
0.01772318210975604	DB00777	O35310	38
0.01772087691013468	DB00777	P13987	36
0.01771365840159695	DB00777	P00489	39
0.017704251675836176	DB00777	P16152	30
0.017674439667389873	DB00777	O00443	35
0.017653359836849635	DB00777	P11498	30
0.01764570581456498	DB00777	P26281	34
0.017620834876209225	DB00777	P07225	34
0.017619232438535765	DB00777	P31994	36
0.01761322535774498	DB00777	P83788	37
0.017579568577127155	DB00777	Q9Y2Z4	26
0.017576291589430408	DB00777	Q96C36	23
0.017570711248109973	DB00777	Q7SIA3	32
0.017512323740506285	DB00777	P53603	37
0.017478749100553317	DB00777	O90777	25
0.017476428810360267	DB00777	P23687	38
0.017472349589514123	DB00777	P12314	30
0.01746981799994885	DB00777	P01026	36
0.017458233381993395	DB00777	P01584	21
0.017428513599181534	DB00777	P05141	34
0.017407619108909568	DB00777	P32322	24
0.01739546517727038	DB00777	P49789	27
0.017389287442892937	DB00777	P21796	31
0.017381183828725163	DB00777	Q9Y257	30
0.01737919626404119	DB00777	P02747	29
0.017368150276723934	DB00777	P0AGG2	32
0.01729059072834228	DB00777	P15509	23
0.017275345619602957	DB00777	P00782	34
0.017232115661050006	DB00777	P0A6R0	33
0.017202269208824436	DB00777	Q43077	17
0.017185756458545653	DB00777	Q9Y233	30
0.01717574516973644	DB00777	Q9GZR5	40
0.017152795899915814	DB00777	P35790	32
0.01706341969742175	DB00777	P04789	32
0.017061564758189627	DB00777	P00327	37
0.017055792406372044	DB00777	P05451	34
0.01703197228067736	DB00777	Q01362	24
0.017026273107810734	DB00777	P16471	29
0.0170012317397011	DB00777	P24605	33
0.01698042809365343	DB00777	Q13426	31
0.01696082914667543	DB00777	P10912	22
0.01693275015420928	DB00777	P38567	31
0.01690908485154506	DB00777	O95363	28
0.01690908485154506	DB00777	Q9NSD9	28
0.0169004423736343	DB00777	P23096	33
0.0169004423736343	DB00777	P19656	33
0.016884193672937226	DB00777	Q04609	35
0.016874282136505027	DB00777	O00204	39
0.016853871575001827	DB00777	P05981	34
0.016828422983370252	DB00777	O60931	32
0.016827349902551664	DB00777	O14842	37
0.016794173511584635	DB00777	P0A953	35
0.016792304019897366	DB00777	P51161	29
0.01679034277037727	DB00777	Q02970	31
0.01678731712990827	DB00777	P02776	31
0.016782983887523327	DB00777	Q9NUB1	36
0.016779874048990274	DB00777	P46059	25
0.016773984384426944	DB00777	Q27743	38
0.016751142535470265	DB00777	P62494	36
0.016723628966003254	DB00777	P03950	35
0.01668129283621485	DB00777	P35408	27
0.016674465166360942	DB00777	P08311	23
0.01664930765204781	DB00777	Q8NFJ5	34
0.01663799900812206	DB00777	P27695	25
0.01663032186991622	DB00777	Q16850	26
0.0166243536004618	DB00777	P32239	21
0.016620704804031505	DB00777	O05891	37
0.016590892232526685	DB00777	P32449	29
0.016589803526668428	DB00777	P10824	25
0.016570006182027294	DB00777	Q9NR19	35
0.01655709857633799	DB00777	P21673	33
0.016556154326574885	DB00777	P49788	33
0.01655469580954128	DB00777	P25774	25
0.016543581042754878	DB00777	P60880	7
0.01653545714549006	DB00777	P80457	36
0.016478821576999078	DB00777	P14174	20
0.016439663341929436	DB00777	Q16878	31
0.016432847358937776	DB00777	P00736	27
0.016415115173721948	DB00777	Q13085	29
0.016404711627648033	DB00777	P30988	27
0.016375916536130252	DB00777	P48551	21
0.016296406935357582	DB00777	Q6SA80	34
0.016289102879058045	DB00777	Q9NZL9	30
0.016278573654481578	DB00777	Q01738	32
0.016262153275013378	DB00777	P00883	32
0.01622716276733394	DB00777	P31016	36
0.016220878463358675	DB00777	null	10
0.016220762267521498	DB00777	Q8YSC4	32
0.01610892829372466	DB00777	O94925	34
0.016044806179921985	DB00777	null	8
0.016028445711185113	DB00777	P03472	33
0.016028445711185113	DB00777	P83410	33
0.01602178912476747	DB00777	P36275	24
0.016001424343140905	DB00777	P15245	12
0.015993382363312148	DB00777	P02754	31
0.015975740182196826	DB00777	P21695	36
0.01593179225307511	DB00777	P11986	32
0.01591885298023708	DB00777	Q03013	33
0.015896103046663952	DB00777	P18757	31
0.015894923906957768	DB00777	P36959	32
0.015865579377619725	DB00777	P52569	36
0.01586280852139547	DB00777	P78368	21
0.015860627925435383	DB00777	P04119	29
0.015835054991563086	DB00777	P60045	29
0.015815553598291406	DB00777	P22061	27
0.01581543926282775	DB00777	Q7L0J3	28
0.01581078692400328	DB00777	P02778	20
0.0158105584505991	DB00777	Q15842	29
0.015785467173038924	DB00777	Q13509	25
0.015783087667010726	DB00777	Q96GD0	29
0.01574409673117034	DB00777	O14646	30
0.015712436676181007	DB00777	P49915	31
0.015697416280917476	DB00777	P12109	33
0.01569424271394978	DB00777	Q9VHA0	35
0.015686357419896067	DB00777	O15382	33
0.01566334097711813	DB00777	Q02750	23
0.015653724033392533	DB00777	Q27713	27
0.015641405578604994	DB00777	P17169	34
0.015608109410689231	DB00777	P17900	32
0.015604754734184951	DB00777	P01857	28
0.015602497078271837	DB00777	P02746	25
0.015596854654320374	DB00777	Q8NE62	28
0.015571510602596587	DB00777	P26951	21
0.015564515081752864	DB00777	P30613	33
0.01555520492484026	DB00777	Q05315	32
0.015525092058285056	DB00777	P07953	33
0.015508439505880812	DB00777	P00559	34
0.01547072348765999	DB00777	P0A745	29
0.015467600079861086	DB00777	Q9BYV1	36
0.015456453544937616	DB00777	O60779	8
0.01544986051222889	DB00777	P00183	31
0.015406212017505888	DB00777	O00157	29
0.015305697786221453	DB00777	P49235	34
0.015293789837048027	DB00777	P14770	31
0.015284638400148447	DB00777	P10253	27
0.015254974792200816	DB00777	P18509	19
0.015236595413166073	DB00777	Q9Y275	33
0.015195911000290305	DB00777	Q9BZX2	36
0.01518536901403169	DB00777	P19146	25
0.015164966153570224	DB00777	P20701	30
0.015117331876076018	DB00777	P53609	30
0.015117331876076018	DB00777	P61568	30
0.015060880822037624	DB00777	P47934	29
0.01502504994243315	DB00777	P06624	32
0.015021363928588103	DB00777	P17181	21
0.014983703554463731	DB00777	P07686	27
0.014978056277540815	DB00777	P05896	30
0.0149625514444889	DB00777	Q8WWI5	27
0.014957058915431006	DB00777	P00953	31
0.01494037452132866	DB00777	P93098	23
0.014935919542258726	DB00777	P22102	28
0.014883933173033164	DB00777	P03962	32
0.014874833061736155	DB00777	P00512	32
0.014873362206472276	DB00777	Q08649	35
0.014867131425867918	DB00777	P15260	19
0.014843861681300863	DB00777	P14060	31
0.014838972501258419	DB00777	O15269	32
0.014824546364404794	DB00777	P08546	36
0.014816191725308282	DB00777	P08010	35
0.014776106940855396	DB00777	O67648	31
0.014775903464505776	DB00777	P22891	27
0.014769621414571072	DB00777	P49019	28
0.014765404677196866	DB00777	P56740	27
0.014729652044735397	DB00777	P50135	20
0.014722429605236889	DB00777	P25500	35
0.014686405170585476	DB00777	Q13285	26
0.014669228929781038	DB00777	Q03103	30
0.014640403045085418	DB00777	P49121	30
0.014608055513854076	DB00777	P17931	19
0.014604761740941793	DB00777	P0A6E4	30
0.014594629262496547	DB00777	P30405	30
0.014594422282807815	DB00777	P35961	31
0.014534600645508215	DB00777	Q9UKG9	28
0.014513481414944011	DB00777	P28867	17
0.01447170708145716	DB00777	Q58663	29
0.014465430945601087	DB00777	Q59288	30
0.014465330465039006	DB00777	P08174	21
0.014449973868799136	DB00777	P33681	21
0.01443558155221055	DB00777	P54278	32
0.014426093900224417	DB00777	Q9P2T1	24
0.014410618548606775	DB00777	P00751	33
0.014408180693845274	DB00777	P34096	26
0.01438255079186026	DB00777	B1AQM5	7
0.014380930405411893	DB00777	P19999	30
0.01437622712469877	DB00777	O94903	18
0.014360246266226876	DB00777	P00492	27
0.014278033197697238	DB00777	Q10714	25
0.014271047586329706	DB00777	P46427	29
0.014250604713881319	DB00777	Q99714	18
0.014235959576722941	DB00777	P55210	24
0.01422677699220868	DB00777	Q93088	34
0.014219962147550187	DB00777	P37700	28
0.014169188715099907	DB00777	Q9NZD2	30
0.014169154149666645	DB00777	P14769	33
0.014165063877634785	DB00777	P0A820	33
0.014127605163070357	DB00777	P42081	20
0.014105878648099056	DB00777	P08700	23
0.014075062040075725	DB00777	Q9BXJ7	24
0.0140693703565859	DB00777	Q7SIC2	29
0.014060435533269335	DB00777	P37001	25
0.014060435533269335	DB00777	Q39250	25
0.014060435533269335	DB00777	P10384	25
0.014052243382051613	DB00777	P60880	18
0.014020943002550319	DB00777	Q969G6	28
0.013981412728449648	DB00777	P25815	25
0.013978924217468578	DB00777	P07260	27
0.013966655022702675	DB00777	Q8RQE8	24
0.013956731251110731	DB00777	P00508	29
0.013942881808203897	DB00777	P01031	19
0.013933101131430687	DB00777	P13688	21
0.013933023401142894	DB00777	Q9NWM0	31
0.013920938346978547	DB00777	P08243	32
0.013912408457308635	DB00777	P00924	29
0.01390403250143996	DB00777	P13036	25
0.013900984453245713	DB00777	P03234	28
0.01389581292915151	DB00777	B1AQM5	7
0.013865044331902554	DB00777	P16473	22
0.01386459554664104	DB00777	Q969P6	22
0.013860120659476474	DB00777	P08661	29
0.013848765096905346	DB00777	P00328	30
0.01382364998092459	DB00777	O60669	30
0.013814206513197808	DB00777	P13727	22
0.013813730023152173	DB00777	P49585	27
0.013811008034951304	DB00777	P61628	30
0.013785451685470261	DB00777	O60779	6
0.013785451685470261	DB00777	O60779	6
0.013785451685470261	DB00777	null	6
0.013785451685470261	DB00777	null	6
0.013785451685470261	DB00777	B1AQM5	6
0.013785451685470261	DB00777	O43519	6
0.013785451685470261	DB00777	Q96P88	6
0.013770569860302409	DB00777	P42126	32
0.013756413026716255	DB00777	P0A7X3	22
0.013756413026716255	DB00777	P0A7V8	22
0.013753060357673425	DB00777	P56273	19
0.013737980003828199	DB00777	Q96P88	25
0.013713847382981391	DB00777	Q9UDX3	27
0.013708641493645916	DB00777	P08123	17
0.013704957730709066	DB00777	Q9U8D3	34
0.013694537203908794	DB00777	P35505	31
0.013682134683740417	DB00777	Q9Y678	28
0.013679825275091912	DB00777	P08620	26
0.013664991683300516	DB00777	P12429	23
0.013659297011899798	DB00777	Q00796	31
0.013641650022513746	DB00777	P0A433	27
0.013640572593195486	DB00777	Q07412	30
0.013599980828298044	DB00777	Q03431	19
0.013586401434401254	DB00777	P07097	32
0.013574254422552853	DB00777	Q9NWT6	31
0.01355969832838004	DB00777	O28751	29
0.013559237167219422	DB00777	Q9BUP3	22
0.013554884920063353	DB00777	Q9P2J5	30
0.013552217263159208	DB00777	Q9HYN5	29
0.013550678122661995	DB00777	Q53591	30
0.013508286582841545	DB00777	P35610	28
0.013484728954345493	DB00777	O43519	28
0.013479077112529556	DB00777	P0AGJ9	19
0.013433389061822072	DB00777	P63185	18
0.013429319669376012	DB00777	P07170	32
0.013429045065316518	DB00777	Q8N0U8	22
0.013409404956172072	DB00777	P21731	17
0.013379805355136895	DB00777	P15538	27
0.013360756340676834	DB00777	P11836	17
0.013346133331200149	DB00777	P45523	13
0.013343007160939183	DB00777	P61889	30
0.013340475572847222	DB00777	P12333	29
0.013340475572847222	DB00777	P29498	29
0.013312299119369896	DB00777	P12995	30
0.013309960092794733	DB00777	Q00972	30
0.013299168156281103	DB00777	Q81VW8	23
0.01329725434971343	DB00777	P0A7E1	27
0.013293055097422337	DB00777	P16100	31
0.013288406176859589	DB00777	P07560	33
0.013280830269294486	DB00777	P79226	28
0.013268915309470792	DB00777	P13632	26
0.013239969006341851	DB00777	O00469	26
0.013228763628993117	DB00777	Q7RTX0	25
0.013212751735189068	DB00777	P11086	25
0.01320972207909072	DB00777	P29074	19
0.01319547838866423	DB00777	P32119	17
0.013186150829912084	DB00777	P68366	22
0.013178243387622166	DB00777	Q96EY8	23
0.0131660933494171	DB00777	P14324	25
0.013154695239622172	DB00777	P51788	20
0.013154076409873315	DB00777	P07237	27
0.013137594090420309	DB00777	null	1
0.013078369812169305	DB00777	Q99624	30
0.013058427345420188	DB00777	P34741	20
0.013000807075336768	DB00777	P14410	25
0.01299735553138889	DB00777	Q62639	29
0.012978148928164302	DB00777	P96558	5
0.012978148928164302	DB00777	O30585	5
0.012978148928164302	DB00777	P29166	5
0.01297733658737051	DB00777	Q16348	23
0.012964092931426772	DB00777	P03316	21
0.012938483481859567	DB00777	P23677	29
0.012938119335317069	DB00777	O00763	26
0.012935666815393052	DB00777	P14784	21
0.012932739166653365	DB00777	Q8VTT5	26
0.01293250890912323	DB00777	P02789	25
0.012930218433473098	DB00777	P54368	30
0.012927834159315399	DB00777	O60568	27
0.012854268522361337	DB00777	O08452	28
0.012840426692205498	DB00777	P17297	23
0.012837251238467112	DB00777	Q01433	22
0.012823107534685005	DB00777	P17213	28
0.012797742966863186	DB00777	P40261	26
0.012796221978409007	DB00777	P09148	31
0.01279214804882329	DB00777	Q9Y5K3	25
0.012782345997703316	DB00777	P39040	27
0.012771407397662962	DB00777	P15043	29
0.012751200702994762	DB00777	P61459	22
0.012751200702994762	DB00777	Q01782	22
0.012738014606526127	DB00777	Q9UGM6	25
0.012718822414098677	DB00777	Q24451	31
0.012714489864978916	DB00777	P07307	27
0.012711536809353935	DB00777	P06653	26
0.012705010144014515	DB00777	P07267	26
0.012680614931485737	DB00777	P22830	27
0.012662267562114297	DB00777	P22033	22
0.01265435296472768	DB00777	P25114	28
0.012638149480613049	DB00777	Q9UNN8	21
0.012631228702281137	DB00777	O08967	30
0.01262427363054026	DB00777	P20701	17
0.01262239313414467	DB00777	P20061	23
0.012603081476142789	DB00777	P39045	27
0.012581758182513387	DB00777	P19515	27
0.012581057668789492	DB00777	P23945	21
0.012580048060147495	DB00777	P27115	30
0.012578015347426618	DB00777	Q96323	26
0.012553757862363943	DB00777	P00766	28
0.012553475526341215	DB00777	P07202	20
0.012542977846499664	DB00777	Q62261	28
0.012523512667111169	DB00777	P12851	30
0.012519853584053121	DB00777	P63035	30
0.012484272827690877	DB00777	O14521	24
0.012480195283758518	DB00777	Q9UHC9	27
0.012477577534818634	DB00777	P20231	22
0.012453414456285604	DB00777	Q59976	27
0.01242810786572602	DB00777	O30124	27
0.012405167914928175	DB00777	Q96S41	22
0.01239477369749376	DB00777	P62219	29
0.012389372767003417	DB00777	Q9Y2Q3	30
0.012384705335682112	DB00777	P97571	20
0.012383535750669908	DB00777	O60513	28
0.012379915233839469	DB00777	P07327	28
0.012344669864566105	DB00777	P51800	21
0.012342866697089495	DB00777	Q59931	23
0.012337111688545252	DB00777	Q58206	28
0.012328986987957058	DB00777	Q96NT5	27
0.012310273157304567	DB00777	P64170	29
0.012306328850772008	DB00777	Q6ZMR3	29
0.012292875566360427	DB00777	Q9Y697	31
0.012292875566360427	DB00777	Q7Z2H8	31
0.012292875566360427	DB00777	P49588	31
0.0122465604953285	DB00777	P55773	25
0.012228144888000154	DB00777	Q9WZC2	31
0.01222062373708927	DB00777	B1AQM5	21
0.01222062373708927	DB00777	Q76NM6	21
0.012195897397844333	DB00777	P14207	25
0.012187814299866697	DB00777	Q06643	22
0.01217096966657054	DB00777	P31040	25
0.012159120402566944	DB00777	P09960	19
0.012157906137385951	DB00777	Q9UDX4	23
0.012157564671451777	DB00777	P51649	24
0.012141942965125038	DB00777	P30712	31
0.012117251140266086	DB00777	Q2HJI1	19
0.012072940234629652	DB00777	O95838	24
0.012066764060500865	DB00777	P10587	23
0.012023033902255306	DB00777	Q16772	29
0.012020926839836625	DB00777	P17125	22
0.012008636635905899	DB00777	O34928	26
0.012008636635905899	DB00777	P23776	26
0.012008636635905899	DB00777	P12564	26
0.01200758782399197	DB00777	P22498	29
0.011984664774570598	DB00777	P23381	24
0.011984664774570598	DB00777	P19466	24
0.011973059529485911	DB00777	O05783	27
0.01194365096109121	DB00777	P80511	22
0.011911171070478146	DB00777	P49902	26
0.011901656851284232	DB00777	P20138	25
0.01187001939177823	DB00777	P15925	27
0.011863720409368844	DB00777	P45510	30
0.01185131615091794	DB00777	Q96F10	26
0.011848361785612969	DB00777	Q8MU52	25
0.011835999073913242	DB00777	Q9L888	24
0.011832089445900687	DB00777	P06864	13
0.011822691040896227	DB00777	P22188	27
0.011773857455706834	DB00777	Q16769	19
0.011765330067073467	DB00777	P08515	25
0.011753641897652085	DB00777	O60909	27
0.011748130119610152	DB00777	P40030	13
0.01174069124620021	DB00777	P13995	29
0.01173332835636363	DB00777	Q9WYE2	25
0.011719512733433007	DB00777	P18891	25
0.011714345742098333	DB00777	P51900	30
0.011710159248868509	DB00777	P06729	25
0.01168713359410493	DB00777	P12369	25
0.01168169682201295	DB00777	P0AG16	28
0.011659482050491964	DB00777	Q90694	23
0.011652973470074537	DB00777	P08192	21
0.011644226405169609	DB00777	P04183	23
0.01163976695333926	DB00777	P15289	24
0.011637710679291938	DB00777	P26276	28
0.011629779573196249	DB00777	Q7Z4W1	18
0.011623619289040212	DB00777	Q58989	26
0.01162325048048411	DB00777	P08536	29
0.011587074861868553	DB00777	P01918	24
0.011582761791587274	DB00777	P41439	24
0.01156442801091467	DB00777	P01906	24
0.011518464144038081	DB00777	P00889	30
0.01151828086436744	DB00777	P17599	28
0.011513784220271822	DB00777	P68371	20
0.011508481486536156	DB00777	Q08638	26
0.011507209382778862	DB00777	Q29437	18
0.011507209382778862	DB00777	Q96X16	18
0.011504264575248902	DB00777	P53608	25
0.011504035504723467	DB00777	P48449	27
0.01148677807805655	DB00777	Q58504	28
0.011476422744646341	DB00777	P26827	28
0.011455551201822853	DB00777	P24058	26
0.011446997076997156	DB00777	P45563	24
0.011443788975575298	DB00777	Q9JKA9	25
0.011443788975575298	DB00777	P00514	25
0.011387434066691134	DB00777	P31785	19
0.011352682121917446	DB00777	Q02454	27
0.011313875409907633	DB00777	P07602	22
0.0113026723383137	DB00777	Q9UJ70	27
0.0113026723383137	DB00777	P54802	27
0.011267192092233605	DB00777	P23202	24
0.011261932997524383	DB00777	P83849	23
0.011246735305346775	DB00777	P08238	18
0.011245868798604203	DB00777	P00282	24
0.011240280732813569	DB00777	P31677	27
0.011227443647324583	DB00777	P45066	27
0.011223977343140823	DB00777	P00490	27
0.011182882044678075	DB00777	P11310	24
0.011178874681739285	DB00777	Q46079	28
0.011171704819165474	DB00777	Q8NBQ5	28
0.011127982947370397	DB00777	P97084	26
0.011087901717688187	DB00777	P06126	19
0.01107424793436166	DB00777	O31440	24
0.011068516422699029	DB00777	Q9Y3D2	23
0.011066979932142272	DB00777	P32906	27
0.011058966604493486	DB00777	P80324	28
0.011057799183361677	DB00777	Q03471	17
0.011054407702516849	DB00777	P83786	29
0.011025444938641346	DB00777	P10537	27
0.011011458107181626	DB00777	P21233	7
0.011008733706923993	DB00777	Q56243	26
0.010981386527388321	DB00777	Q8NX78	26
0.010972876233959998	DB00777	Q58497	27
0.010936264055616284	DB00777	Q24368	23
0.010919540251007318	DB00777	O85465	27
0.010907826096725009	DB00777	P49916	15
0.010897469760408892	DB00777	Q8XB74	17
0.01089630524119634	DB00777	P00582	26
0.01088894885715277	DB00777	Q56310	27
0.010883478426558782	DB00777	P04190	27
0.0108444312805824	DB00777	P18858	14
0.010796449878251332	DB00777	O64411	19
0.01077042753734698	DB00777	Q9Y277	21
0.010760752635713315	DB00777	O28597	27
0.010747052036256265	DB00777	P00387	25
0.010710440798598333	DB00777	Q9GZV3	20
0.010670526965334798	DB00777	Q9UHI7	24
0.010668181947422053	DB00777	P0A827	26
0.010662515900047161	DB00777	P19821	26
0.010661972050062312	DB00777	P15651	25
0.01064108203079914	DB00777	P40233	13
0.010629614426420802	DB00777	P33221	26
0.010629614426420802	DB00777	P46859	26
0.010618490544487038	DB00777	O43451	22
0.010607920038874327	DB00777	P04958	27
0.010601715223181835	DB00777	P00433	25
0.010598476984243113	DB00777	O60779	14
0.010582832846378926	DB00777	P41252	27
0.010581045460835504	DB00777	Q56313	27
0.010581045460835504	DB00777	Q04299	27
0.010565486124425885	DB00777	P96965	23
0.010555185940738407	DB00777	P62694	24
0.010548314040991852	DB00777	O94766	19
0.010533724965351945	DB00777	P11456	22
0.010527119810500318	DB00777	P15309	17
0.01052681536626858	DB00777	P52732	18
0.010523968979664762	DB00777	Q9K578	26
0.010523968979664762	DB00777	O08498	26
0.010518498549070774	DB00777	Q11195	26
0.010501798698803093	DB00777	P07195	20
0.010495518470281698	DB00777	O07015	25
0.010482453530394585	DB00777	P69681	25
0.010469180550713553	DB00777	P49638	14
0.010464288166308516	DB00777	P09373	22
0.01045270300834499	DB00777	Q61830	22
0.010413346182174247	DB00777	Q14961	24
0.010413346182174247	DB00777	P81272	24
0.010412163682585065	DB00777	O15270	26
0.010409283128728564	DB00777	Q9BXI2	27
0.01040751946699005	DB00777	P69441	27
0.010391064100376341	DB00777	Q9ES89	25
0.010372574450834057	DB00777	P26043	26
0.010349116795460165	DB00777	P95468	25
0.010311218616880039	DB00777	Q8ZKF6	21
0.010307779163773406	DB00777	Q43125	26
0.010290483499888366	DB00777	Q8TE23	23
0.010264634548932795	DB00777	P66010	25
0.010254459323025022	DB00777	Q92947	18
0.010246934325654189	DB00777	P51698	24
0.010237704853856618	DB00777	P33673	21
0.010220019570879686	DB00777	null	4
0.010220019570879686	DB00777	O43519	4
0.010220019570879686	DB00777	Q96P88	4
0.010218255536514318	DB00777	Q13370	16
0.010211168316135472	DB00777	Q07982	26
0.010211168316135472	DB00777	Q01745	26
0.010211168316135472	DB00777	P04181	26
0.01020889203832939	DB00777	Q93113	21
0.010199918148140263	DB00777	O60911	17
0.010196362062914995	DB00777	P20425	25
0.010191846560123492	DB00777	null	13
0.010187953042453261	DB00777	Q9BY41	20
0.010150452531182217	DB00777	P30291	14
0.01013983882345401	DB00777	P29736	21
0.010136373718792963	DB00777	P19992	25
0.010121766164284807	DB00777	P09884	25
0.01011544827118629	DB00777	P38484	17
0.010098386811062223	DB00777	O60894	15
0.010072108995016434	DB00777	O75874	26
0.010061194768161225	DB00777	Q07837	24
0.010052754649679252	DB00777	P27809	26
0.010040244024033581	DB00777	Q9UN19	25
0.010040244024033581	DB00777	Q9H4M7	25
0.010018104907031557	DB00777	Q68LC0	21
0.010005297313657204	DB00777	P20132	26
0.00999279153592333	DB00777	P19080	25
0.009984849871541291	DB00777	P02760	17
0.009977469022958358	DB00777	O88339	27
0.009975735174710891	DB00777	P01552	26
0.009972117895545392	DB00777	P24425	26
0.009954517516085486	DB00777	P09147	24
0.009943860193326243	DB00777	Q28570	15
0.009943860193326243	DB00777	P50578	15
0.00993351168473806	DB00777	Q546F9	23
0.00993351168473806	DB00777	Q9UJS0	23
0.009925267222914019	DB00777	P36021	22
0.009915332339620003	DB00777	P29187	13
0.009913218088409583	DB00777	P00175	24
0.009905959443510859	DB00777	P11275	17
0.009899631459686987	DB00777	P27707	20
0.009865474997601688	DB00777	Q00955	19
0.009865298095746823	DB00777	P27828	24
0.00985340147888418	DB00777	P68638	25
0.009845416171264474	DB00777	P12236	23
0.009841285771305977	DB00777	Q00511	25
0.00983837846777212	DB00777	Q06319	24
0.009833218472421586	DB00777	P00349	24
0.009795380604241979	DB00777	P47872	13
0.009772576669809855	DB00777	P0A716	24
0.009757358394498749	DB00777	Q13564	25
0.009757358394498749	DB00777	O43931	25
0.009742063042565172	DB00777	P56220	24
0.009702825524436916	DB00777	O43708	22
0.009690358570200052	DB00777	P03765	25
0.009690358570200052	DB00777	P23668	25
0.009690358570200052	DB00777	P0AFI7	25
0.009670788119791418	DB00777	P0A544	26
0.00966840275109402	DB00777	P49759	19
0.009659456833368406	DB00777	P19235	13
0.009634954881450206	DB00777	Q96IG6	25
0.009629998622756108	DB00777	P00484	25
0.009629998622756108	DB00777	P30074	25
0.009627285428861735	DB00777	P00772	21
0.009619245682672863	DB00777	P28650	25
0.00959920213880257	DB00777	P0A4V4	20
0.009553171777312896	DB00777	Q5TCD1	24
0.009525546211540673	DB00777	Q53464	20
0.009504565031254209	DB00777	O68874	24
0.009501839847808918	DB00777	null	12
0.009501839847808918	DB00777	B1AQM5	12
0.009496079819053023	DB00777	Q99062	19
0.009494256273137875	DB00777	Q9Y4U1	19
0.009493328349517174	DB00777	P05166	25
0.00947906602152072	DB00777	Q820S6	25
0.00947906602152072	DB00777	Q9DF33	25
0.009468287744412721	DB00777	Q02853	14
0.00944170877575247	DB00777	Q02169	21
0.009434762834314001	DB00777	P15454	25
0.009429924158041756	DB00777	P25006	18
0.009427361807057845	DB00777	P08123	15
0.009426081462880188	DB00777	P17342	13
0.009422336525574919	DB00777	O92139	11
0.009404579973313483	DB00777	P16094	24
0.009392607170307835	DB00777	P45381	22
0.009387029148944044	DB00777	P49589	24
0.00938558508212903	DB00777	B1AQM5	15
0.009377552220969679	DB00777	Q9XEI3	23
0.009374950023688175	DB00777	P33198	24
0.009374645614965893	DB00777	P36204	18
0.009355114657957206	DB00777	O24990	23
0.009348067164461932	DB00777	Q9Y289	21
0.009277598263497664	DB00777	P14604	25
0.009267468874843043	DB00777	P39621	23
0.009267468874843043	DB00777	P0A552	23
0.009264966655431707	DB00777	O35000	23
0.009243456550402197	DB00777	Q05581	24
0.009232617242692828	DB00777	P12081	22
0.00923107821796934	DB00777	P67910	24
0.00919515842600816	DB00777	P52704	23
0.009181548990831708	DB00777	Q9HCU0	18
0.009176584897467394	DB00777	O15427	22
0.009164223492420976	DB00777	P02775	12
0.009139690838631719	DB00777	P14900	22
0.009109188876820688	DB00777	P48728	24
0.0091037184462267	DB00777	Q9X108	24
0.0091037184462267	DB00777	P50861	24
0.0091037184462267	DB00777	P54716	24
0.009095850202542648	DB00777	P21793	18
0.00908999756894052	DB00777	Q26490	23
0.009053753679006162	DB00777	Q9WYA5	16
0.009026891600783488	DB00777	Q9NSE4	23
0.009024688336631495	DB00777	Q13423	24
0.009024688336631495	DB00777	P77444	24
0.00900838913445365	DB00777	Q56148	24
0.008996936824359057	DB00777	P72024	19
0.008977536460499234	DB00777	P04745	21
0.008975636244591174	DB00777	P49591	23
0.008967736962867802	DB00777	P00502	16
0.008942110991070354	DB00777	P0ABF6	18
0.008932618264539954	DB00777	P06715	14
0.00892441543635537	DB00777	Q00441	23
0.008904010626905138	DB00777	P29187	11
0.008904010626905138	DB00777	B1AQM5	11
0.00890164131587085	DB00777	P00730	19
0.0088991364525314	DB00777	O43001	18
0.008882301336935822	DB00777	P52788	22
0.008861201073269308	DB00777	P03519	23
0.008858340979656055	DB00777	P38636	19
0.008840881937039441	DB00777	P48651	21
0.008792918068493947	DB00777	Q96I99	21
0.0087908099030203	DB00777	P61277	16
0.008758151336603242	DB00777	Q8TE04	20
0.008751511006731206	DB00777	Q16222	20
0.008740840745532207	DB00777	O60512	21
0.008737858848090576	DB00777	Q08257	21
0.008721593615948889	DB00777	P0C0F4	23
0.008714112550728058	DB00777	Q8KN66	23
0.008694973120100345	DB00777	Q15046	22
0.00868992912648613	DB00777	Q9Y691	19
0.008687843903852067	DB00777	P35129	18
0.008677435781774524	DB00777	P29187	4
0.00865407821299875	DB00777	P54196	22
0.008635848090997692	DB00777	P00816	23
0.008635848090997692	DB00777	P56839	23
0.00863527652228924	DB00777	P24557	13
0.008632284535172412	DB00777	P00431	21
0.008629213275394077	DB00777	P48391	23
0.00861395278702544	DB00777	P0A9B2	21
0.00860824897029887	DB00777	P30043	19
0.008603836463213036	DB00777	Q9UIC8	22
0.008595596759714318	DB00777	P15385	13
0.008590389782736782	DB00777	Q94734	21
0.008584724218009087	DB00777	P0A9S1	22
0.008584724218009087	DB00777	Q8GEZ8	22
0.008582908700291278	DB00777	O34667	23
0.008557764182817961	DB00777	null	3
0.008557764182817961	DB00777	B1AQM5	3
0.008557764182817961	DB00777	B1AQM5	3
0.008556725255976125	DB00777	P23540	23
0.008537804880617431	DB00777	P07378	19
0.008537804880617431	DB00777	P00560	19
0.008528214992831944	DB00777	P0AB91	13
0.008509667717692432	DB00777	P17117	18
0.008498473761773975	DB00777	P42790	18
0.008437985017826522	DB00777	Q57265	21
0.008402365075716655	DB00777	P42085	23
0.008402365075716655	DB00777	P04531	23
0.00839435259701026	DB00777	P02829	14
0.008389521695078141	DB00777	Q96RQ3	17
0.008389521695078141	DB00777	P05165	17
0.008387918947730805	DB00777	P06786	11
0.008385104718944039	DB00777	P50870	21
0.008374637499857555	DB00777	Q9BZV2	15
0.008352426653169187	DB00777	Q04609	12
0.008328637433065172	DB00777	P22256	19
0.008328225568043471	DB00777	Q9WYT0	20
0.008317966759152036	DB00777	P51448	17
0.008317666448386104	DB00777	P19531	22
0.008296821399790181	DB00777	P60327	19
0.008296673554038984	DB00777	Q8ZWV0	22
0.008292816106039916	DB00777	Q16836	21
0.008280470575880293	DB00777	P11797	22
0.008271039091463388	DB00777	P10844	19
0.008268014325679295	DB00777	P13280	22
0.008253720417997976	DB00777	P16276	23
0.008201303810395041	DB00777	P11759	20
0.008201303810395041	DB00777	Q9ZEU2	20
0.00819231854187008	DB00777	P0A115	22
0.008192086695467081	DB00777	Q08493	12
0.008190318625961807	DB00777	P00784	15
0.008165702416080245	DB00777	O25096	22
0.008144629149606484	DB00777	P52961	19
0.00814303064498469	DB00777	P00651	22
0.008139064609501902	DB00777	P46072	19
0.00813054843718924	DB00777	P58596	18
0.008128011661261788	DB00777	P51541	18
0.008099461911625815	DB00777	Q8IVH4	15
0.00809319075179371	DB00777	Q9BZW2	20
0.00809319075179371	DB00777	Q13183	20
0.008090534248051397	DB00777	null	11
0.00808196879376946	DB00777	P24093	18
0.00807755628668363	DB00777	O60294	21
0.008034780622514701	DB00777	P26440	17
0.008021893348835313	DB00777	P07254	21
0.008021439982749727	DB00777	P37551	17
0.007983200778988026	DB00777	Q8N8R3	20
0.007980262312922596	DB00777	P24146	22
0.00796186423295122	DB00777	P14489	17
0.007948898273857695	DB00777	P01556	21
0.007947965701275652	DB00777	P22749	13
0.00794410234710999	DB00777	P00636	22
0.007915155314615284	DB00777	P41052	20
0.007900194708170626	DB00777	O60895	14
0.007899609054492369	DB00777	P77674	13
0.007899609054492369	DB00777	P83852	13
0.007899609054492369	DB00777	P47872	13
0.007899609054492369	DB00777	P80204	13
0.007887606868688678	DB00777	Q9UBX1	16
0.007878375685425862	DB00777	P07464	21
0.007874624605379906	DB00777	Q16739	15
0.007861384603534027	DB00777	P20138	11
0.007855930925066586	DB00777	Q46822	19
0.007849337584026835	DB00777	P29241	22
0.007828115471465962	DB00777	P31358	19
0.007796306786503914	DB00777	P05042	22
0.0077958252713802145	DB00777	Q56268	21
0.007789819276459791	DB00777	Q02053	15
0.007781266858280942	DB00777	P0A6F3	21
0.007779547818835675	DB00777	P11546	16
0.007777201499758516	DB00777	P00592	14
0.0077739582822927596	DB00777	P00156	17
0.007773456797660635	DB00777	Q13748	13
0.007773456797660635	DB00777	Q9BQE3	13
0.007773456797660635	DB00777	P04350	13
0.007773456797660635	DB00777	Q9NY65	13
0.007773456797660635	DB00777	P87066	13
0.007773153500284657	DB00777	O30298	21
0.007768408991984762	DB00777	Q46891	20
0.0077621677328468235	DB00777	P93343	13
0.007761781543729738	DB00777	P16444	14
0.007752810740877795	DB00777	P00780	19
0.007747551620511751	DB00777	Q99460	13
0.0077443416459348465	DB00777	P00669	18
0.007740935754530257	DB00777	Q79ZY6	21
0.007716987801655927	DB00777	Q6SLM2	16
0.007693130888810655	DB00777	P03007	20
0.007693130888810655	DB00777	O52806	20
0.007693113180701767	DB00777	P43188	21
0.007682731917342277	DB00777	P0A7S3	18
0.007656858269779563	DB00777	P37028	16
0.007652868402983684	DB00777	Q70AC7	21
0.007627264441052063	DB00777	Q57VC7	21
0.007620293492653394	DB00777	P30085	16
0.007618348973077076	DB00777	O00910	18
0.0076121022938419195	DB00777	P26640	20
0.007605123612232017	DB00777	P0AAI5	16
0.007592667052050798	DB00777	Q08698	21
0.007592667052050798	DB00777	P07071	21
0.007592667052050798	DB00777	P03692	21
0.007566910575264303	DB00777	Q8WWT9	19
0.0075350400870319925	DB00777	P09186	16
0.007529490864245122	DB00777	P43683	18
0.007529490864245122	DB00777	P03069	18
0.0075289894580628505	DB00777	P25779	15
0.0075121559003091054	DB00777	P02879	20
0.007495613172305906	DB00777	P23472	20
0.007487291151766515	DB00777	O43766	15
0.007471293289941541	DB00777	P0A5P0	19
0.007455135199433045	DB00777	P05020	17
0.00745131823763726	DB00777	Q9X0G9	21
0.00745131823763726	DB00777	P12256	21
0.00745131823763726	DB00777	Q9K2N0	21
0.007437151440869098	DB00777	P37672	20
0.007437151440869098	DB00777	Q7M1Q1	20
0.007437151440869098	DB00777	P02883	20
0.0074302009406511955	DB00777	P52699	17
0.0074302009406511955	DB00777	P39593	17
0.0074136537982681956	DB00777	Q9HAN9	20
0.007388875138085876	DB00777	O06934	19
0.0073648127805476145	DB00777	Q9H2D1	19
0.007361632090543661	DB00777	Q9X112	18
0.007354950344136117	DB00777	Q9XZT6	18
0.007352541412189158	DB00777	Q9A5I5	20
0.007352095508896454	DB00777	P0A8V9	20
0.007332204033487067	DB00777	Q9ZGH3	18
0.007332204033487067	DB00777	P26391	18
0.007324161513503426	DB00777	P17812	20
0.007315916007353799	DB00777	O14832	18
0.007299113151365375	DB00777	P14751	19
0.007291137790538397	DB00777	P14193	18
0.007281199728651166	DB00777	P22637	20
0.007277198119706871	DB00777	P77150	20
0.007276946125544758	DB00777	P0A794	18
0.007275305920973252	DB00777	P33316	17
0.0072656612287531	DB00777	Q7BK04	20
0.0072656612287531	DB00777	P06710	20
0.0072656612287531	DB00777	P0A5S4	20
0.007245476956436907	DB00777	P05041	17
0.007242697690656786	DB00777	Q9Y9P9	18
0.007227505127386667	DB00777	P00950	19
0.007195188672376075	DB00777	Q12657	18
0.007190326775537563	DB00777	Q9FCA6	18
0.0071831118660734125	DB00777	P13487	17
0.0071831118660734125	DB00777	Q10726	17
0.0071831118660734125	DB00777	P29187	17
0.007171181487587222	DB00777	P23763	15
0.007141291162457454	DB00777	P0A5N0	19
0.00713369715664659	DB00777	Q9UK23	19
0.007113748424088845	DB00777	Q92781	16
0.007101217783001225	DB00777	Q8N9I0	13
0.007100206359046363	DB00777	P0A5J4	20
0.007098610201565824	DB00777	P00949	17
0.007078179041888218	DB00777	P26841	19
0.007037248003868435	DB00777	Q7TQM4	15
0.007036517515478398	DB00777	Q04830	18
0.007028059746654364	DB00777	P09455	15
0.007014519878898927	DB00777	P02735	12
0.007011497358671434	DB00777	P26393	20
0.006993471387639164	DB00777	P80099	19
0.006993471387639164	DB00777	P0AEX9	19
0.006993471387639164	DB00777	P11124	19
0.006993471387639164	DB00777	O33830	19
0.0069859903224183326	DB00777	Q79G13	19
0.0069859903224183326	DB00777	Q9C1S9	19
0.0069859903224183326	DB00777	Q7M1T4	19
0.006964730076538657	DB00777	P40859	16
0.006963822894377683	DB00777	P0AC41	11
0.006963822894377683	DB00777	Q9YHT1	11
0.00691087126433969	DB00777	Q746J6	19
0.006904054531717824	DB00777	P31723	19
0.006864459135495178	DB00777	P0A759	19
0.0068574040348437625	DB00777	P04574	11
0.006855327380886572	DB00777	P28871	17
0.006852992912483617	DB00777	Q99584	18
0.006851744843565312	DB00777	O43923	13
0.006835689514966602	DB00777	P02924	17
0.006835689514966602	DB00777	Q01594	17
0.0068271878348230884	DB00777	null	13
0.006805609449137108	DB00777	P11838	18
0.0067951062614183795	DB00777	P13843	17
0.006785757399295984	DB00777	P08048	16
0.006760316767492611	DB00777	P29187	8
0.006759174686814485	DB00777	Q9UG56	16
0.006759174686814485	DB00777	O95810	16
0.006744426064120999	DB00777	P0AB77	16
0.006720319192912175	DB00777	P14420	11
0.006710605721229187	DB00777	O58720	17
0.006710605721229187	DB00777	P44096	17
0.006710605721229187	DB00777	Q9NXA8	17
0.006697135134725255	DB00777	P07986	18
0.006692186292462029	DB00777	Q16857	18
0.006687728098445565	DB00777	Q8WS26	13
0.006669469914642613	DB00777	Q15274	18
0.0066601082424432596	DB00777	P02872	18
0.006652172458955077	DB00777	P23509	18
0.006616429943006592	DB00777	Q96T66	18
0.006615425442400653	DB00777	Q96RI1	10
0.0066060765520610356	DB00777	O08355	6
0.006604626411726767	DB00777	Q9KX40	19
0.0065934306122452	DB00777	Q16775	15
0.0065648697227695	DB00777	P77836	13
0.00655508030682329	DB00777	O76083	18
0.006545585200180177	DB00777	P56192	15
0.00651744050818646	DB00777	Q00169	16
0.006510075442132343	DB00777	P40871	15
0.0064953334127993015	DB00777	Q27796	18
0.0064953334127993015	DB00777	P0A9M2	18
0.006458730249847684	DB00777	P22972	16
0.006458374421277103	DB00777	Q7WYV4	16
0.0064573801234800296	DB00777	O26708	15
0.006457310690123056	DB00777	null	12
0.006451271290497221	DB00777	P10109	16
0.006448584787724574	DB00777	P14868	16
0.006444518764943558	DB00777	Q9WYH8	15
0.006435485316443093	DB00777	null	12
0.006430007663999246	DB00777	P07342	16
0.006418792714146228	DB00777	Q8Q3H0	4
0.006418792714146228	DB00777	Q9Q2G8	4
0.006418139614008919	DB00777	P00044	11
0.006410832872610109	DB00777	P32324	18
0.006410832872610109	DB00777	P83844	18
0.006410832872610109	DB00777	Q02834	18
0.006410832872610109	DB00777	P26397	18
0.006388161101514552	DB00777	P10807	18
0.006388161101514552	DB00777	P94182	18
0.006388161101514552	DB00777	P22887	18
0.006348291575408098	DB00777	Q9RHZ6	17
0.006334405908635827	DB00777	Q9BW92	15
0.006333945363592523	DB00777	Q9ZB17	17
0.00628743198449745	DB00777	P07617	17
0.006275009164609754	DB00777	Q14626	10
0.006268925770155524	DB00777	P58315	18
0.006268826084888972	DB00777	P11836	16
0.006265974718626495	DB00777	P0C0X1	14
0.006212467746389323	DB00777	P0A6D3	16
0.006172013167773022	DB00777	P77541	18
0.0061634829256029255	DB00777	P00959	14
0.006147610769407018	DB00777	Q96C86	17
0.006104611349553601	DB00777	Q96P88	2
0.00607242726913127	DB00777	Q9AGP8	17
0.006060130519299214	DB00777	P21340	15
0.006036651146820755	DB00777	P32890	16
0.006003884143749728	DB00777	P31514	10
0.006003884143749728	DB00777	P80035	10
0.006003884143749728	DB00777	P14925	10
0.006003884143749728	DB00777	P50586	10
0.006003884143749728	DB00777	P09955	10
0.006003884143749728	DB00777	O60664	10
0.006003884143749728	DB00777	P21856	10
0.006003884143749728	DB00777	O35627	10
0.00599307469238931	DB00777	P43264	13
0.005976972217994763	DB00777	P0A793	16
0.005957924009370575	DB00777	Q9P4R4	17
0.005957679798566706	DB00777	Q9FAW5	13
0.005953878411246492	DB00777	O60779	10
0.005945898809612251	DB00777	P08169	16
0.005929548108699775	DB00777	Q9BHB0	11
0.005929548108699775	DB00777	Q9GQG7	11
0.005922304611195165	DB00777	Q03154	15
0.005914163719419936	DB00777	P44490	17
0.005914163719419936	DB00777	Q8RQP5	17
0.0059066410530136185	DB00777	Q57872	15
0.0059066410530136185	DB00777	P28248	15
0.00590547887512363	DB00777	null	12
0.005900940787600689	DB00777	P0A7Z4	15
0.005900940787600689	DB00777	Q7L266	15
0.005883680600686979	DB00777	Q9DF52	11
0.005881140184944681	DB00777	O14659	15
0.0058739882265443355	DB00777	O60779	11
0.0058675330931772076	DB00777	P09989	15
0.005852169329469586	DB00777	Q9X519	16
0.0058136591167179934	DB00777	P81180	17
0.005810918417125506	DB00777	P18314	13
0.00580981233689122	DB00777	P07107	16
0.005776400488754711	DB00777	Q7LIJ0	15
0.005776400488754711	DB00777	P46237	15
0.005755220578903344	DB00777	P19424	15
0.0057145995362789595	DB00777	P74645	17
0.0056947359724759394	DB00777	P17443	15
0.005691658000453903	DB00777	P11177	15
0.005675234665181904	DB00777	Q97R46	14
0.005675234665181904	DB00777	P0ACC7	14
0.005657514725635434	DB00777	P0ADA1	14
0.005652306418760007	DB00777	P06608	14
0.005621797358856912	DB00777	P22414	14
0.0056162298476142335	DB00777	P42357	14
0.0056103436220124635	DB00777	O82839	15
0.005603568616769441	DB00777	P0C0X2	12
0.005603060062646633	DB00777	P00947	16
0.005602874068514683	DB00777	P20618	11
0.0055923267941649394	DB00777	P11155	13
0.00558190769349117	DB00777	P80857	14
0.00558190769349117	DB00777	Q8GB52	14
0.00558190769349117	DB00777	Q7SIG2	14
0.00558190769349117	DB00777	Q53547	14
0.005541621298927997	DB00777	P40347	14
0.005535158976377066	DB00777	P36017	13
0.005533850342769806	DB00777	P96618	14
0.00552870641623871	DB00777	Q96NR8	14
0.0055178920096382415	DB00777	Q53I07	12
0.005510118151588122	DB00777	P0A079	13
0.005483211477627597	DB00777	Q52369	14
0.005450908722216972	DB00777	P24024	11
0.005446364103594387	DB00777	P18548	16
0.005443399808237902	DB00777	P07987	14
0.0054371142634351555	DB00777	O81192	16
0.005432323569721937	DB00777	P06149	14
0.005415882235065568	DB00777	null	12
0.005415175103831423	DB00777	Q8NW68	13
0.005413093337889801	DB00777	Q9KL51	15
0.00541269403225145	DB00777	Q14534	9
0.00540737207752094	DB00777	P32927	9
0.005387085573261456	DB00777	P34024	15
0.005378635916629709	DB00777	P11439	14
0.005376378024019603	DB00777	Q79FX6	12
0.0053752133522336635	DB00777	O43772	14
0.005374660611071282	DB00777	Q96I59	14
0.005374660611071282	DB00777	O43776	14
0.005367681119574441	DB00777	Q9X266	16
0.0053634512310669295	DB00777	P04964	13
0.0053634512310669295	DB00777	P13000	13
0.005357248051012056	DB00777	Q7ADF8	15
0.00534683670370666	DB00777	P36419	14
0.005346485319344376	DB00777	Q24973	14
0.005342589977483383	DB00777	O15375	14
0.005339505755230716	DB00777	P43876	14
0.005330072588033392	DB00777	Q9X0D0	16
0.00532774225964421	DB00777	P22262	13
0.005319185503341591	DB00777	Q7ZYT9	10
0.005313917582843326	DB00777	Q13200	11
0.005311151187649953	DB00777	O06414	16
0.005311151187649953	DB00777	Q9FD87	16
0.005308853433295324	DB00777	O48917	16
0.005308853433295324	DB00777	P04547	16
0.005308853433295324	DB00777	O26745	16
0.005294315665539173	DB00777	P04229	9
0.0052936729197997166	DB00777	O14987	9
0.005290022460144473	DB00777	P0AE22	13
0.005288560171313105	DB00777	P20273	9
0.005280288706731993	DB00777	Q9HPW4	14
0.005272375027566353	DB00777	Q04089	14
0.005272375027566353	DB00777	O87696	14
0.005270639086290258	DB00777	P07766	9
0.005252448277893143	DB00777	O15923	13
0.005241539705604787	DB00777	O67135	13
0.005241020334003634	DB00777	P23295	14
0.005231290794281579	DB00777	P0ABP8	15
0.005218063356794635	DB00777	P52839	14
0.005218063356794635	DB00777	Q9ZIV5	14
0.005218063356794635	DB00777	Q8ZPC0	14
0.005218063356794635	DB00777	P09012	14
0.005218063356794635	DB00777	P42390	14
0.005211282190548977	DB00777	P29187	2
0.0052000551897082685	DB00777	P37698	14
0.005181775459764932	DB00777	P19926	15
0.005181775459764932	DB00777	P0ABQ0	15
0.005171592130904026	DB00777	Q94KL8	15
0.005170577263406903	DB00777	Q9Y3R4	12
0.005154544620544824	DB00777	P19571	13
0.00513782659426638	DB00777	Q9JZW6	14
0.0051372356222349515	DB00777	B1AQM5	14
0.005134960638078006	DB00777	Q8ZRP8	13
0.005130109703850529	DB00777	P39594	16
0.005127670042506001	DB00777	P31116	13
0.005123035714739908	DB00777	Q8J0K8	14
0.005123035714739908	DB00777	P43316	14
0.005117227033016217	DB00777	P22832	15
0.005109376951787212	DB00777	O31616	15
0.00510742683303182	DB00777	Q975V5	15
0.005098192116204634	DB00777	P58466	11
0.005084889684208991	DB00777	P10297	14
0.00507002768712554	DB00777	P23181	14
0.00507002768712554	DB00777	P0AFK9	14
0.005069419724047892	DB00777	Q9R381	15
0.0050520490034677325	DB00777	P81755	13
0.0050520490034677325	DB00777	P15472	13
0.0050520490034677325	DB00777	P07231	13
0.00505106458619177	DB00777	P24476	14
0.00505106458619177	DB00777	Q98GN8	14
0.00505106458619177	DB00777	P0ACJ8	14
0.0050206748971025296	DB00777	Q9HTN2	11
0.004966357868534431	DB00777	P32947	11
0.004941766856985708	DB00777	P71447	14
0.004929214708593936	DB00777	P02588	8
0.00492001318766152	DB00777	O57934	15
0.00492001318766152	DB00777	Q7SIB1	15
0.004905163694034093	DB00777	Q8W1R6	12
0.004905163694034093	DB00777	O24313	12
0.004892594681016162	DB00777	Q38814	13
0.004892594681016162	DB00777	P02974	13
0.004889719140116284	DB00777	P06132	7
0.004888032374940817	DB00777	P0AB80	14
0.004878362969953257	DB00777	Q8MTC1	11
0.004877901191502985	DB00777	Q9X0N8	13
0.004877901191502985	DB00777	P12996	13
0.004877901191502985	DB00777	P26676	13
0.004877901191502985	DB00777	P67863	13
0.004877901191502985	DB00777	P16502	13
0.0048756857677327275	DB00777	Q27890	10
0.004866489958131704	DB00777	P18956	9
0.004862668582987638	DB00777	Q873X9	12
0.0048555676878858966	DB00777	P07766	13
0.004836622087839402	DB00777	P50747	13
0.0048210706990771445	DB00777	P20964	13
0.004816823972853866	DB00777	O15403	13
0.004811214944074466	DB00777	P08902	13
0.004811214944074466	DB00777	P81461	13
0.004811214944074466	DB00777	P83721	13
0.004811214944074466	DB00777	P30617	13
0.004787757722319651	DB00777	P80561	14
0.004785454148910298	DB00777	Q46893	14
0.004783224945671528	DB00777	Q08129	10
0.004765667010327297	DB00777	P0A0Z8	13
0.004765667010327297	DB00777	P09838	13
0.004748395376601148	DB00777	Q03629	13
0.004748395376601148	DB00777	O58843	13
0.0047434794199399145	DB00777	Q9JJS8	11
0.004735390691184276	DB00777	B1AQM5	8
0.004734195469106104	DB00777	P43457	13
0.004704050149071028	DB00777	Q88K39	11
0.004704050149071028	DB00777	P02762	11
0.004704050149071028	DB00777	P43185	11
0.004704050149071028	DB00777	P29187	11
0.004704050149071028	DB00777	B1AQM5	11
0.004704050149071028	DB00777	null	11
0.004704050149071028	DB00777	Q9HTQ2	11
0.00470250910496666	DB00777	P37821	11
0.004692680062844702	DB00777	P31133	12
0.0046671066356716	DB00777	P26394	13
0.0046643117048686756	DB00777	O67987	12
0.004639838262824654	DB00777	Q9NY01	10
0.004632533561450653	DB00777	P0AD63	12
0.0046270689188448455	DB00777	Q9PM68	13
0.0046260403927229285	DB00777	P07024	13
0.004614150892142586	DB00777	P54050	12
0.004602225968804488	DB00777	P0A5R0	13
0.004602225968804488	DB00777	Q9DFY5	13
0.00459571786925453	DB00777	Q9XB59	14
0.0045833239914246995	DB00777	P30273	12
0.004582632410776667	DB00777	P26639	12
0.004574394575625127	DB00777	Q26966	14
0.004567602809718859	DB00777	P81382	12
0.004555598836906809	DB00777	Q8WVQ1	11
0.004555586682665212	DB00777	P22939	14
0.0045358303428853185	DB00777	P02784	11
0.0045358303428853185	DB00777	P07845	11
0.0045358303428853185	DB00777	P0A076	11
0.004522931222518854	DB00777	P56817	8
0.004522359756381388	DB00777	Q59675	12
0.004522359756381388	DB00777	Q7SID5	12
0.004522359756381388	DB00777	Q9KB30	12
0.004522359756381388	DB00777	Q8XUA5	12
0.004522359756381388	DB00777	P12528	12
0.004522359756381388	DB00777	Q60053	12
0.004519317099913211	DB00777	P13376	12
0.0045071244419098285	DB00777	Q8NBN7	12
0.004502208725161184	DB00777	Q8GBW6	12
0.004502208725161184	DB00777	Q9X4K7	12
0.004492881830080023	DB00777	P28720	10
0.00448857807003862	DB00777	P45124	14
0.0044796997180163115	DB00777	Q58487	13
0.0044398301919098574	DB00777	P83218	12
0.004438802523904706	DB00777	P84141	12
0.004437304935688265	DB00777	P24630	13
0.004437304935688265	DB00777	P19938	13
0.004417514222594742	DB00777	Q9Y7P0	12
0.004417514222594742	DB00777	P00323	12
0.004417514222594742	DB00777	Q9WZW1	12
0.004395789865627266	DB00777	P30418	12
0.0043893720209051985	DB00777	P24474	12
0.00438842473704026	DB00777	O34450	13
0.004364967956072652	DB00777	P61888	13
0.004340144290809987	DB00777	P13513	13
0.004340144290809987	DB00777	P0A7A9	13
0.004334173004370995	DB00777	null	10
0.004334173004370995	DB00777	null	10
0.004334173004370995	DB00777	null	10
0.004334173004370995	DB00777	null	10
0.004334173004370995	DB00777	null	10
0.004334173004370995	DB00777	null	10
0.004334173004370995	DB00777	B1AQM5	10
0.004306862681561453	DB00777	Q54468	13
0.0042944121918557215	DB00777	Q65CX5	12
0.004272710060004644	DB00777	Q05871	13
0.004252110645890565	DB00777	Q29495	7
0.004220365287284345	DB00777	Q8I3X4	12
0.004214515600358263	DB00777	O28262	11
0.004213385723170684	DB00777	Q99036	12
0.004213107127449952	DB00777	P27696	12
0.004211244346002929	DB00777	Q837V6	11
0.004211244346002929	DB00777	O26253	11
0.004201387901974616	DB00777	Q9HCC0	11
0.004187624928006516	DB00777	P27623	13
0.0041808746137529515	DB00777	Q00740	12
0.004171988876660511	DB00777	P94548	12
0.0041691474224951	DB00777	P96420	12
0.004166173730028811	DB00777	P36217	11
0.004166173730028811	DB00777	Q9L9D7	11
0.004166173730028811	DB00777	P31992	11
0.004166173730028811	DB00777	P06993	11
0.004166173730028811	DB00777	P52758	11
0.004154231600563574	DB00777	P58787	12
0.004154231600563574	DB00777	P58786	12
0.004153025775726739	DB00777	Q04416	12
0.004150019462860066	DB00777	Q54331	12
0.004137572073039157	DB00777	P54455	12
0.004111376552944404	DB00777	P02918	5
0.004111376552944404	DB00777	P02919	5
0.004106220928167246	DB00777	null	10
0.004106220928167246	DB00777	null	10
0.004106220928167246	DB00777	null	10
0.004106220928167246	DB00777	null	10
0.004106220928167246	DB00777	null	10
0.0041000177481123725	DB00777	P15570	12
0.00407166002062965	DB00777	P0A927	11
0.004052918107868747	DB00777	Q9RP17	12
0.004032766747292488	DB00777	Q46444	10
0.004024489290032465	DB00777	P26392	11
0.004021056275425124	DB00777	Q9XB61	12
0.004021056275425124	DB00777	Q94M05	12
0.004021056275425124	DB00777	Q9R8E3	12
0.004021056275425124	DB00777	O07732	12
0.003990720018906312	DB00777	Q9WY54	12
0.003990720018906312	DB00777	P77398	12
0.0039885451660073915	DB00777	O67040	12
0.0039885451660073915	DB00777	P37062	12
0.0039885451660073915	DB00777	P54958	12
0.0039885451660073915	DB00777	P60052	12
0.0039885451660073915	DB00777	P66952	12
0.003978632110490685	DB00777	O31410	11
0.003976961539476245	DB00777	null	10
0.003969582065073619	DB00777	Q54089	12
0.003969206826713507	DB00777	P31142	11
0.003969206826713507	DB00777	P46926	11
0.00393745732843028	DB00777	P90613	10
0.00393698553686142	DB00777	P69908	12
0.00393698553686142	DB00777	O93738	12
0.003926279524359825	DB00777	P04397	12
0.0039245305354776066	DB00777	P48068	11
0.0039245305354776066	DB00777	P41007	11
0.0039245305354776066	DB00777	P0A7Z3	11
0.0039245305354776066	DB00777	Q54527	11
0.0039245305354776066	DB00777	P05798	11
0.0039245305354776066	DB00777	O64903	11
0.003897314317645141	DB00777	P52174	10
0.003897314317645141	DB00777	P0A9Z7	10
0.0038633296095995262	DB00777	P55038	12
0.0038629586743854855	DB00777	P02925	10
0.0038629586743854855	DB00777	O28869	10
0.0038629586743854855	DB00777	P39265	10
0.0038629586743854855	DB00777	P04963	10
0.0038629586743854855	DB00777	P36946	10
0.0038629586743854855	DB00777	null	10
0.0038629586743854855	DB00777	P0A9E0	10
0.003860311434459076	DB00777	P33247	10
0.003860311434459076	DB00777	P39767	10
0.003860311434459076	DB00777	P02931	10
0.003860311434459076	DB00777	P0A917	10
0.003860311434459076	DB00777	P06129	10
0.003860311434459076	DB00777	P0A910	10
0.003858034177869659	DB00777	Q9ZHG9	12
0.0038546136812028175	DB00777	Q9SSV1	10
0.0038546136812028175	DB00777	P0A6B1	10
0.003837013606175242	DB00777	P00746	7
0.00383348074808412	DB00777	P11609	8
0.00383348074808412	DB00777	P15167	8
0.003823043215036352	DB00777	Q980Q4	12
0.003792742772774066	DB00777	P0AF12	9
0.00378872231842191	DB00777	Q8IYQ7	11
0.003784224894616163	DB00777	Q9KQN0	11
0.0037803091339180354	DB00777	null	9
0.0037502157356239445	DB00777	O86309	9
0.0037363437834672143	DB00777	null	9
0.0037363437834672143	DB00777	null	9
0.0037363437834672143	DB00777	null	9
0.0037363437834672143	DB00777	null	9
0.0037363437834672143	DB00777	null	9
0.0037363437834672143	DB00777	null	9
0.0037363437834672143	DB00777	null	9
0.003726165409256822	DB00777	P0A006	9
0.003703460548123905	DB00777	P08179	9
0.003643841393968267	DB00777	P01484	10
0.003643841393968267	DB00777	Q39054	10
0.003643841393968267	DB00777	Q7SIG1	10
0.003643841393968267	DB00777	P0AB87	10
0.003643841393968267	DB00777	O31158	10
0.003643841393968267	DB00777	P20261	10
0.003611508451653413	DB00777	O69007	10
0.003611508451653413	DB00777	Q59325	10
0.003611508451653413	DB00777	P17378	10
0.003611508451653413	DB00777	Q8SR66	10
0.003611508451653413	DB00777	Q08751	10
0.0036047107574230172	DB00777	P75430	11
0.003581835004871629	DB00777	Q5SKH7	10
0.003554653390777575	DB00777	P13956	10
0.003554653390777575	DB00777	P14385	10
0.003505442148027584	DB00777	P35914	10
0.003493081529685454	DB00777	null	9
0.003449181430240689	DB00777	Q53908	10
0.003449181430240689	DB00777	P96622	10
0.003449181430240689	DB00777	Q9XG54	10
0.003439486746464383	DB00777	P0ABK9	9
0.003439486746464383	DB00777	P24092	9
0.003418566918056543	DB00777	P80484	10
0.0033736734613738512	DB00777	P0A514	10
0.003365531915016171	DB00777	O14735	9
0.0033562876350509167	DB00777	P29717	9
0.003345743158798252	DB00777	P04206	9
0.0033433608420982428	DB00777	P0A666	10
0.0033433608420982428	DB00777	P0A5H3	10
0.0033191939459671265	DB00777	P56653	10
0.003307714743454603	DB00777	Q83JC4	7
0.003307714743454603	DB00777	P11941	7
0.003307714743454603	DB00777	P18485	7
0.003307714743454603	DB00777	P60339	7
0.0032817889810061217	DB00777	P42212	9
0.0032676590244191273	DB00777	P23254	9
0.0032651294534817047	DB00777	Q84424	9
0.0032651294534817047	DB00777	P08337	9
0.0032651294534817047	DB00777	P03200	9
0.0032651294534817047	DB00777	P0ABA0	9
0.0032651294534817047	DB00777	P39304	9
0.0032651294534817047	DB00777	Q9XBQ3	9
0.0032651294534817047	DB00777	Q9HVZ0	9
0.0032651294534817047	DB00777	P68344	9
0.0032651294534817047	DB00777	P36673	9
0.0032651294534817047	DB00777	Q01292	9
0.0032651294534817047	DB00777	P96945	9
0.0032651294534817047	DB00777	P13507	9
0.0032651294534817047	DB00777	P21905	9
0.0032651294534817047	DB00777	Q75UV1	9
0.0032651294534817047	DB00777	P51691	9
0.0032651294534817047	DB00777	null	9
0.0032651294534817047	DB00777	null	9
0.0032651294534817047	DB00777	null	9
0.0032651294534817047	DB00777	Q9WWU5	9
0.0032651294534817047	DB00777	Q9ZB17	9
0.0032651294534817047	DB00777	null	9
0.0032651294534817047	DB00777	P0A6I9	9
0.0032651294534817047	DB00777	P24289	9
0.0032623388850912885	DB00777	P39377	10
0.0032623388850912885	DB00777	P31572	10
0.003260792616005819	DB00777	P42971	7
0.0032541187178216453	DB00777	P07371	5
0.0032521499243847217	DB00777	P42768	6
0.0032498824608275354	DB00777	P21742	8
0.003241631306953381	DB00777	P01304	9
0.003207784588391452	DB00777	P77390	7
0.003207784588391452	DB00777	P07003	7
0.0032060763438982874	DB00777	Q8ZNF3	10
0.0032060763438982874	DB00777	P37610	10
0.0032060763438982874	DB00777	Q9WWU5	10
0.0032059753308745953	DB00777	P06181	9
0.0032059753308745953	DB00777	P11542	9
0.0031921422758226024	DB00777	Q60364	9
0.0031828117668048243	DB00777	Q47NK3	6
0.003162135489599721	DB00777	Q48473	9
0.0031534208016383127	DB00777	Q29599	8
0.0031493067018169164	DB00777	P14418	10
0.0031493067018169164	DB00777	P0C0T5	10
0.0031299487301683993	DB00777	Q8I814	5
0.003123912269873565	DB00777	P04391	7
0.003123912269873565	DB00777	Q9X5N2	7
0.0031230316480328475	DB00777	Q00688	9
0.0031017680215348737	DB00777	P42326	9
0.003089137299109884	DB00777	Q01693	8
0.00305862610246482	DB00777	Q14181	2
0.00305862610246482	DB00777	Q96P88	2
0.003050686955129338	DB00777	P0AG82	8
0.0030299635199139367	DB00777	P52197	8
0.003025114416897741	DB00777	P02633	9
0.003025114416897741	DB00777	P24297	9
0.003025114416897741	DB00777	Q16740	9
0.003025114416897741	DB00777	P0A6W9	9
0.002989475386163148	DB00777	P22364	9
0.00291191183630609	DB00777	Q9RVD6	8
0.00291191183630609	DB00777	P16276	8
0.002911410973651106	DB00777	O85361	8
0.00290054774051154	DB00777	null	8
0.00290054774051154	DB00777	null	8
0.0028952523087816726	DB00777	P22266	8
0.0028952523087816726	DB00777	Q9XYQ1	8
0.0028952523087816726	DB00777	P56868	8
0.0028952523087816726	DB00777	Q15075	8
0.0028952523087816726	DB00777	Q9BW91	8
0.0028952523087816726	DB00777	null	8
0.0028952523087816726	DB00777	P16276	8
0.0028952523087816726	DB00777	O24529	8
0.0028952523087816726	DB00777	B1AQM5	8
0.0028832687719615615	DB00777	P63027	9
0.0028413637136837926	DB00777	P0AE67	8
0.002822184784731232	DB00777	P02943	7
0.0027677513971295625	DB00777	Q26239	7
0.002741536913487877	DB00777	null	9
0.002734191402399044	DB00777	P18759	8
0.002734191402399044	DB00777	P08870	8
0.0027341726684853257	DB00777	O66145	7
0.0027341726684853257	DB00777	P16276	7
0.0027138921143883936	DB00777	P41972	6
0.00271292777590107	DB00777	P00644	8
0.0027104229125616184	DB00777	B1AQM5	7
0.0026839597601023405	DB00777	Q7Z8V1	8
0.0026839597601023405	DB00777	Q93TU6	8
0.0026839597601023405	DB00777	Q9F0I5	8
0.0026839597601023405	DB00777	P35844	8
0.0026839597601023405	DB00777	P14169	8
0.0026839597601023405	DB00777	P93031	8
0.0026839597601023405	DB00777	P10802	8
0.0026839597601023405	DB00777	Q93EK7	8
0.0026839597601023405	DB00777	P39662	8
0.0026839597601023405	DB00777	P0AGE0	8
0.0026839597601023405	DB00777	O68600	8
0.0026839597601023405	DB00777	P0A6I8	8
0.0026839597601023405	DB00777	null	8
0.0026839597601023405	DB00777	null	8
0.0026839597601023405	DB00777	null	8
0.0026839597601023405	DB00777	null	8
0.0026839597601023405	DB00777	null	8
0.0026839597601023405	DB00777	P44801	8
0.0026839597601023405	DB00777	O06644	8
0.0026707678829433344	DB00777	Q9Y234	8
0.0026604616135740174	DB00777	P71278	8
0.0026475719031490005	DB00777	O29280	8
0.0026475719031490005	DB00777	P0AFM2	8
0.002637114125769543	DB00777	Q9HJ28	8
0.0026248936731929837	DB00777	Q9RUZ0	8
0.0026147035657948887	DB00777	P0A6J8	6
0.0026109725824432386	DB00777	O02372	8
0.0026053469102326047	DB00777	P29187	2
0.0026053469102326047	DB00777	Q96P88	2
0.0026034150818318867	DB00777	P0A6L6	8
0.002598146265244047	DB00777	P05414	6
0.002583756364610773	DB00777	P01544	7
0.002572824432220923	DB00777	P29187	2
0.002572824432220923	DB00777	O60779	2
0.002572824432220923	DB00777	null	2
0.002572824432220923	DB00777	Q96P88	2
0.002571845377871913	DB00777	P28012	8
0.0025542091580999238	DB00777	P02920	8
0.0025542091580999238	DB00777	P56217	8
0.0025542091580999238	DB00777	P21963	8
0.002552508525990715	DB00777	P75792	7
0.002549400721351118	DB00777	P67944	7
0.0025485296632362896	DB00777	O58558	8
0.0025485296632362896	DB00777	P03422	8
0.0025485296632362896	DB00777	P09145	8
0.0025485296632362896	DB00777	P50597	8
0.0025420999426121146	DB00777	P28313	8
0.0025327411938267	DB00777	P0A6L0	7
0.0025327411938267	DB00777	Q7SIC8	7
0.0025306705958115083	DB00777	P05326	7
0.0025306705958115083	DB00777	P56216	7
0.0025299506254362844	DB00777	P0A1X3	8
0.002502075225671983	DB00777	Q08210	5
0.0025009251605517093	DB00777	Q00855	7
0.0025009251605517093	DB00777	P61322	7
0.0025009251605517093	DB00777	Q7SIG4	7
0.0025009251605517093	DB00777	Q5R4E2	7
0.0025009251605517093	DB00777	P16276	7
0.002491143735327753	DB00777	null	5
0.0024625625043319553	DB00777	P03276	7
0.002427224106321309	DB00777	Q9RZ04	3
0.002425417191684872	DB00777	P10745	7
0.002425417191684872	DB00777	P50120	7
0.002425417191684872	DB00777	P82980	7
0.002425417191684872	DB00777	Q96R05	7
0.0023947293340491507	DB00777	P00727	6
0.0023870159816518593	DB00777	P51562	7
0.0023856375513284147	DB00777	Q53ZE5	7
0.0023595107092835564	DB00777	P27213	7
0.002345841199591454	DB00777	Q54528	6
0.002345768025221961	DB00777	P0A592	6
0.0023392191090263886	DB00777	P49721	5
0.0023360384854999067	DB00777	P06873	7
0.0023239789420371206	DB00777	Q75WK2	7
0.0023222090312826843	DB00777	P08773	7
0.002319378047132176	DB00777	P56625	7
0.002319378047132176	DB00777	P29187	7
0.002319378047132176	DB00777	P29187	7
0.002314082615402309	DB00777	P0ABE7	7
0.002314082615402309	DB00777	Q8I372	7
0.002314082615402309	DB00777	P52045	7
0.002314082615402309	DB00777	P13689	7
0.002314082615402309	DB00777	P50264	7
0.002314082615402309	DB00777	P96222	7
0.002314082615402309	DB00777	P47929	7
0.002314082615402309	DB00777	P29187	7
0.002314082615402309	DB00777	null	7
0.002314082615402309	DB00777	null	7
0.002314082615402309	DB00777	null	7
0.002314082615402309	DB00777	null	7
0.002314082615402309	DB00777	P07435	7
0.002295904608201824	DB00777	Q96TU3	6
0.0022775395024886803	DB00777	Q80ZI7	4
0.00221980530142484	DB00777	P28074	4
0.0022159726576706463	DB00777	Q9KWU1	6
0.0022159726576706463	DB00777	Q8VP74	6
0.002209107511075901	DB00777	P31434	6
0.00218169246047942	DB00777	P41789	2
0.0021653689124661196	DB00777	P03023	7
0.002164854954573642	DB00777	P26602	6
0.002149893992310313	DB00777	P11836	5
0.002149893992310313	DB00777	P11836	5
0.0021444704240036437	DB00777	Q57816	5
0.002139174992273776	DB00777	Q9AQS0	5
0.0021314721174814535	DB00777	P07773	6
0.0021292979847311526	DB00777	P00778	6
0.002100505073552822	DB00777	P23339	5
0.002081707250224957	DB00777	P06983	5
0.0020744882662056935	DB00777	Q55793	5
0.0020743763017490114	DB00777	O04147	5
0.0020472896172567135	DB00777	P09546	4
0.0020365769460510682	DB00777	Q9H3S4	6
0.002025616892417236	DB00777	O60779	1
0.002010956858212927	DB00777	Q50245	6
0.0019904612893375875	DB00777	P27693	5
0.0019904612893375875	DB00777	P29600	5
0.0019881708211530983	DB00777	null	6
0.0019812654797365637	DB00777	P52647	4
0.0019812654797365637	DB00777	P0A7R5	4
0.001980419291944973	DB00777	Q55080	6
0.001975964054891422	DB00777	P29187	5
0.0019705346013811085	DB00777	Q9S7B5	6
0.0019705346013811085	DB00777	Q29149	6
0.001961493273538858	DB00777	Q40772	5
0.0019515715004473366	DB00777	Q83LD8	6
0.0019515715004473366	DB00777	P82900	6
0.0019515715004473366	DB00777	null	6
0.0019515715004473366	DB00777	null	6
0.001950318278552448	DB00777	P37063	5
0.001949500902432144	DB00777	P0A444	6
0.001949500902432144	DB00777	P32170	6
0.001949500902432144	DB00777	P29187	6
0.001949500902432144	DB00777	null	6
0.001949500902432144	DB00777	Q9HJ28	6
0.001949500902432144	DB00777	P04063	6
0.001947198239866103	DB00777	Q8VP84	6
0.0019197554671723453	DB00777	P16932	6
0.0019197554671723453	DB00777	O57809	6
0.0018972176650018456	DB00777	P68249	3
0.0018957249107426433	DB00777	Q9NJG8	3
0.0018874995764885509	DB00777	Q7K9G0	6
0.0018874995764885509	DB00777	P0A6V7	6
0.0018874995764885509	DB00777	Q01770	6
0.0018874995764885509	DB00777	P33120	6
0.001800441635725315	DB00777	Q9RW27	4
0.0017859351327100645	DB00777	Q8NX63	5
0.0017859351327100645	DB00777	Q7WUJ1	5
0.00176467150621209	DB00777	Q0P8G4	5
0.00176467150621209	DB00777	P95470	5
0.00176467150621209	DB00777	O68541	5
0.00176467150621209	DB00777	P0A9J6	5
0.00176467150621209	DB00777	P42255	5
0.0017548695434701374	DB00777	O60896	4
0.0017548695434701374	DB00777	O31156	4
0.0017432439576989592	DB00777	Q8ZYG5	5
0.0017425134514825631	DB00777	O60779	5
0.0017411733596837667	DB00777	P45568	5
0.0017404577390973488	DB00777	P23222	5
0.0016954153119046382	DB00777	P61177	3
0.0016954153119046382	DB00777	P60725	3
0.0016924102920434863	DB00777	P24228	3
0.001623613815780905	DB00777	P11836	4
0.0016134529399364499	DB00777	B1AQM5	4
0.0016130065948243004	DB00777	P68136	5
0.0015938436729231347	DB00777	P56194	5
0.0015938436729231347	DB00777	P06988	5
0.001586989787477172	DB00777	P00587	5
0.001586989787477172	DB00777	Q97QE9	5
0.001586989787477172	DB00777	null	5
0.001586989787477172	DB00777	null	5
0.0015816943557473047	DB00777	P90551	5
0.0015816943557473047	DB00777	P13001	5
0.0015816943557473047	DB00777	P04015	5
0.0015559412455954397	DB00777	P32754	4
0.0015559412455954397	DB00777	P15034	4
0.0015559412455954397	DB00777	Q88CZ6	4
0.0015559412455954397	DB00777	P37819	4
0.0015559412455954397	DB00777	Q3UWB5	4
0.0015559412455954397	DB00777	Q9S850	4
0.0015551737542021807	DB00777	P12998	5
0.001546701409218847	DB00777	Q50744	4
0.001546701409218847	DB00777	Q8GWW7	4
0.0015398152221733391	DB00777	null	1
0.0015301347266013338	DB00777	Q8GKS5	5
0.0014690660156243991	DB00777	P32169	4
0.0014690660156243991	DB00777	P07822	4
0.0014690660156243991	DB00777	P0A733	4
0.0014690660156243991	DB00777	P0A0N5	4
0.0014690660156243991	DB00777	P18357	4
0.0014471402995380183	DB00777	P0AE12	4
0.0014387597119628795	DB00777	B1AQM5	4
0.0013947943615120581	DB00777	Q79FD7	4
0.0013947943615120581	DB00777	P69923	4
0.0013893074589158986	DB00777	P69923	4
0.0013885840178203162	DB00777	P54965	3
0.0013793882082192926	DB00777	P45059	2
0.0013793882082192926	DB00777	P44469	2
0.0013793882082192926	DB00777	P0AEB3	2
0.0013792858957235527	DB00777	Q5M842	2
0.0013786622447287946	DB00777	P17584	4
0.0013181334143890116	DB00777	P20906	4
0.0013181334143890116	DB00777	P94692	4
0.0013181334143890116	DB00777	P06169	4
0.0013181334143890116	DB00777	P0AFG8	4
0.0013081284995240543	DB00777	Q53688	4
0.0013081284995240543	DB00777	P83407	4
0.0012945909660204906	DB00777	P22983	3
0.0012891653985902824	DB00777	null	4
0.0012856223049712795	DB00777	P36683	4
0.0012856223049712795	DB00777	P43577	4
0.0012651551010487816	DB00777	Q96QU6	4
0.001263540046579207	DB00777	Q9ZPL5	2
0.001245200048139461	DB00777	P0AET8	4
0.001245200048139461	DB00777	Q9GPQ4	4
0.001245200048139461	DB00777	P62594	4
0.001243575795236418	DB00777	P02240	3
0.001243575795236418	DB00777	P67974	3
0.001243575795236418	DB00777	null	3
0.0012171126427771401	DB00777	O54288	4
0.0012171126427771401	DB00777	P49424	4
0.0012171126427771401	DB00777	Q9F5I8	4
0.0012171126427771401	DB00777	P0AES2	4
0.0012171126427771401	DB00777	Q6GII7	4
0.0012171126427771401	DB00777	P29723	4
0.0012171126427771401	DB00777	P29187	4
0.0012171126427771401	DB00777	P16276	4
0.0012171126427771401	DB00777	Q746L7	4
0.0012075572163429082	DB00777	P46925	1
0.0011810417150421727	DB00777	P02216	3
0.0010583000539042145	DB00777	Q8Z2X8	3
0.0010422050196486077	DB00777	P68106	2
0.0010422050196486077	DB00777	Q6RYA0	2
0.001033009210047584	DB00777	P72030	1
0.001033009210047584	DB00777	P0A560	1
0.001033009210047584	DB00777	P72059	1
0.001033009210047584	DB00777	Q5L2G3	1
0.001033009210047584	DB00777	Q968X7	1
0.001033009210047584	DB00777	P29187	1
0.001033009210047584	DB00777	P29187	1
0.001033009210047584	DB00777	P29187	1
0.001033009210047584	DB00777	null	1
0.001033009210047584	DB00777	null	1
0.001033009210047584	DB00777	null	1
0.001033009210047584	DB00777	B1AQM5	1
0.001033009210047584	DB00777	null	1
0.001033009210047584	DB00777	B1AQM5	1
0.001033009210047584	DB00777	B1AQM5	1
0.001033009210047584	DB00777	B1AQM5	1
0.001033009210047584	DB00777	Q96P88	1
0.001033009210047584	DB00777	P49366	1
0.001032283246557086	DB00777	P59676	3
0.0010269878148272188	DB00777	null	3
0.0010269878148272188	DB00777	null	3
0.0010087851000287625	DB00777	P00693	3
0.0010004672132820948	DB00777	Q9RYA6	3
9.853128762451128E-4	DB00777	Q9RGX9	3
9.51689284296321E-4	DB00777	P13650	2
9.51689284296321E-4	DB00777	P27505	2
9.482562696889797E-4	DB00777	P25053	3
9.482562696889797E-4	DB00777	P07658	3
9.482562696889797E-4	DB00777	Q99044	3
9.482562696889797E-4	DB00777	P49934	3
9.482562696889797E-4	DB00777	Q9HBH1	3
9.482562696889797E-4	DB00777	P28305	3
9.482562696889797E-4	DB00777	P83701	3
9.482562696889797E-4	DB00777	Q868M7	3
9.482562696889797E-4	DB00777	O49908	3
9.482562696889797E-4	DB00777	Q46730	3
9.245836856201178E-4	DB00777	Q9UKL6	3
9.192882538902505E-4	DB00777	P55907	3
9.192882538902505E-4	DB00777	Q43088	3
9.192882538902505E-4	DB00777	null	3
9.192882538902505E-4	DB00777	Q2RJ67	3
8.927676523451265E-4	DB00777	P02701	3
8.927676523451265E-4	DB00777	P22629	3
7.147520398830142E-4	DB00777	Q99519	2
7.118320859945404E-4	DB00777	null	1
6.957889389492425E-4	DB00777	P32410	2
6.624061018570541E-4	DB00777	P16113	2
6.624061018570541E-4	DB00777	P25052	2
6.624061018570541E-4	DB00777	Q9X2W8	2
6.624061018570541E-4	DB00777	Q8P8J2	2
6.624061018570541E-4	DB00777	P79074	2
6.624061018570541E-4	DB00777	P76216	2
6.624061018570541E-4	DB00777	P0AB71	2
6.624061018570541E-4	DB00777	P05100	2
6.624061018570541E-4	DB00777	P55882	2
6.624061018570541E-4	DB00777	P15879	2
6.624061018570541E-4	DB00777	P32396	2
6.624061018570541E-4	DB00777	Q9KWT6	2
6.624061018570541E-4	DB00777	Q9KWT5	2
6.624061018570541E-4	DB00777	null	2
6.624061018570541E-4	DB00777	null	2
6.624061018570541E-4	DB00777	P0AB74	2
6.624061018570541E-4	DB00777	O25323	2
6.594010819959023E-4	DB00777	P0AGC3	2
6.594010819959023E-4	DB00777	P61713	2
6.594010819959023E-4	DB00777	P08692	2
6.594010819959023E-4	DB00777	Q02899	2
6.594010819959023E-4	DB00777	P61025	2
6.594010819959023E-4	DB00777	Q9YBQ2	2
6.35234185864786E-4	DB00777	Q27738	2
6.35234185864786E-4	DB00777	P07944	2
6.321848641634364E-4	DB00777	Q9L5C7	1
6.321848641634364E-4	DB00777	Q47066	1
6.321848641634364E-4	DB00777	Q9Z4J7	1
6.321848641634364E-4	DB00777	Q8GR64	1
6.321848641634364E-4	DB00777	P17597	1
6.321848641634364E-4	DB00777	Q93LD7	1
5.547065409200859E-4	DB00777	Q9GTP0	2
5.547065409200859E-4	DB00777	P60301	2
5.547065409200859E-4	DB00777	P29187	2
5.413244718302987E-4	DB00777	P60472	2
3.888402456338037E-4	DB00777	P0A0K8	1
3.888402456338037E-4	DB00777	P61497	1
3.698771447000319E-4	DB00777	P29187	1
3.698771447000319E-4	DB00777	null	1
3.463789981717085E-4	DB00777	P11444	1
3.463789981717085E-4	DB00777	Q43758	1
3.463789981717085E-4	DB00777	P58925	1
3.463789981717085E-4	DB00777	P08690	1
3.463789981717085E-4	DB00777	P04395	1
3.3649430760784356E-4	DB00777	P29187	1
3.259117942492105E-4	DB00777	Q40313	1
3.259117942492105E-4	DB00777	Q96W94	1
3.259117942492105E-4	DB00777	Q9S1K0	1
3.259117942492105E-4	DB00777	Q84EX5	1
3.259117942492105E-4	DB00777	Q9NPB1	1
3.259117942492105E-4	DB00777	Q96P88	1
3.259117942492105E-4	DB00777	Q96P88	1
3.259117942492105E-4	DB00777	P52934	1
3.259117942492105E-4	DB00777	P10958	1
