7.0	3941027	9642752	309	0.0026137930945002415
1.0	920363	9642752	309	0.0033500105818032454
0.0	666396	9642752	309	0.003860914542503322
2.0	550628	9642752	309	0.004299339379642744
2.0	478904	9642752	309	0.004698599728685165
0.0	434401	9642752	309	0.005074979211576537
1.0	391745	9642752	309	0.005437035432191512
3.0	377862	9642752	309	0.005789966232941119
2.0	350793	9642752	309	0.006137867024014999
1.0	319449	9642752	309	0.006484052514857419
1.0	306570	9642752	309	0.006829567656234503
2.0	286933	9642752	309	0.007175829920342833
3.0	284033	9642752	309	0.007524946187233314
1.0	268179	9642752	309	0.007878137596003545
0.0	247963	9642752	309	0.008235898220404624
0.0	239668	9642752	309	0.008599489335473927
2.0	236166	9642752	309	0.008972972942606731
2.0	229960	9642752	309	0.009356979601248963
1.0	226077	9642752	309	0.009751344789080005
1.0	219964	9642752	309	0.01015838299625168
0.0	206771	9642752	309	0.010579669520062139
0.0	200299	9642752	309	0.011016807142971298
1.0	197126	9642752	309	0.01147031201091892
2.0	192951	9642752	309	0.011939592580262387
1.0	185834	9642752	309	0.012429365347860209
5.0	185178	9642752	309	0.012943210932985843
7.0	181582	9642752	309	0.013484617129335092
3.0	173968	9642752	309	0.014056755479525023
2.0	169553	9642752	309	0.014659624458574362
1.0	165005	9642752	309	0.01529602307717584
0.0	160207	9642752	309	0.01597169455283799
0.0	155419	9642752	309	0.016691330058160758
0.0	152947	9642752	309	0.01746023284300445
5.0	150709	9642752	309	0.018284861482109224
8.0	147225	9642752	309	0.01917808430849865
6.0	143884	9642752	309	0.02015669948511985
4.0	140433	9642752	309	0.021233283146299266
2.0	137165	9642752	309	0.022427259303257396
3.0	134893	9642752	309	0.023766331136970985
3.0	132592	9642752	309	0.025289258080116006
4.0	128823	9642752	309	0.027061794630401443
5.0	125952	9642752	309	0.02917713566704253
2.0	123829	9642752	309	0.03179769168071625
6.0	121142	9642752	309	0.035247382892252675
20.0	119785	9642752	309	0.04025775538900087
45.0	123689	9642752	309	0.049405520382149036
