1	294fc704_CTT
2	29a4e79c_CTIT
3	2bfb2043_CCT
4	a9d08ab0_CTCT
5	585addbc_CIT
6	fdc5827c_CTPT
7	3edb9e16_CTTT
8	bdbc82f7_CTPT=1
9	bdbc82f7_CTPT=2
10	28fbea70_CICT
11	930f15ba_CCTT
12	788843c5_CTTIT
13	c5b5db68_CTITCT
14	0ea63084_CTT
15	f10572d7_CTITT
16	1489e9c7_CCTIT
17	b2f0b8af_CCCT
18	bfa9568a_CCTCT
19	10cbef95_CITT
20	ded69af1_CTCCT
21	e9c53ca9_CTITCCT
22	d1d8780c_CTITIT
23	a7469814_CITIT
24	844c0c40_CTT
25	5e13b73a_CCIT
26	e2e1b702_CTCTCT
27	7d520dd1_CTCTT
28	24afde88_CTPPPT
29	e3372c9e_CCTCCT
30	e8607726_CTPCPT
31	aea562ff_CTICT
32	54ed8166_CTTCT
33	9128ead8_CTCIT
34	d459dbc9_CITCT
35	031c7952_CCICT
36	f8242058_CTCTCCTIT
37	694c31f8_CITIT=1
38	694c31f8_CITIT=2
39	23b47b66_CIIT
40	a9b096d0_CIIT
41	5d95ff91_CTCCTCT
42	c247c47e_CICTT
43	5eb7b66b_CTCCTCCT
44	d7d12a23_CTCCTIT
45	be66827b_CTCTCCT
46	b8920bda_CTCTIT
47	043c2b7c_CCCTT
48	115fa5f6_CITT
49	1aea4239_CTITT
50	c956e358_CCTITCT
51	4e794fae_CTPPPT=1
52	4e794fae_CTPPPT=2
53	14371b2c_CCTCICT
54	78002a18_CCTT
55	ba3c0c4e_CTIIT
56	f9c10add_CTTT
57	1b51c4a9_CTTCCT
58	58a5bf44_CICCT
59	b9ed62e9_CTITT
60	2e06fec7_CCTT
61	b972068b_CCTTT
62	59894be6_CIT=1
63	59894be6_CIT=2
64	e3ed5db0_CIT
65	3607cf83_CTTT
66	7be84d60_CTPT
67	6a0aef0d_CTICTCCT
68	2f80178f_CTPT
69	48ab1a0f_CTPT
70	87535c4f_CTCCCT
71	2f134aa3_CTPT
72	e8425fc8_CIIT
73	a791d01f_CCCICT
74	07357e44_CTITTCCT
75	e2496892_CTPMPT=1
76	e2496892_CTPMPT=2
77	0353f21a_CICT=1
78	0353f21a_CICT=2
79	0be9e24e_CTCCCCT
80	5d904641_CITIT
81	ae53a62e_CITITCT
82	00746ca3_CTPT
83	94f34f5b_CTIIT
84	47aca418_CCCCT
85	925a0f87_CCCTIT
86	f95378bd_CTCCTT
87	19718765_CCTTCCCT
88	b2cbdd24_CTIICT
89	ce02e152_CTCTCTCT
90	5fc9ecda_CTCTTIT
91	87a042b2_CCTICT
92	ced86f0e_CTPBPTCT
93	f12afae8_CCCTCT
94	16e07296_CCTPT
95	ef8c7654_CTIIIT
96	232a661e_CTPTCT=1
97	232a661e_CTPTCT=2
98	15d7f706_CCTPMPT
99	83e65f5b_CTPPT
100	82d04e6c_CTITCTCCT
101	fa26b7d9_CCTICCT
102	1c904a3e_CTPCPTCT=1
103	1c904a3e_CTPCPTCT=2
104	e2314431_CTITICCT
105	a693795f_CTPCPTCT
106	233a0135_CCTPT
107	5e1dfd37_CTPPPTCT
108	7887c1a1_CTTITCCT
109	cfe1454f_CTPMPT
110	62ef4e4e_CTCICT
111	d352196b_CCTTCCTT
112	214a5b00_CCCIT
113	ecf2c600_CCIIT
114	25569059_CIICT
115	ab5e4b6d_CTPPT
116	7ab70dd6_CTTICT
117	f17e975d_CTITPT=1
118	f17e975d_CTITPT=2
119	f17411a6_CTTCTCT
120	902dbc06_CTPPTCT
121	e66e9594_CTPBPTCTT
122	0ba5810c_CTICICT
123	776f33d4_CICT
124	bef12ecc_CTITCCCT
125	111d8dae_CTCCTTCT
126	23ee9c27_CTTCTT
127	af155063_CTCTCIT
128	7acb7440_CCTCTTT
129	8f8c97ed_CTPPT
130	c4623a17_CTITCTCTCT
131	18429d43_CTTCT
132	d6f23a60_CCICTT
133	0943c82e_CICCT=1
134	0943c82e_CICCT=2
135	fdfcf13e_CCTITCTT
136	e23481ff_CCTTT
137	7eb737c2_CTITTTCT
138	debfaf59_CTPMPTCT
139	91ac1ef7_CCTITT
140	87a8a658_CTPBPT
141	21014476_CICTTCT=1
142	21014476_CICTTCT=2
143	72054db9_CTPCPTCCT=1
144	72054db9_CTPCPTCCT=2
145	2237de84_CTPT
146	3b058ea0_CTITTT
147	bff93e7b_CTTIIT
148	938e41ae_CTTITCTCT
149	e8d8a866_CIIT
150	447e3b0f_CTCTTCT
151	c1df7c29_CTITTCTCT
152	6f82cc05_CTITICT
153	316f5fdf_CTTT
154	51102ef9_CIICTCT
155	c251e495_CTITCCTCCT
156	8416b9ac_CTCTCTCTCT
157	d357f4e7_CTPPPT
158	8387efeb_CITICT
159	44fb2789_CTTITCT
160	3b67c6c5_CTTCICT
161	382dcd11_CTPPTCT
162	bd6aaebe_CCTPT=1
163	bd6aaebe_CCTPT=2
164	d6b7ac31_CTPBPT=1
165	d6b7ac31_CTPBPT=2
166	a01a6a94_CIICT
167	50924da6_CTTIT
168	ee4b9cec_CTCITCT
169	a46ac0a6_CTPMPT=1
170	a46ac0a6_CTPMPT=2
171	8c38a5a0_CCCTCCT
172	8c38b4d0_CICTTT
173	8326f594_CITCT=1
174	8326f594_CITCT=2
175	d1f06c26_CTPCPTCCT=1
176	d1f06c26_CTPCPTCCT=2
177	e7d40bf2_CTIIT
178	430abf8d_CTCTITCT
179	f1540d89_CTTCT
180	3f7bbdcd_CTPPPT=1
181	3f7bbdcd_CTPPPT=2
182	e2129f85_CTPMPT
183	fc7012de_CITTIT
184	119c531b_CTPPPT
185	9f07f4c8_CTTCTIT
186	4925cea8_CTCTPT
187	593ae161_CTIIT
188	7315e7ed_CIICT=1
189	7315e7ed_CIICT=2
190	a322e1a2_CCCTCTIT
191	cd158065_CTITCTTCT
192	dcf8aa89_CTCTCTT
193	396e4783_CTPPT=1
194	396e4783_CTPPT=2
