DB04957	P51787
DB05492	P08913
DB05165	P06730
DB05217	P43490
DB00986	P08172
DB05036	Q96KG9
DB05052	Q92731
DB04872	P29371
DB00313	P35498
DB00726	P08588
DB05838	P30518
DB05225	P20292
DB04892	P22303
DB05087	P34903
DB04725	P09917
DB05311	P03952
DB05134	P07900
DB05381	P25021
DB05428	P31350
DB00934	P34969
DB04934	P0A8V2
DB05116	P04818
DB00458	P35368
DB00543	P35367
DB05200	P10253
DB05232	P35498
DB04873	Q13639
DB04959	Q5T4S7
DB04892	P06276
DB00721	P21397
DB05133	P01584
DB05361	P01008
DB00334	P25021
DB05190	P04049
DB05387	P14780
DB05685	P33151
DB05110	P01579
DB00370	P41595
DB05107	P11413
DB04905	P08183
DB05199	P17752
DB03659	P0DJ06
DB05465	Q9GZP0
DB04957	Q12809
DB05745	P09960
DB05324	P00533
DB04985	P08865
DB05096	Q14832
DB04863	P08514
DB05750	P21554
DB04929	P20292
DB00659	P14867
DB05111	P01579
DB00201	O00329
DB06738	P41145
DB06738	P41143
DB05338	P11511
DB00289	Q01959
DB05495	P14780
DB04862	P0C0H6
DB05169	O14965
DB01789	P30920
DB05139	Q9GZP0
DB05078	P24394
DB00408	P18089
DB05659	Q04707
DB04829	P08908
DB05062	P51681
DB00370	P08588
DB05790	P25103
DB05147	P68363
DB05501	P61073
DB05442	P01584
DB05848	P29460
DB05073	Q96EB6
DB05256	Q13093
DB05434	P10145
DB00408	P11229
DB00852	P60568
DB04851	Q2M3G0
DB05147	P68366
DB00629	P18089
DB01221	P41145
DB05740	P43681
DB05398	P03366
DB00247	P28566
DB01221	P41143
DB06073	P56817
DB05046	P35372
DB04905	P35367
DB05187	P37231
DB06096	P29475
DB00370	P23975
DB00514	P36544
DB05490	P37231
DB08895	O60674
DB05461	P18825
DB05087	P31644
DB05472	P48551
DB00321	P28221
DB00321	P28222
DB06581	P04585
DB05785	P13631
DB05465	P36888
DB05511	P33765
DB05229	P43119
DB01026	P11511
DB05448	Q16881
DB05147	P68371
DB09028	Q15825
DB00797	P25021
DB05930	P40238
DB05147	Q9H4B7
DB00408	P47898
DB00945	Q00653
DB05412	Q16539
DB04983	P41231
DB05070	P41594
DB05408	P29466
DB00396	P41145
DB06148	P50406
DB00945	P25963
DB00370	Q01959
DB00852	P01375
DB06148	P08908
DB05066	P01584
DB04910	P68371
DB00659	Q05586
DB05098	P48357
DB08895	P23458
DB00797	P18089
DB08933	P10613
DB04960	P49356
DB05403	P53778
DB05064	P28845
DB01392	P41595
DB05223	Q13547
DB06151	Q9UPY5
DB00824	P30542
DB00945	Q13131
DB00886	P08473
DB00408	P20309
DB04725	P35354
DB05047	P23560
DB08870	P28908
DB00449	P22303
DB05307	P20711
DB05258	P17181
DB05831	P16422
DB05278	P02741
DB05470	Q16539
DB00418	Q05586
DB04982	P48058
DB05004	P25929
DB01136	P08913
DB05219	Q08493
DB05018	P06280
DB01221	P08908
DB05476	Q03405
DB05187	Q07869
DB05122	P13612
DB06148	P18089
DB05239	Q02750
DB05458	P43681
DB06069	P11387
DB08927	P28223
DB00334	P47898
DB05651	O15379
DB05219	Q08499
DB05787	P05106
DB04931	Q01726
DB05387	P08253
DB00408	P34969
DB05216	P10721
DB05252	P35228
DB04971	P37231
DB04988	P04626
DB06098	Q9Y277
DB01708	Q92731
DB06148	P35462
DB04879	P17948
DB05420	P23921
DB00540	P14416
DB00514	P43681
DB05003	P31350
DB05423	P04150
DB05478	P08684
DB00934	P28223
DB05004	Q15761
DB04857	P14416
DB09014	P28335
DB04888	P08908
DB05659	P0A3M5
DB05041	O95045
DB00795	P24557
DB05036	Q86US8
DB05688	P23975
DB00211	P25100
DB05317	P37268
DB00540	P35368
DB05413	P05154
DB00321	P35372
DB00454	P35372
DB05814	P62942
DB04922	P54289
DB05740	Q9GZZ6
DB05289	Q9Y6K9
DB00988	P23975
DB05161	P24158
DB00321	P35368
DB05655	Q13639
DB05798	P10644
DB05127	Q9NYK1
DB05183	O14920
DB05022	P11388
DB05657	Q92847
DB05009	P29274
DB04924	P14416
DB03761	P0CI79
DB05364	P10147
DB05309	P08620
DB05482	P11387
DB06039	O93182
DB01049	P21728
DB05025	P00441
DB08865	P08581
DB05024	Q07973
DB05101	P00533
DB05855	P17787
DB08891	Q9UBS5
DB05740	Q15822
DB04922	Q9NY47
DB05501	P51681
DB00458	P14416
DB01142	Q9H3N8
DB05125	Q02127
DB06080	P07333
DB05743	P28222
DB05743	P28223
DB05743	P28221
DB05509	P35372
DB05066	P01375
DB00696	P30939
DB05201	P21554
DB04884	P28335
DB01136	P16581
DB05816	P14416
DB00370	P21728
DB08892	Q9UBS5
DB05147	Q6PEY2
DB05010	Q9UBS5
DB06080	P10721
DB05443	P41145
DB01233	P46098
DB06151	P48637
DB05822	P23219
DB05895	O14763
DB05802	P13612
DB05003	P23921
DB01151	P08913
DB00408	P46098
DB05147	Q9BUF5
DB01136	Q16665
DB05905	Q13639
DB05760	P06881
DB05764	Q92934
DB06151	Q8TCU5
DB00540	P08588
DB06623	P08913
DB03323	P30920
DB05451	Q00653
DB05343	P04271
DB05383	P35625
DB05147	Q13748
DB06064	Q02156
DB05147	Q13509
DB05341	P05155
DB05752	P08912
DB05372	P21554
DB00800	P25100
DB02670	P30920
DB05871	P03366
DB05867	Q9UNP4
DB06614	P06818
DB00726	P08913
DB00935	P35368
DB05395	P13945
DB06062	P01584
DB05767	P01375
DB05037	P06493
DB00201	Q14643
DB05431	P09917
DB05210	P78527
DB04893	P49354
DB05034	P16066
DB00935	P18825
DB05216	P07949
DB05262	P47989
DB05883	P01270
DB04893	P49356
DB05359	P49286
DB05767	P01584
DB05479	Q01726
DB01043	Q05586
DB05047	P42262
DB05047	P42261
DB05066	P39905
DB05047	P42263
DB04856	P32238
DB05342	P04035
DB05210	Q92569
DB01708	Q05586
DB05339	P08908
DB05351	P20648
DB00342	P08172
DB00342	P08173
DB00935	P25100
DB05153	P08581
DB04908	P21917
DB05210	P42345
DB05146	P10721
DB00182	P27338
DB05212	Q00653
DB05759	P08069
DB05280	P14416
DB05879	P01375
DB05920	P11388
DB00217	P08588
DB05492	P18089
DB04970	P08908
DB05740	P17787
DB06738	Q05586
DB01174	Q05586
DB05507	P01584
DB04852	P55157
DB05037	P24941
DB05194	P15509
DB06042	P11388
DB05327	P15121
DB05472	P17181
DB05216	P16234
DB00408	P28222
DB00408	P28221
DB05304	P60568
DB05295	P11473
DB05460	P09211
DB05215	P06213
DB05171	Q9NZ42
DB05418	P25103
DB05435	Q5NUL3
DB05419	Q9NYX4
DB00182	P31645
DB05184	P08069
DB05475	Q9NR96
DB00608	Q8MU52
DB05362	P00742
DB00726	P28335
DB06148	P34969
DB05155	P41145
DB03516	Q12882
DB05461	P41595
DB05744	P01375
DB05046	P41145
DB05080	P35367
DB05153	P35968
DB05286	Q9H228
DB09028	P32297
DB04927	Q14534
DB01151	P28335
DB05458	P17787
DB08865	Q9UM73
DB05254	P00749
DB09014	P35462
DB06094	P04792
DB04884	P08908
DB00408	P31645
DB05486	P41597
DB05159	P41597
DB05087	P14867
DB05694	P30968
DB05282	O95831
DB00182	P35348
DB05389	Q7L5Y9
DB05749	P11511
DB05168	P41439
DB04864	P22303
DB05913	P10721
DB05149	O14757
DB05122	P26010
DB05736	P43235
DB06061	Q13233
DB05892	P01138
DB05816	P21728
DB05360	P30542
DB05092	P13612
DB05096	Q14416
DB05342	P03366
DB05713	P00742
DB05157	P53778
DB00182	P14416
DB04853	P29274
DB06148	Q01959
DB00514	P30926
DB04387	P0DJ06
DB04998	Q9Y6K9
DB04940	P10415
DB00421	P18405
DB06097	Q02224
DB00721	Q12791
DB05398	P21926
DB00248	P07550
DB00408	P35348
DB00696	P21728
DB05171	Q96BI3
DB00514	P35372
DB05291	P05177
DB05492	P28223
DB04917	P46098
DB05253	P06401
DB00477	Q9H3N8
DB00289	Q05586
DB04912	P30519
DB05712	Q96IY4
DB08844	P06737
DB05130	P41597
DB05080	Q9Y5N1
DB05849	P07550
DB05017	P01375
DB04957	P15382
DB05752	P11229
DB06089	P56696
DB05184	P12931
DB05304	Q16790
DB05428	Q16881
DB00062	P0DJI8
DB01142	Q12809
DB04879	P35916
DB00543	P28335
DB06151	O15399
DB00321	Q9H3N8
DB00458	P28335
DB05129	P11387
DB05129	P11388
DB05284	P07437
DB06726	P08588
DB08895	P52333
DB00335	P07550
DB08954	Q05586
DB04847	Q9H6Z9
DB05137	Q9GZZ6
DB05162	P43220
DB05785	P10276
DB00201	P54750
DB05675	P02671
DB00421	P04278
DB05198	P35968
DB05079	P28223
DB05367	P25101
DB00408	P35368
DB00408	P35367
DB05078	Q14627
DB00408	P18825
DB02120	P30920
DB06098	P45880
DB06795	P23280
DB00934	P14416
DB00408	Q01959
DB05488	P0AES6
DB04982	P42261
DB04866	P08253
DB04451	P0DJ06
DB05184	P00519
DB04974	P42345
DB00064	P0DJI8
DB05389	Q86VB7
DB05169	Q96GD4
DB04982	P42263
DB05471	Q00653
DB04982	P42262
DB05345	P35367
DB04850	P21397
DB05766	P14416
DB00795	P04054
DB06080	P17948
DB05432	Q9NYX4
DB05254	P05121
DB00568	P21728
DB05069	Q9GZZ6
DB00988	P08908
DB06151	Q13224
DB00201	P78527
DB00945	P11021
DB05206	P01019
DB00543	P41595
DB04937	O14746
DB05434	P14210
DB05161	P08246
DB00800	P35348
DB05036	O14746
DB05475	O60603
DB05412	P01375
DB00458	P21728
DB05075	P41240
DB05303	P01375
DB05218	P01375
DB05001	P27487
DB04847	Q96KS0
DB04879	P35968
DB00514	P17787
DB04908	P08908
DB05366	P06401
DB05760	P10092
DB00370	P35462
DB05146	P16234
DB06080	P36888
DB01221	P11229
DB06614	P27907
DB05207	P14778
DB05915	O14793
DB05412	P01584
DB00313	Q92769
DB05233	P03372
DB05153	Q02763
DB05464	P19838
DB00454	P23975
DB05281	P10415
DB00368	P54219
DB05150	P05067
DB05308	P04818
DB01151	P08908
DB05120	P06213
DB00675	P17252
DB00543	Q9H3N8
DB04997	P13612
DB06151	O15111
DB01136	P18089
DB00201	P42338
DB00201	P42336
DB00800	P35368
DB05408	P55210
DB00321	P08588
DB05487	P19838
DB05777	P00734
DB04875	P29466
DB05194	P04141
DB05428	Q9NNW7
DB04915	Q16206
DB04889	P31645
DB05361	P25116
DB00184	P11511
DB00312	Q05586
DB00477	P17405
DB00421	Q06432
DB06148	P30939
DB04869	P06881
DB05044	P06737
DB00970	P11388
DB05213	P36888
DB05203	P00797
DB00540	P08913
DB05774	P00533
DB05412	P00403
DB04973	P04049
DB00477	Q12809
DB06101	P17948
DB00824	P29274
DB01221	P28223
DB05234	P10275
DB05168	P14207
DB05467	P13631
DB00397	P07550
DB00824	P33765
DB01422	P50579
DB04951	P09958
DB05408	P42574
DB05192	P10828
DB00797	P18825
DB05658	P35961
DB05745	P55786
DB08932	P24530
DB05739	P30556
DB00514	P32297
DB08954	Q13224
DB05468	P13612
DB05492	P18825
DB05764	P10415
DB05241	O00329
DB00964	P18089
DB05470	P01375
DB05492	P25100
DB00458	P08908
DB00458	P50406
DB00321	P25021
DB00370	P34969
DB00408	P08172
DB00543	P08908
DB00408	P08173
DB00543	P50406
DB05659	P0AD69
DB00477	P21918
DB05014	P11362
DB06042	P04350
DB05216	P36888
DB00477	P21917
DB05226	P13843
DB05255	Q5T601
DB05280	P21917
DB05190	P15056
DB00457	P08913
DB04847	Q9GZT9
DB00477	P28335
DB06292	P31639
DB05191	P29274
DB03958	P0CK31
DB04919	P02671
DB04851	P33527
DB05692	P25116
DB04919	P02675
DB05314	P32320
DB01359	P28222
DB05216	Q06609
DB09016	P28223
DB05786	Q96AE4
DB05142	O00408
DB08929	P56817
DB05102	P03303
DB05210	P27986
DB06060	P41594
DB04954	P30542
DB06151	Q12879
DB02342	P11511
DB06038	P26664
DB05434	P09038
DB05036	Q15185
DB05507	P29466
DB05299	P60568
DB00668	P01375
DB05383	P15121
DB05066	P05231
DB08818	O14594
DB05797	P12319
DB04918	P14677
DB01624	P35367
DB00333	P46098
DB05065	P27487
DB00540	P28335
DB05087	P48169
DB06103	P12268
DB04933	O00206
DB05424	P00533
DB00668	P18825
DB01041	P02763
DB05798	P13861
DB05335	P23219
DB01365	P08588
DB05168	P15328
DB05301	Q13393
DB00221	P07550
DB00543	P21917
DB00421	P06401
DB06089	Q9NR82
DB01841	P30920
DB06042	P07437
DB06148	P18825
DB04860	Q9NYK1
DB00321	P28335
DB06042	Q13509
DB05510	P22303
DB00247	P28222
DB06080	P35968
DB09016	P31645
DB05457	P04818
DB05446	P02749
DB00726	P11229
DB05802	P26010
DB00696	P28335
DB05483	Q5T4S7
DB08923	P19235
DB06070	P08238
DB05708	P36544
DB06186	P16410
DB05483	P08048
DB04903	P47869
DB00334	P14867
DB00668	P13945
DB00477	P35462
DB05459	P29460
DB00934	P28335
DB05387	P39900
DB06089	P51787
DB05447	P41235
DB04886	P03369
DB05492	P35348
DB00457	P18089
DB05202	P07359
DB05824	Q05586
DB06096	P28221
DB06058	P26664
DB05079	P35367
DB05407	P05305
DB05091	P30518
DB06096	P28222
DB05223	Q9UBN7
DB01033	P20839
DB05301	P29466
DB05316	P28223
DB01136	P18825
DB04866	P02452
DB00458	Q12809
DB06080	P35916
DB00996	Q05586
DB05869	P01375
DB08892	O75899
DB00454	Q01959
DB05198	O14965
DB05235	Q14894
DB05767	P19838
DB05492	P35368
DB05075	P17948
DB04906	P63098
DB05492	P35367
DB04926	Q8TCU5
DB05900	P08069
DB05042	P50406
DB00514	P23975
DB00514	P41143
DB00514	P41145
DB08935	P11836
DB05072	P25103
DB05290	P25101
DB05157	Q16539
DB00988	P34969
DB00575	P35348
DB00568	P11229
DB08891	O75899
DB01163	P0AD65
DB05492	P35372
DB04978	P11388
DB00248	P35348
DB03516	Q06278
DB01188	P05023
DB05014	P36888
DB00321	Q99720
DB04335	P0ABP8
DB06148	P35348
DB01016	P50416
DB04901	P33681
DB05232	Q9NY46
DB05470	P01584
DB05771	P22301
DB04956	P01375
DB05249	Q99062
DB05864	P50579
DB00247	P30939
DB06148	P14416
DB00370	P31645
DB00408	P23975
DB03090	P0DJ06
DB05651	Q92769
DB00540	P50406
DB05651	Q13547
DB05744	P05231
DB04902	Q9H244
DB05688	P31645
DB05386	P15509
DB05422	P31645
DB05014	P35968
DB04906	Q96LZ3
DB04940	Q9H4B7
DB05187	Q03181
DB06042	Q9H4B7
DB06151	O14920
DB00342	P08912
DB05250	P01375
DB05767	Q00653
DB05255	P41180
DB05010	O75899
DB00421	P19099
DB05455	P47901
DB05481	P01009
DB05854	P37231
DB05752	P20309
DB05806	P11387
DB00408	P08588
DB05796	P08473
DB00575	P35368
DB05030	P14210
DB00248	P35368
DB05913	P17948
DB05916	Q15116
DB05216	P08581
DB04863	P05106
DB00182	P08588
DB04884	P28222
DB05250	P01584
DB05166	Q8TDV5
DB05188	Q03181
DB05223	O15379
DB05489	P00521
DB08996	P22303
DB05415	O76074
DB00477	P50406
DB00328	Q07869
DB05024	P11473
DB05066	P34130
DB05429	P51671
DB05679	P29460
DB04991	O14672
DB05347	Q779J8
DB05740	Q9UGM1
DB05484	P10145
DB05023	P08069
DB05280	P08908
DB05317	P04035
DB00370	P07550
DB00696	P08908
DB01708	Q14994
DB00575	P25100
DB05147	Q9BQE3
DB05461	P18089
DB00321	P50406
DB00248	P25100
DB00346	Q12809
DB05494	P27707
DB05241	P48736
DB04885	P46098
DB00182	P23975
DB00543	P35462
DB05509	P08908
DB05104	P41145
DB00477	P08913
DB05767	P05231
DB02342	P21964
DB05404	P04637
DB04883	P25101
DB00458	P34969
DB05223	Q92769
DB00543	P34969
DB01018	P18089
DB05014	P22607
DB00368	Q05940
DB04908	P28223
DB05095	P35354
DB00408	P21918
DB05022	Q02880
DB05228	P03369
DB04849	P35968
DB00334	P08588
DB01049	P14416
DB05487	Q00653
DB00408	P21917
DB05017	P05231
DB05141	O15392
DB01026	P10275
DB00321	O43525
DB05793	Q5NUL3
DB05900	P00533
DB04859	P22303
DB05131	P00740
DB05399	P19320
DB04971	Q07869
DB05882	Q92731
DB00945	P25101
DB05882	P03372
DB05382	P03915
DB05505	P24557
DB05235	P10827
DB01033	Q06203
DB05464	Q00653
DB04851	Q9UNQ0
DB05157	O15264
DB01142	P50406
DB05066	P22301
DB09018	P14416
DB05452	P47901
DB05434	P15692
DB05033	Q13443
DB00408	P28566
DB05146	P09619
DB01708	Q07869
DB06101	P35968
DB05007	P54760
DB06738	P35372
DB05280	P35462
DB05475	Q9NYK1
DB05207	P01375
DB00497	P02763
DB02342	Q16678
DB05147	P07437
DB05268	P04049
DB05785	P05412
DB05053	P09467
DB05122	P16144
DB05855	P10145
DB05147	Q13885
DB00342	P11229
DB09016	P35367
DB05014	P09619
DB04924	P20309
DB05337	P48060
DB05777	P12259
DB05662	P03372
DB05281	P68366
DB05764	Q92843
DB00925	P35368
DB05094	P10275
DB05206	P25101
DB05146	P35968
DB06070	P07900
DB00934	P08913
DB00968	P20711
DB04958	P20273
DB01221	P35372
DB04319	P30920
DB04917	Q13639
DB08936	P35367
DB04468	Q92731
DB05219	Q07343
DB05319	P16422
DB05238	P15056
DB00886	P12821
DB06148	P41595
DB05240	P42336
DB05321	Q45697
DB05147	Q71U36
DB05452	P37288
DB05492	P41146
DB00988	P31645
DB04975	P11388
DB05785	P10826
DB05149	O96017
DB05202	P04275
DB01708	P03372
DB05868	P26664
DB05758	P01375
DB05152	P11229
DB05328	P04585
DB05004	P49146
DB02342	P04798
DB02342	Q16665
DB05030	P35968
DB01909	P30920
DB05099	P02671
DB05134	P08238
DB05358	Q9BYF1
DB00477	P11229
DB05374	P00533
DB05087	Q16445
DB00408	Q9H3N8
DB06101	P35916
DB00925	P25100
DB05241	P42338
DB05087	P47869
DB05241	P42336
DB05137	Q9UGM1
DB00370	P18825
DB05687	P28223
DB05227	P28223
DB00206	P54219
DB05488	Q02880
DB05012	P23975
DB04888	P14416
DB00454	P11229
DB05004	P50391
DB05463	Q9NR96
DB05204	Q06187
DB06151	Q03154
DB01392	P48048
DB09028	P36544
DB05157	Q15759
DB00726	P28221
DB01136	P25100
DB05338	P03372
DB00543	Q01959
DB05241	P42345
DB00458	Q01959
DB05115	P06213
DB03516	P47989
DB00477	P02763
DB05359	P48039
DB04468	P03372
DB01136	P35368
DB05203	Q9BYF1
DB04889	P14416
DB00726	P46098
DB01197	P09960
DB06151	Q05586
DB04947	Q01959
DB06148	P41145
DB00381	P17405
DB01248	O75469
DB06089	O43526
DB06089	O43525
DB04918	P0AD68
DB05232	Q9UQD0
DB04925	P00747
DB00184	P28329
DB00986	P20309
DB09014	Q99720
DB06042	Q02880
DB00334	Q9H3N8
DB04972	P09211
DB05506	P18031
DB05066	P20783
DB04881	P08183
DB05897	P08069
DB05766	P11229
DB05177	P09960
DB05740	P36544
DB05007	P01133
DB05153	P10721
DB05846	P05067
DB05391	P07359
DB05417	P23415
DB05298	Q08499
DB05219	P27815
DB05466	P25103
DB00408	P50406
DB05243	O60674
DB05470	P05231
DB05147	Q9BVA1
DB00454	P31645
DB01221	P23975
DB05492	P41595
DB04889	P23975
DB00408	P35462
DB00935	P18089
DB05075	P35968
DB00543	P46098
DB05232	Q99250
DB05007	P04626
DB00543	P28223
DB03348	P22303
DB00543	P28222
DB05801	P31350
DB06127	P27487
DB05305	P35225
DB08932	P25101
DB05687	P14416
DB00477	P62158
DB01043	P14416
DB04959	P08729
DB04468	P62508
DB05269	P06858
DB05492	P28335
DB05250	P05231
DB05744	P22301
DB05449	P08183
DB05766	P35462
DB01708	P14867
DB06148	Q9H3N8
DB05005	P51686
DB05921	Q13547
DB05869	P09429
DB00477	P20309
DB06741	Q05586
DB05471	P19838
DB00421	P04150
DB05147	Q9H853
DB01151	P14416
DB05752	P08172
DB05205	P21397
DB05752	P08173
DB00321	P34969
DB05264	P32927
DB04903	P34903
DB04867	P32238
DB04882	P11387
DB05212	P19838
DB05390	P41231
DB05739	P50052
DB05214	P35228
DB05184	P42684
DB05475	O00206
DB03241	P0DJ06
DB05297	P10415
DB05026	P28223
DB00228	O15554
DB05045	P49146
DB05075	P35916
DB04964	Q8WXI7
DB04988	P00533
DB00945	O14920
DB05077	P21554
DB00723	P25100
DB05220	O14965
DB00477	P34969
DB05335	P35354
DB05469	P35348
DB05369	P25021
DB00408	P08908
DB06148	P21728
DB05035	P10827
DB05876	P27815
DB05035	P10828
DB00370	P35348
DB01708	O75469
DB05421	P25103
DB00818	P14867
DB00334	P41595
DB04335	P00491
DB05041	Q16831
DB00370	Q9Y5N1
DB05050	P41143
DB00408	P25021
DB01708	Q99720
DB09028	P43681
DB00091	P30405
DB00408	P08913
DB00408	P08912
DB05316	P14416
DB05744	P02741
DB05069	Q9UGM1
DB05890	P15692
DB00945	P04637
DB05487	P03372
DB05210	O00459
DB05147	P04350
DB06103	P20839
DB05469	P25100
DB05032	Q9H3N8
DB05049	P46098
DB04725	Q9NZK7
DB00370	P14416
DB04912	P09601
DB05224	Q6GJI1
DB05045	P50391
DB05715	Q16739
DB05459	Q9NPF7
DB05451	P19838
DB05469	P35368
DB00248	P08588
DB05303	P14778
DB01049	P14867
DB08818	P13611
DB05047	P48058
