4	ChEMBL
164359	ChEMBL
136712	ChEMBL
93377	ChEMBL
26123	ChEMBL
14867	ChEMBL
21528	ChEMBL
78562	ChEMBL
10267	ChEMBL
19485	ChEMBL
6176	ChEMBL
27684	ChEMBL
313894	ChEMBL
13865	ChEMBL
148523	ChEMBL
328370	ChEMBL
5168	ChEMBL
326408	ChEMBL
4666	ChEMBL
11839	ChEMBL
25665	ChEMBL
30274	ChEMBL
142916	ChEMBL
57926	ChEMBL
2631	ChEMBL
30796	ChEMBL
26704	ChEMBL
3159	ChEMBL
25690	ChEMBL
194923	ChEMBL
605	ChEMBL
181343	ChEMBL
18016	ChEMBL
321211	ChEMBL
148073	ChEMBL
14441	ChEMBL
73063	ChEMBL
248082	ChEMBL
32445	ChEMBL
270655	ChEMBL
220787	ChEMBL
148086	ChEMBL
106601	ChEMBL
272587	ChEMBL
10367	ChEMBL
128	ChEMBL
126315	ChEMBL
38020	ChEMBL
71814	ChEMBL
21697	ChEMBL
62096	ChEMBL
243345	ChEMBL
44182	ChEMBL
5276	ChEMBL
50334	ChEMBL
16035	ChEMBL
277391	ChEMBL
275910	ChEMBL
13990	ChEMBL
6826	ChEMBL
302027	ChEMBL
143536	ChEMBL
41138	ChEMBL
59251	ChEMBL
362165	ChEMBL
3766	ChEMBL
29879	ChEMBL
299705	ChEMBL
3771	ChEMBL
11452	ChEMBL
189	ChEMBL
6337	ChEMBL
32963	ChEMBL
196294	ChEMBL
218828	ChEMBL
188106	ChEMBL
3787	ChEMBL
716	ChEMBL
12495	ChEMBL
147152	ChEMBL
1238	ChEMBL
227035	ChEMBL
80604	ChEMBL
69343	ChEMBL
112352	ChEMBL
8418	ChEMBL
73386	ChEMBL
17132	ChEMBL
247534	ChEMBL
55536	ChEMBL
294643	ChEMBL
10484	ChEMBL
346357	ChEMBL
33527	ChEMBL
175352	ChEMBL
44793	ChEMBL
28410	ChEMBL
192371	ChEMBL
46335	ChEMBL
121088	ChEMBL
172587	ChEMBL
7941	ChEMBL
53000	ChEMBL
21263	ChEMBL
2834	ChEMBL
9494	ChEMBL
25368	ChEMBL
79130	ChEMBL
266714	ChEMBL
322096	ChEMBL
257321	ChEMBL
227114	ChEMBL
117044	ChEMBL
337208	ChEMBL
14655	ChEMBL
9025	ChEMBL
17731	ChEMBL
13128	ChEMBL
222991	ChEMBL
8524	ChEMBL
7906	ChEMBL
11086	ChEMBL
16720	ChEMBL
47953	ChEMBL
96089	ChEMBL
8026	ChEMBL
206171	ChEMBL
10593	ChEMBL
6500	ChEMBL
47974	ChEMBL
11623	ChEMBL
55656	ChEMBL
44906	ChEMBL
16747	ChEMBL
5485	ChEMBL
3443	ChEMBL
115067	ChEMBL
31104	ChEMBL
53633	ChEMBL
10627	ChEMBL
20870	ChEMBL
109377	ChEMBL
308616	ChEMBL
10634	ChEMBL
54667	ChEMBL
137100	ChEMBL
57230	ChEMBL
3565	ChEMBL
264594	ChEMBL
149909	ChEMBL
20886	ChEMBL
7577	ChEMBL
83866	ChEMBL
33692	ChEMBL
1439	ChEMBL
42916	ChEMBL
55717	ChEMBL
423	ChEMBL
352327	ChEMBL
61356	ChEMBL
78767	ChEMBL
173487	ChEMBL
320415	ChEMBL
182716	ChEMBL
25534	ChEMBL
222150	ChEMBL
20727	ChEMBL
78796	ChEMBL
53198	ChEMBL
467	ChEMBL
82388	ChEMBL
10714	ChEMBL
288219	ChEMBL
7139	ChEMBL
11243	ChEMBL
17901	ChEMBL
51694	ChEMBL
345584	ChEMBL
295921	ChEMBL
322547	ChEMBL
156661	ChEMBL
2553	ChEMBL
5627	ChEMBL
8188	ChEMBL
7338	ChEMBL
20482	DReSMin
12459	DReSMin
10244	DReSMin
12630	DReSMin
6150	DReSMin
21761	DReSMin
45064	DReSMin
57865	DReSMin
48045	DReSMin
8721	DReSMin
2067	DReSMin
1046	DReSMin
19994	DReSMin
2077	DReSMin
47134	DReSMin
6176	DReSMin
1200	DReSMin
74280	DReSMin
3113	DReSMin
2090	DReSMin
7724	DReSMin
209966	DReSMin
1583	DReSMin
5169	DReSMin
8245	DReSMin
42641	DReSMin
15418	DReSMin
14399	DReSMin
6720	DReSMin
2114	DReSMin
52804	DReSMin
9799	DReSMin
26184	DReSMin
16457	DReSMin
19736	DReSMin
12875	DReSMin
1612	DReSMin
59982	DReSMin
34384	DReSMin
1617	DReSMin
166995	DReSMin
5204	DReSMin
39510	DReSMin
16471	DReSMin
603	DReSMin
12893	DReSMin
39525	DReSMin
42594	DReSMin
6587	DReSMin
1637	DReSMin
26726	DReSMin
2663	DReSMin
134762	DReSMin
2667	DReSMin
4205	DReSMin
11376	DReSMin
625	DReSMin
626	DReSMin
36393	DReSMin
4216	DReSMin
7289	DReSMin
123	DReSMin
637	DReSMin
6273	DReSMin
9859	DReSMin
644	DReSMin
30230	DReSMin
1158	DReSMin
7617	DReSMin
158856	DReSMin
3863	DReSMin
1165	DReSMin
67231	DReSMin
10896	DReSMin
7448	DReSMin
10898	DReSMin
663	DReSMin
1688	DReSMin
1689	DReSMin
666	DReSMin
10909	DReSMin
670	DReSMin
3743	DReSMin
71328	DReSMin
164	DReSMin
6311	DReSMin
680	DReSMin
171	DReSMin
13996	DReSMin
39086	DReSMin
11293	DReSMin
3248	DReSMin
174257	DReSMin
4788	DReSMin
181	DReSMin
1719	DReSMin
7864	DReSMin
698	DReSMin
700	DReSMin
190	DReSMin
101630	DReSMin
40907	DReSMin
3782	DReSMin
48204	DReSMin
38100	DReSMin
19669	DReSMin
17110	DReSMin
2775	DReSMin
3801	DReSMin
141019	DReSMin
1244	DReSMin
167135	DReSMin
6369	DReSMin
226	DReSMin
33512	DReSMin
233	DReSMin
234	DReSMin
42220	DReSMin
166866	DReSMin
75398	DReSMin
239	DReSMin
64752	DReSMin
26869	DReSMin
2601	DReSMin
761	DReSMin
47868	DReSMin
253	DReSMin
3326	DReSMin
1281	DReSMin
1797	DReSMin
52695	DReSMin
8974	DReSMin
1298	DReSMin
279	DReSMin
280	DReSMin
192559	DReSMin
1821	DReSMin
1312	DReSMin
1827	DReSMin
34084	DReSMin
8485	DReSMin
56615	DReSMin
1832	DReSMin
17884	DReSMin
32554	DReSMin
48427	DReSMin
134956	DReSMin
23686	DReSMin
13618	DReSMin
44855	DReSMin
25914	DReSMin
1342	DReSMin
9269	DReSMin
1347	DReSMin
12613	DReSMin
20806	DReSMin
328	DReSMin
49481	DReSMin
1867	DReSMin
12108	DReSMin
6370	DReSMin
4944	DReSMin
21841	DReSMin
76305	DReSMin
10394	DReSMin
20313	DReSMin
58203	DReSMin
16732	DReSMin
45114	DReSMin
867	DReSMin
6500	DReSMin
10087	DReSMin
5484	DReSMin
2414	DReSMin
6512	DReSMin
37233	DReSMin
44409	DReSMin
77182	DReSMin
22401	DReSMin
41346	DReSMin
28548	DReSMin
5512	DReSMin
1419	DReSMin
8770	DReSMin
27534	DReSMin
9104	DReSMin
166802	DReSMin
1427	DReSMin
38612	DReSMin
12441	DReSMin
1945	DReSMin
2970	DReSMin
37275	DReSMin
1178	DReSMin
2974	DReSMin
5708	DReSMin
18337	DReSMin
18850	DReSMin
419	DReSMin
932	DReSMin
20465	DReSMin
937	DReSMin
11693	DReSMin
945	DReSMin
6580	DReSMin
21662	DReSMin
7094	DReSMin
25529	DReSMin
159	DReSMin
6590	DReSMin
47093	DReSMin
3521	DReSMin
27979	DReSMin
452	DReSMin
18885	DReSMin
1481	DReSMin
759	DReSMin
21458	DReSMin
2003	DReSMin
12537	DReSMin
5084	DReSMin
13789	DReSMin
10722	DReSMin
18407	DReSMin
21159	DReSMin
2543	DReSMin
4593	DReSMin
500	DReSMin
1525	DReSMin
2985	DReSMin
506	DReSMin
26111	DReSMin
5116	DReSMin
5631	DReSMin
