67584	ChEMBL
374255	ChEMBL
6	ChEMBL
7	ChEMBL
268972	ChEMBL
6155	ChEMBL
8204	ChEMBL
14	ChEMBL
104463	ChEMBL
16	ChEMBL
17	ChEMBL
4114	ChEMBL
19	ChEMBL
4119	ChEMBL
29	ChEMBL
3206	ChEMBL
259077	ChEMBL
33	ChEMBL
34	ChEMBL
6179	ChEMBL
149540	ChEMBL
210950	ChEMBL
10280	ChEMBL
147498	ChEMBL
40967	ChEMBL
47	ChEMBL
61488	ChEMBL
130056	ChEMBL
51251	ChEMBL
6198	ChEMBL
58	ChEMBL
14408	ChEMBL
34828	ChEMBL
75	ChEMBL
8268	ChEMBL
277517	ChEMBL
80	ChEMBL
10322	ChEMBL
26708	ChEMBL
2134	ChEMBL
164879	ChEMBL
66630	ChEMBL
93	ChEMBL
10339	ChEMBL
86116	ChEMBL
103	ChEMBL
2152	ChEMBL
176234	ChEMBL
8301	ChEMBL
110	ChEMBL
88175	ChEMBL
4209	ChEMBL
127091	ChEMBL
346228	ChEMBL
125290	ChEMBL
2174	ChEMBL
45186	ChEMBL
225413	ChEMBL
6278	ChEMBL
1388	ChEMBL
12429	ChEMBL
217231	ChEMBL
374928	ChEMBL
227480	ChEMBL
368794	ChEMBL
182427	ChEMBL
45424	ChEMBL
8357	ChEMBL
166	ChEMBL
167	ChEMBL
151723	ChEMBL
176	ChEMBL
121053	ChEMBL
182	ChEMBL
139448	ChEMBL
67772	ChEMBL
8384	ChEMBL
250049	ChEMBL
225483	ChEMBL
2082	ChEMBL
161998	ChEMBL
207	ChEMBL
200915	ChEMBL
179300	ChEMBL
247148	ChEMBL
6364	ChEMBL
221	ChEMBL
26847	ChEMBL
8417	ChEMBL
14564	ChEMBL
300070	ChEMBL
159441	ChEMBL
30952	ChEMBL
207082	ChEMBL
10476	ChEMBL
33011	ChEMBL
284916	ChEMBL
18678	ChEMBL
2299	ChEMBL
185386	ChEMBL
10494	ChEMBL
329983	ChEMBL
84011	ChEMBL
114950	ChEMBL
190734	ChEMBL
49423	ChEMBL
78101	ChEMBL
39192	ChEMBL
28953	ChEMBL
375066	ChEMBL
16431	ChEMBL
41244	ChEMBL
100400	ChEMBL
78120	ChEMBL
22825	ChEMBL
80175	ChEMBL
26930	ChEMBL
321845	ChEMBL
310	ChEMBL
101769	ChEMBL
119096	ChEMBL
4412	ChEMBL
4832	ChEMBL
104772	ChEMBL
67638	ChEMBL
26337	ChEMBL
1420	ChEMBL
135499	ChEMBL
334	ChEMBL
235855	ChEMBL
98642	ChEMBL
339	ChEMBL
341	ChEMBL
2392	ChEMBL
6489	ChEMBL
24924	ChEMBL
158045	ChEMBL
47456	ChEMBL
24929	ChEMBL
110948	ChEMBL
358	ChEMBL
221091	ChEMBL
10602	ChEMBL
48530	ChEMBL
16751	ChEMBL
368	ChEMBL
4470	ChEMBL
8568	ChEMBL
4478	ChEMBL
20863	ChEMBL
16769	ChEMBL
91804	ChEMBL
115075	ChEMBL
362886	ChEMBL
129416	ChEMBL
348563	ChEMBL
45461	ChEMBL
55703	ChEMBL
287128	ChEMBL
209306	ChEMBL
127062	ChEMBL
129437	ChEMBL
166305	ChEMBL
6562	ChEMBL
178595	ChEMBL
47525	ChEMBL
56391	ChEMBL
106926	ChEMBL
6576	ChEMBL
4529	ChEMBL
4531	ChEMBL
72117	ChEMBL
37303	ChEMBL
20925	ChEMBL
12735	ChEMBL
12736	ChEMBL
449	ChEMBL
10692	ChEMBL
37317	ChEMBL
39367	ChEMBL
22604	ChEMBL
47571	ChEMBL
183374	ChEMBL
66006	ChEMBL
252665	ChEMBL
6618	ChEMBL
166309	ChEMBL
14416	ChEMBL
12772	ChEMBL
13246	ChEMBL
94698	ChEMBL
20972	ChEMBL
14418	ChEMBL
203248	ChEMBL
20979	ChEMBL
27124	ChEMBL
4601	ChEMBL
2558	ChEMBL
8705	ChEMBL
8278	ChEMBL
518	ChEMBL
4615	ChEMBL
111112	ChEMBL
523	ChEMBL
190988	ChEMBL
526	ChEMBL
119312	ChEMBL
137745	ChEMBL
29206	ChEMBL
142683	ChEMBL
72795	ChEMBL
236068	ChEMBL
4647	ChEMBL
552	ChEMBL
553	ChEMBL
59946	ChEMBL
256555	ChEMBL
4652	ChEMBL
29230	ChEMBL
291592	ChEMBL
57908	ChEMBL
35383	ChEMBL
223800	ChEMBL
19002	ChEMBL
86589	ChEMBL
82494	ChEMBL
4671	ChEMBL
291392	ChEMBL
577	ChEMBL
12866	ChEMBL
14916	ChEMBL
299589	ChEMBL
582	ChEMBL
6728	ChEMBL
47693	ChEMBL
4693	ChEMBL
6742	ChEMBL
290124	ChEMBL
44006	ChEMBL
105050	ChEMBL
225884	ChEMBL
180829	ChEMBL
4702	ChEMBL
1125	ChEMBL
2656	ChEMBL
278288	ChEMBL
10850	ChEMBL
19046	ChEMBL
10856	ChEMBL
4713	ChEMBL
75879	ChEMBL
55917	ChEMBL
55918	ChEMBL
37309	ChEMBL
2672	ChEMBL
4200	ChEMBL
29459	ChEMBL
8822	ChEMBL
60863	ChEMBL
225916	ChEMBL
4737	ChEMBL
645	ChEMBL
235969	ChEMBL
45707	ChEMBL
129684	ChEMBL
121966	ChEMBL
14998	ChEMBL
8855	ChEMBL
135833	ChEMBL
10907	ChEMBL
670	ChEMBL
213105	ChEMBL
2729	ChEMBL
10924	ChEMBL
268973	ChEMBL
264879	ChEMBL
8882	ChEMBL
357044	ChEMBL
78517	ChEMBL
98998	ChEMBL
334519	ChEMBL
15034	ChEMBL
8894	ChEMBL
2752	ChEMBL
101058	ChEMBL
4803	ChEMBL
708	ChEMBL
2758	ChEMBL
210721	ChEMBL
285386	ChEMBL
262866	ChEMBL
57123	ChEMBL
17113	ChEMBL
357085	ChEMBL
51934	ChEMBL
98226	ChEMBL
736	ChEMBL
49891	ChEMBL
97003	ChEMBL
277228	ChEMBL
2797	ChEMBL
25328	ChEMBL
15486	ChEMBL
150265	ChEMBL
211709	ChEMBL
5249	ChEMBL
66312	ChEMBL
208002	ChEMBL
13070	ChEMBL
142096	ChEMBL
19219	ChEMBL
41748	ChEMBL
82710	ChEMBL
19224	ChEMBL
60188	ChEMBL
4896	ChEMBL
111393	ChEMBL
15141	ChEMBL
297768	ChEMBL
25393	ChEMBL
338141	ChEMBL
821	ChEMBL
2872	ChEMBL
4921	ChEMBL
17210	ChEMBL
162619	ChEMBL
37690	ChEMBL
9021	ChEMBL
291637	ChEMBL
834	ChEMBL
835	ChEMBL
2885	ChEMBL
4577	ChEMBL
13130	ChEMBL
849	ChEMBL
1507	ChEMBL
9045	ChEMBL
72535	ChEMBL
109400	ChEMBL
217945	ChEMBL
219279	ChEMBL
2908	ChEMBL
6970	ChEMBL
115551	ChEMBL
9056	ChEMBL
4963	ChEMBL
90980	ChEMBL
52070	ChEMBL
283499	ChEMBL
326511	ChEMBL
74609	ChEMBL
9074	ChEMBL
54132	ChEMBL
9078	ChEMBL
109438	ChEMBL
899	ChEMBL
908	ChEMBL
13201	ChEMBL
295826	ChEMBL
7059	ChEMBL
115605	ChEMBL
330651	ChEMBL
33696	ChEMBL
7078	ChEMBL
236455	ChEMBL
17320	ChEMBL
938	ChEMBL
265031	ChEMBL
33709	ChEMBL
5038	ChEMBL
943	ChEMBL
945	ChEMBL
948	ChEMBL
289718	ChEMBL
951	ChEMBL
3002	ChEMBL
320330	ChEMBL
958	ChEMBL
320459	ChEMBL
72654	ChEMBL
976	ChEMBL
17361	ChEMBL
291978	ChEMBL
5079	ChEMBL
277465	ChEMBL
987	ChEMBL
9180	ChEMBL
21470	ChEMBL
2213	ChEMBL
17376	ChEMBL
56289	ChEMBL
275427	ChEMBL
3046	ChEMBL
1000	ChEMBL
290001	ChEMBL
11244	ChEMBL
1008	ChEMBL
1010	ChEMBL
252916	ChEMBL
1013	ChEMBL
338934	ChEMBL
74743	ChEMBL
5117	ChEMBL
181077	ChEMBL
17411	ChEMBL
113307	ChEMBL
52229	ChEMBL
266753	ChEMBL
11272	ChEMBL
29708	ChEMBL
5133	ChEMBL
4082	ChEMBL
19471	ChEMBL
275472	ChEMBL
91155	ChEMBL
240665	ChEMBL
3100	ChEMBL
7204	ChEMBL
132614	ChEMBL
9254	ChEMBL
7208	ChEMBL
25642	ChEMBL
23596	ChEMBL
5167	ChEMBL
5170	ChEMBL
17459	ChEMBL
281652	ChEMBL
3125	ChEMBL
25654	ChEMBL
119865	ChEMBL
93243	ChEMBL
164924	ChEMBL
15541	ChEMBL
50245	ChEMBL
991	ChEMBL
40801	ChEMBL
15438	ChEMBL
9741	ChEMBL
80976	ChEMBL
209080	ChEMBL
48210	ChEMBL
27491	ChEMBL
19541	ChEMBL
89174	ChEMBL
9307	ChEMBL
105565	ChEMBL
193630	ChEMBL
89184	ChEMBL
44132	ChEMBL
21605	ChEMBL
66670	ChEMBL
35951	ChEMBL
61288	ChEMBL
363998	ChEMBL
19578	ChEMBL
167035	ChEMBL
1150	ChEMBL
1153	ChEMBL
3202	ChEMBL
130923	ChEMBL
15492	ChEMBL
59926	ChEMBL
1158	ChEMBL
201921	ChEMBL
1162	ChEMBL
9356	ChEMBL
11410	ChEMBL
11421	ChEMBL
72869	ChEMBL
29872	ChEMBL
19633	ChEMBL
171188	ChEMBL
1205	ChEMBL
42166	ChEMBL
70842	ChEMBL
242876	ChEMBL
289983	ChEMBL
1217	ChEMBL
93378	ChEMBL
134342	ChEMBL
25801	ChEMBL
1226	ChEMBL
1228	ChEMBL
1230	ChEMBL
35021	ChEMBL
99537	ChEMBL
130258	ChEMBL
3284	ChEMBL
9429	ChEMBL
169508	ChEMBL
38106	ChEMBL
373979	ChEMBL
91356	ChEMBL
66784	ChEMBL
222291	ChEMBL
77031	ChEMBL
1256	ChEMBL
5353	ChEMBL
301607	ChEMBL
191724	ChEMBL
5359	ChEMBL
144624	ChEMBL
9459	ChEMBL
1269	ChEMBL
51753	ChEMBL
11513	ChEMBL
167166	ChEMBL
34047	ChEMBL
261377	ChEMBL
99587	ChEMBL
861	ChEMBL
266796	ChEMBL
93451	ChEMBL
48406	ChEMBL
114564	ChEMBL
314653	ChEMBL
1311	ChEMBL
11552	ChEMBL
73000	ChEMBL
70956	ChEMBL
9519	ChEMBL
40240	ChEMBL
34104	ChEMBL
159033	ChEMBL
165186	ChEMBL
358283	ChEMBL
58693	ChEMBL
30945	ChEMBL
11596	ChEMBL
27987	ChEMBL
7512	ChEMBL
80100	ChEMBL
3418	ChEMBL
107867	ChEMBL
51770	ChEMBL
19811	ChEMBL
50535	ChEMBL
1387	ChEMBL
3436	ChEMBL
52597	ChEMBL
25976	ChEMBL
263549	ChEMBL
1406	ChEMBL
20373	ChEMBL
5506	ChEMBL
355563	ChEMBL
1416	ChEMBL
53484	ChEMBL
19852	ChEMBL
202128	ChEMBL
15762	ChEMBL
161179	ChEMBL
5535	ChEMBL
277920	ChEMBL
5537	ChEMBL
165282	ChEMBL
48554	ChEMBL
23979	ChEMBL
265645	ChEMBL
216499	ChEMBL
19892	ChEMBL
212405	ChEMBL
34230	ChEMBL
298426	ChEMBL
3317	ChEMBL
251330	ChEMBL
5572	ChEMBL
7005	ChEMBL
11722	ChEMBL
24011	ChEMBL
59584	ChEMBL
69071	ChEMBL
1488	ChEMBL
112081	ChEMBL
95699	ChEMBL
1492	ChEMBL
198103	ChEMBL
230873	ChEMBL
269786	ChEMBL
181726	ChEMBL
7648	ChEMBL
7649	ChEMBL
33875	ChEMBL
3555	ChEMBL
67044	ChEMBL
349670	ChEMBL
202321	ChEMBL
185833	ChEMBL
371169	ChEMBL
3567	ChEMBL
166142	ChEMBL
241142	ChEMBL
169463	ChEMBL
296441	ChEMBL
5034	ChEMBL
24064	ChEMBL
5633	ChEMBL
17925	ChEMBL
3590	ChEMBL
3597	ChEMBL
179726	ChEMBL
1551	ChEMBL
50094	ChEMBL
103961	ChEMBL
231576	ChEMBL
36379	ChEMBL
342053	ChEMBL
1569	ChEMBL
1570	ChEMBL
9764	ChEMBL
13862	ChEMBL
266844	ChEMBL
157228	ChEMBL
1581	ChEMBL
34351	ChEMBL
17970	ChEMBL
1971	ChEMBL
88405	ChEMBL
327020	ChEMBL
202973	ChEMBL
104006	ChEMBL
9800	ChEMBL
134730	ChEMBL
282188	ChEMBL
3661	ChEMBL
22094	ChEMBL
32337	ChEMBL
144981	ChEMBL
280157	ChEMBL
345696	ChEMBL
286885	ChEMBL
26214	ChEMBL
13929	ChEMBL
15986	ChEMBL
11893	ChEMBL
267894	ChEMBL
1641	ChEMBL
3704	ChEMBL
18536	ChEMBL
228988	ChEMBL
259709	ChEMBL
228991	ChEMBL
3716	ChEMBL
1669	ChEMBL
9864	ChEMBL
3722	ChEMBL
190094	ChEMBL
18070	ChEMBL
36508	ChEMBL
59037	ChEMBL
325554	ChEMBL
33392	ChEMBL
93864	ChEMBL
14000	ChEMBL
159688	ChEMBL
102067	ChEMBL
310964	ChEMBL
48828	ChEMBL
18109	ChEMBL
216693	ChEMBL
38592	ChEMBL
130754	ChEMBL
112587	ChEMBL
16069	ChEMBL
374247	ChEMBL
14025	ChEMBL
14027	ChEMBL
16077	ChEMBL
5839	ChEMBL
13944	ChEMBL
366293	ChEMBL
7894	ChEMBL
309263	ChEMBL
28377	ChEMBL
247131	ChEMBL
20193	ChEMBL
69346	ChEMBL
268006	ChEMBL
9169	ChEMBL
114764	ChEMBL
5873	ChEMBL
358131	ChEMBL
42745	ChEMBL
14074	ChEMBL
1787	ChEMBL
218878	ChEMBL
44799	ChEMBL
5891	ChEMBL
282383	ChEMBL
5904	ChEMBL
24337	ChEMBL
3858	ChEMBL
347480	ChEMBL
256645	ChEMBL
1825	ChEMBL
271838	ChEMBL
25563	ChEMBL
368425	ChEMBL
7980	ChEMBL
220973	ChEMBL
98097	ChEMBL
53044	ChEMBL
2014	ChEMBL
16187	ChEMBL
223036	ChEMBL
10046	ChEMBL
94015	ChEMBL
29664	ChEMBL
152203	ChEMBL
18249	ChEMBL
153423	ChEMBL
81745	ChEMBL
292690	ChEMBL
85375	ChEMBL
350037	ChEMBL
28507	ChEMBL
231397	ChEMBL
5984	ChEMBL
1889	ChEMBL
22502	ChEMBL
364390	ChEMBL
8040	ChEMBL
246181	ChEMBL
18282	ChEMBL
36715	ChEMBL
347588	ChEMBL
178031	ChEMBL
6002	ChEMBL
104310	ChEMBL
294785	ChEMBL
151426	ChEMBL
22404	ChEMBL
42646	ChEMBL
241543	ChEMBL
3976	ChEMBL
297397	ChEMBL
212875	ChEMBL
1933	ChEMBL
192493	ChEMBL
3988	ChEMBL
610	ChEMBL
124249	ChEMBL
228677	ChEMBL
37531	ChEMBL
8102	ChEMBL
77468	ChEMBL
6061	ChEMBL
247820	ChEMBL
92082	ChEMBL
8115	ChEMBL
18356	ChEMBL
12215	ChEMBL
24511	ChEMBL
49091	ChEMBL
12231	ChEMBL
24520	ChEMBL
16329	ChEMBL
1995	ChEMBL
33755	ChEMBL
26577	ChEMBL
32724	ChEMBL
225240	ChEMBL
16350	ChEMBL
53216	ChEMBL
126949	ChEMBL
20454	ChEMBL
266215	ChEMBL
8168	ChEMBL
374762	ChEMBL
16364	ChEMBL
4077	ChEMBL
18415	ChEMBL
245744	ChEMBL
12274	ChEMBL
69621	ChEMBL
2043	ChEMBL
43349	ChEMBL
85729	DReSMin
1	DReSMin
57346	DReSMin
4	DReSMin
5	DReSMin
7	DReSMin
8	DReSMin
2057	DReSMin
2058	DReSMin
16727	DReSMin
17410	DReSMin
15	DReSMin
17	DReSMin
24	DReSMin
97725	DReSMin
2076	DReSMin
29	DReSMin
20511	DReSMin
2080	DReSMin
6275	DReSMin
182309	DReSMin
39	DReSMin
129064	DReSMin
14379	DReSMin
45	DReSMin
35165	DReSMin
40968	DReSMin
157746	DReSMin
2101	DReSMin
9549	DReSMin
55	DReSMin
59	DReSMin
14346	DReSMin
8257	DReSMin
8258	DReSMin
34883	DReSMin
2117	DReSMin
188486	DReSMin
188487	DReSMin
34889	DReSMin
76	DReSMin
18510	DReSMin
36943	DReSMin
82	DReSMin
83	DReSMin
67669	DReSMin
65751	DReSMin
87	DReSMin
2136	DReSMin
89	DReSMin
16474	DReSMin
22619	DReSMin
92	DReSMin
95	DReSMin
25099	DReSMin
4193	DReSMin
55395	DReSMin
2148	DReSMin
10342	DReSMin
10343	DReSMin
4201	DReSMin
106	DReSMin
41067	DReSMin
166868	DReSMin
6253	DReSMin
110	DReSMin
26735	DReSMin
26736	DReSMin
6257	DReSMin
2162	DReSMin
82035	DReSMin
51317	DReSMin
112759	DReSMin
120	DReSMin
41081	DReSMin
57466	DReSMin
114811	DReSMin
124	DReSMin
362	DReSMin
58389	DReSMin
24704	DReSMin
133445	DReSMin
14466	DReSMin
131	DReSMin
110724	DReSMin
66495	DReSMin
2184	DReSMin
4234	DReSMin
72727	DReSMin
11325	DReSMin
4239	DReSMin
40922	DReSMin
10234	DReSMin
57490	DReSMin
26065	DReSMin
57493	DReSMin
137241	DReSMin
14490	DReSMin
10395	DReSMin
14494	DReSMin
4255	DReSMin
37024	DReSMin
161	DReSMin
51362	DReSMin
6893	DReSMin
14500	DReSMin
37029	DReSMin
169	DReSMin
170	DReSMin
30895	DReSMin
57032	DReSMin
2227	DReSMin
4276	DReSMin
8373	DReSMin
45269	DReSMin
133533	DReSMin
99014	DReSMin
55482	DReSMin
43197	DReSMin
41150	DReSMin
10431	DReSMin
53280	DReSMin
4292	DReSMin
114916	DReSMin
32967	DReSMin
39112	DReSMin
39113	DReSMin
20683	DReSMin
14540	DReSMin
205	DReSMin
22221	DReSMin
190672	DReSMin
8401	DReSMin
210	DReSMin
16595	DReSMin
57556	DReSMin
718	DReSMin
55673	DReSMin
216	DReSMin
94117	DReSMin
2266	DReSMin
20699	DReSMin
71905	DReSMin
2276	DReSMin
230	DReSMin
57578	DReSMin
235	DReSMin
2285	DReSMin
2286	DReSMin
240	DReSMin
28917	DReSMin
248	DReSMin
6394	DReSMin
33020	DReSMin
254	DReSMin
4351	DReSMin
11397	DReSMin
10497	DReSMin
259	DReSMin
39172	DReSMin
10501	DReSMin
2310	DReSMin
46946	DReSMin
147925	DReSMin
268	DReSMin
6413	DReSMin
6189	DReSMin
57572	DReSMin
31107	DReSMin
4372	DReSMin
277	DReSMin
55574	DReSMin
72409	DReSMin
82200	DReSMin
26905	DReSMin
282	DReSMin
42031	DReSMin
10526	DReSMin
9605	DReSMin
28961	DReSMin
12578	DReSMin
2339	DReSMin
100644	DReSMin
294	DReSMin
295	DReSMin
55593	DReSMin
76167	DReSMin
4397	DReSMin
86319	DReSMin
2353	DReSMin
28978	DReSMin
14643	DReSMin
308	DReSMin
39221	DReSMin
310	DReSMin
311	DReSMin
312	DReSMin
24889	DReSMin
314	DReSMin
85727	DReSMin
318	DReSMin
18485	DReSMin
322	DReSMin
323	DReSMin
324	DReSMin
325	DReSMin
57295	DReSMin
37191	DReSMin
16712	DReSMin
329	DReSMin
330	DReSMin
37195	DReSMin
332	DReSMin
14670	DReSMin
338	DReSMin
2387	DReSMin
78164	DReSMin
341	DReSMin
2391	DReSMin
344	DReSMin
4441	DReSMin
4443	DReSMin
6493	DReSMin
351	DReSMin
352	DReSMin
2402	DReSMin
2403	DReSMin
2404	DReSMin
4455	DReSMin
22889	DReSMin
2410	DReSMin
364	DReSMin
98670	DReSMin
367	DReSMin
369	DReSMin
97726	DReSMin
375	DReSMin
2424	DReSMin
35193	DReSMin
160383	DReSMin
8576	DReSMin
20866	DReSMin
387	DReSMin
29060	DReSMin
67974	DReSMin
3137	DReSMin
152021	DReSMin
398	DReSMin
2447	DReSMin
16785	DReSMin
404	DReSMin
31126	DReSMin
408	DReSMin
50410	DReSMin
2461	DReSMin
25246	DReSMin
10655	DReSMin
49568	DReSMin
39329	DReSMin
421	DReSMin
423	DReSMin
424	DReSMin
426	DReSMin
55725	DReSMin
8622	DReSMin
18427	DReSMin
432	DReSMin
4529	DReSMin
4530	DReSMin
5281	DReSMin
41396	DReSMin
437	DReSMin
166985	DReSMin
72120	DReSMin
16825	DReSMin
56951	DReSMin
56053	DReSMin
86555	DReSMin
451	DReSMin
453	DReSMin
356	DReSMin
459	DReSMin
35276	DReSMin
53709	DReSMin
463	DReSMin
10704	DReSMin
181937	DReSMin
466	DReSMin
12757	DReSMin
2518	DReSMin
37625	DReSMin
18905	DReSMin
52303	DReSMin
8668	DReSMin
40372	DReSMin
4517	DReSMin
8673	DReSMin
52987	DReSMin
484	DReSMin
4582	DReSMin
487	DReSMin
2537	DReSMin
491	DReSMin
51692	DReSMin
34898	DReSMin
47869	DReSMin
496	DReSMin
15208	DReSMin
31032	DReSMin
2555	DReSMin
509	DReSMin
68095	DReSMin
55808	DReSMin
2562	DReSMin
32171	DReSMin
8710	DReSMin
92013	DReSMin
521	DReSMin
6667	DReSMin
55820	DReSMin
30923	DReSMin
528	DReSMin
530	DReSMin
111040	DReSMin
4629	DReSMin
21014	DReSMin
535	DReSMin
57451	DReSMin
4634	DReSMin
27163	DReSMin
543	DReSMin
544	DReSMin
63920	DReSMin
546	DReSMin
6694	DReSMin
14887	DReSMin
57896	DReSMin
57098	DReSMin
556	DReSMin
31687	DReSMin
2606	DReSMin
31280	DReSMin
562	DReSMin
165486	DReSMin
9566	DReSMin
4664	DReSMin
8761	DReSMin
35387	DReSMin
35388	DReSMin
573	DReSMin
574	DReSMin
96243	DReSMin
105147	DReSMin
579	DReSMin
581	DReSMin
27210	DReSMin
39499	DReSMin
57933	DReSMin
592	DReSMin
39505	DReSMin
25170	DReSMin
84088	DReSMin
597	DReSMin
2646	DReSMin
27980	DReSMin
12889	DReSMin
604	DReSMin
2653	DReSMin
31390	DReSMin
23136	DReSMin
39521	DReSMin
6755	DReSMin
8806	DReSMin
615	DReSMin
616	DReSMin
97724	DReSMin
6762	DReSMin
6499	DReSMin
41581	DReSMin
12911	DReSMin
8816	DReSMin
11368	DReSMin
8818	DReSMin
2675	DReSMin
10869	DReSMin
79165	DReSMin
2683	DReSMin
57169	DReSMin
4522	DReSMin
2688	DReSMin
33409	DReSMin
57081	DReSMin
643	DReSMin
8837	DReSMin
55942	DReSMin
2696	DReSMin
10889	DReSMin
651	DReSMin
39234	DReSMin
55951	DReSMin
55956	DReSMin
6254	DReSMin
56897	DReSMin
55961	DReSMin
35482	DReSMin
4766	DReSMin
6815	DReSMin
25251	DReSMin
676	DReSMin
42309	DReSMin
8878	DReSMin
797	DReSMin
2738	DReSMin
2739	DReSMin
2740	DReSMin
2137	DReSMin
105144	DReSMin
6841	DReSMin
6943	DReSMin
101929	DReSMin
703	DReSMin
2752	DReSMin
708	DReSMin
709	DReSMin
6854	DReSMin
73061	DReSMin
56008	DReSMin
8548	DReSMin
55944	DReSMin
82637	DReSMin
2766	DReSMin
47824	DReSMin
6865	DReSMin
13010	DReSMin
723	DReSMin
15060	DReSMin
726	DReSMin
160471	DReSMin
57124	DReSMin
13018	DReSMin
35547	DReSMin
49885	DReSMin
37669	DReSMin
150242	DReSMin
25325	DReSMin
47912	DReSMin
13031	DReSMin
2794	DReSMin
749	DReSMin
70382	DReSMin
19185	DReSMin
49909	DReSMin
2809	DReSMin
2810	DReSMin
86726	DReSMin
765	DReSMin
2814	DReSMin
47871	DReSMin
55424	DReSMin
11010	DReSMin
62840	DReSMin
2820	DReSMin
2821	DReSMin
776	DReSMin
4874	DReSMin
55426	DReSMin
782	DReSMin
15149	DReSMin
80656	DReSMin
39697	DReSMin
31506	DReSMin
2179	DReSMin
6932	DReSMin
21270	DReSMin
107287	DReSMin
56083	DReSMin
41080	DReSMin
15131	DReSMin
2845	DReSMin
799	DReSMin
35420	DReSMin
52004	DReSMin
31533	DReSMin
28737	DReSMin
2855	DReSMin
39512	DReSMin
43818	DReSMin
811	DReSMin
56108	DReSMin
11053	DReSMin
39727	DReSMin
55901	DReSMin
9009	DReSMin
23346	DReSMin
46390	DReSMin
2868	DReSMin
823	DReSMin
60216	DReSMin
820	DReSMin
27442	DReSMin
829	DReSMin
4926	DReSMin
48949	DReSMin
832	DReSMin
62274	DReSMin
21315	DReSMin
39513	DReSMin
840	DReSMin
2889	DReSMin
56138	DReSMin
60215	DReSMin
45900	DReSMin
6989	DReSMin
2894	DReSMin
11087	DReSMin
70456	DReSMin
95058	DReSMin
4947	DReSMin
854	DReSMin
56121	DReSMin
857	DReSMin
862	DReSMin
15504	DReSMin
181734	DReSMin
56167	DReSMin
872	DReSMin
4970	DReSMin
37741	DReSMin
57177	DReSMin
11486	DReSMin
156533	DReSMin
130077	DReSMin
209727	DReSMin
62334	DReSMin
895	DReSMin
57017	DReSMin
41862	DReSMin
903	DReSMin
2952	DReSMin
2953	DReSMin
46917	DReSMin
64475	DReSMin
147949	DReSMin
77646	DReSMin
27800	DReSMin
2962	DReSMin
46915	DReSMin
12101	DReSMin
17561	DReSMin
64410	DReSMin
9711	DReSMin
927	DReSMin
2976	DReSMin
24048	DReSMin
17563	DReSMin
933	DReSMin
103335	DReSMin
56232	DReSMin
5276	DReSMin
29610	DReSMin
167069	DReSMin
57165	DReSMin
43848	DReSMin
52525	DReSMin
2998	DReSMin
53065	DReSMin
56704	DReSMin
101309	DReSMin
78782	DReSMin
56255	DReSMin
5056	DReSMin
27585	DReSMin
13250	DReSMin
19398	DReSMin
5063	DReSMin
968	DReSMin
9163	DReSMin
972	DReSMin
3023	DReSMin
5072	DReSMin
56274	DReSMin
46036	DReSMin
981	DReSMin
987	DReSMin
40442	DReSMin
990	DReSMin
13279	DReSMin
13280	DReSMin
57168	DReSMin
211451	DReSMin
5092	DReSMin
998	DReSMin
999	DReSMin
1002	DReSMin
13292	DReSMin
1005	DReSMin
1008	DReSMin
103558	DReSMin
53417	DReSMin
44020	DReSMin
5109	DReSMin
44022	DReSMin
12457	DReSMin
1016	DReSMin
3065	DReSMin
56314	DReSMin
211455	DReSMin
11265	DReSMin
1026	DReSMin
39939	DReSMin
46016	DReSMin
11094	DReSMin
1030	DReSMin
15372	DReSMin
105986	DReSMin
55682	DReSMin
52241	DReSMin
97299	DReSMin
3092	DReSMin
3093	DReSMin
19675	DReSMin
40793	DReSMin
130073	DReSMin
130074	DReSMin
3099	DReSMin
130076	DReSMin
35633	DReSMin
7200	DReSMin
23585	DReSMin
3106	DReSMin
63798	DReSMin
1065	DReSMin
39982	DReSMin
39983	DReSMin
42033	DReSMin
1074	DReSMin
1077	DReSMin
5175	DReSMin
65716	DReSMin
11322	DReSMin
7229	DReSMin
13374	DReSMin
1087	DReSMin
1089	DReSMin
14859	DReSMin
1092	DReSMin
9285	DReSMin
7238	DReSMin
54345	DReSMin
5197	DReSMin
162894	DReSMin
9295	DReSMin
37968	DReSMin
68689	DReSMin
1108	DReSMin
7253	DReSMin
37974	DReSMin
70744	DReSMin
1115	DReSMin
15452	DReSMin
78942	DReSMin
72800	DReSMin
42512	DReSMin
58466	DReSMin
40038	DReSMin
9745	DReSMin
1128	DReSMin
92504	DReSMin
57191	DReSMin
198555	DReSMin
51522	DReSMin
5232	DReSMin
1137	DReSMin
17522	DReSMin
1140	DReSMin
3189	DReSMin
16473	DReSMin
56441	DReSMin
3195	DReSMin
72830	DReSMin
3200	DReSMin
7298	DReSMin
3205	DReSMin
40911	DReSMin
56457	DReSMin
1163	DReSMin
56460	DReSMin
56462	DReSMin
10093	DReSMin
1168	DReSMin
1169	DReSMin
38034	DReSMin
38083	DReSMin
51663	DReSMin
56471	DReSMin
26331	DReSMin
3225	DReSMin
1179	DReSMin
1180	DReSMin
7325	DReSMin
136350	DReSMin
193783	DReSMin
7328	DReSMin
1185	DReSMin
46926	DReSMin
49061	DReSMin
52388	DReSMin
1191	DReSMin
167452	DReSMin
40107	DReSMin
1197	DReSMin
23726	DReSMin
3247	DReSMin
17584	DReSMin
28000	DReSMin
25778	DReSMin
20635	DReSMin
60598	DReSMin
9417	DReSMin
1208	DReSMin
131854	DReSMin
23739	DReSMin
1212	DReSMin
1216	DReSMin
3266	DReSMin
1219	DReSMin
42180	DReSMin
9415	DReSMin
9416	DReSMin
3273	DReSMin
9418	DReSMin
9419	DReSMin
62668	DReSMin
1229	DReSMin
1230	DReSMin
1231	DReSMin
1234	DReSMin
9427	DReSMin
1237	DReSMin
212182	DReSMin
212183	DReSMin
4883	DReSMin
136740	DReSMin
9435	DReSMin
1246	DReSMin
1247	DReSMin
72242	DReSMin
48354	DReSMin
8059	DReSMin
29926	DReSMin
50407	DReSMin
9450	DReSMin
50411	DReSMin
5357	DReSMin
56558	DReSMin
56559	DReSMin
11504	DReSMin
15601	DReSMin
193782	DReSMin
40489	DReSMin
5369	DReSMin
11515	DReSMin
21756	DReSMin
101930	DReSMin
4309	DReSMin
56576	DReSMin
85120	DReSMin
193795	DReSMin
1284	DReSMin
23813	DReSMin
95663	DReSMin
5385	DReSMin
3339	DReSMin
3342	DReSMin
41517	DReSMin
5393	DReSMin
77074	DReSMin
5395	DReSMin
4654	DReSMin
56598	DReSMin
1303	DReSMin
77260	DReSMin
5401	DReSMin
8410	DReSMin
17694	DReSMin
120414	DReSMin
17699	DReSMin
27942	DReSMin
197927	DReSMin
70955	DReSMin
1325	DReSMin
23855	DReSMin
53714	DReSMin
15240	DReSMin
1331	DReSMin
60724	DReSMin
9438	DReSMin
1334	DReSMin
46393	DReSMin
142651	DReSMin
11580	DReSMin
11581	DReSMin
56641	DReSMin
147089	DReSMin
21827	DReSMin
56644	DReSMin
3397	DReSMin
1350	DReSMin
3401	DReSMin
7500	DReSMin
1357	DReSMin
15694	DReSMin
32080	DReSMin
7736	DReSMin
56547	DReSMin
38229	DReSMin
3414	DReSMin
21849	DReSMin
9565	DReSMin
1374	DReSMin
23904	DReSMin
107874	DReSMin
176699	DReSMin
9572	DReSMin
4326	DReSMin
1383	DReSMin
1384	DReSMin
17980	DReSMin
7531	DReSMin
57535	DReSMin
3438	DReSMin
1391	DReSMin
48496	DReSMin
9586	DReSMin
13683	DReSMin
32116	DReSMin
3447	DReSMin
3448	DReSMin
3449	DReSMin
3450	DReSMin
38269	DReSMin
15743	DReSMin
1408	DReSMin
77185	DReSMin
42370	DReSMin
42371	DReSMin
773	DReSMin
1415	DReSMin
42376	DReSMin
58761	DReSMin
56717	DReSMin
56557	DReSMin
11666	DReSMin
176674	DReSMin
3476	DReSMin
19861	DReSMin
56729	DReSMin
56731	DReSMin
1441	DReSMin
50594	DReSMin
22427	DReSMin
161189	DReSMin
161190	DReSMin
3495	DReSMin
34216	DReSMin
3497	DReSMin
3498	DReSMin
3499	DReSMin
21932	DReSMin
15789	DReSMin
44462	DReSMin
9647	DReSMin
3504	DReSMin
32177	DReSMin
9652	DReSMin
50617	DReSMin
1466	DReSMin
1467	DReSMin
1468	DReSMin
74041	DReSMin
30142	DReSMin
53461	DReSMin
56257	DReSMin
5571	DReSMin
34246	DReSMin
34247	DReSMin
32783	DReSMin
42441	DReSMin
17866	DReSMin
103671	DReSMin
5580	DReSMin
41444	DReSMin
42446	DReSMin
8889	DReSMin
18394	DReSMin
19921	DReSMin
19922	DReSMin
76705	DReSMin
50406	DReSMin
32216	DReSMin
94116	DReSMin
56796	DReSMin
32170	DReSMin
9696	DReSMin
89570	DReSMin
98186	DReSMin
176721	DReSMin
191058	DReSMin
93001	DReSMin
1519	DReSMin
17904	DReSMin
98184	DReSMin
1523	DReSMin
27397	DReSMin
129349	DReSMin
5622	DReSMin
28153	DReSMin
3578	DReSMin
9471	DReSMin
50684	DReSMin
45994	DReSMin
39509	DReSMin
9730	DReSMin
89605	DReSMin
56653	DReSMin
59649	DReSMin
1544	DReSMin
1545	DReSMin
3594	DReSMin
56843	DReSMin
28174	DReSMin
5648	DReSMin
5649	DReSMin
71190	DReSMin
21081	DReSMin
36378	DReSMin
13851	DReSMin
15900	DReSMin
56862	DReSMin
42527	DReSMin
7716	DReSMin
56109	DReSMin
101928	DReSMin
26153	DReSMin
44586	DReSMin
30254	DReSMin
39517	DReSMin
30257	DReSMin
56884	DReSMin
5726	DReSMin
1592	DReSMin
1596	DReSMin
3645	DReSMin
34367	DReSMin
11840	DReSMin
9793	DReSMin
60995	DReSMin
1606	DReSMin
61000	DReSMin
125397	DReSMin
36430	DReSMin
22797	DReSMin
1616	DReSMin
143807	DReSMin
20056	DReSMin
36441	DReSMin
56925	DReSMin
1630	DReSMin
42593	DReSMin
40546	DReSMin
32699	DReSMin
38500	DReSMin
58498	DReSMin
167185	DReSMin
125398	DReSMin
18025	DReSMin
129718	DReSMin
56939	DReSMin
3694	DReSMin
50799	DReSMin
55912	DReSMin
3698	DReSMin
52499	DReSMin
56948	DReSMin
56949	DReSMin
1654	DReSMin
3703	DReSMin
1656	DReSMin
18708	DReSMin
57279	DReSMin
134780	DReSMin
13950	DReSMin
42623	DReSMin
20097	DReSMin
3714	DReSMin
42629	DReSMin
42631	DReSMin
42632	DReSMin
55635	DReSMin
40589	DReSMin
80493	DReSMin
38545	DReSMin
116370	DReSMin
38549	DReSMin
80495	DReSMin
29295	DReSMin
56113	DReSMin
5793	DReSMin
56045	DReSMin
1704	DReSMin
1705	DReSMin
9899	DReSMin
1708	DReSMin
57005	DReSMin
95921	DReSMin
56926	DReSMin
11959	DReSMin
55573	DReSMin
8713	DReSMin
57022	DReSMin
71359	DReSMin
54979	DReSMin
3780	DReSMin
7877	DReSMin
32455	DReSMin
5832	DReSMin
56268	DReSMin
18122	DReSMin
5751	DReSMin
1740	DReSMin
14029	DReSMin
94339	DReSMin
43299	DReSMin
69754	DReSMin
173784	DReSMin
5851	DReSMin
42719	DReSMin
34528	DReSMin
41747	DReSMin
131707	DReSMin
70389	DReSMin
42727	DReSMin
22254	DReSMin
3825	DReSMin
134899	DReSMin
3828	DReSMin
56958	DReSMin
63785	DReSMin
55032	DReSMin
9977	DReSMin
9978	DReSMin
9979	DReSMin
15317	DReSMin
51138	DReSMin
175403	DReSMin
136966	DReSMin
1800	DReSMin
53002	DReSMin
182027	DReSMin
1804	DReSMin
34093	DReSMin
2691	DReSMin
20251	DReSMin
3869	DReSMin
55941	DReSMin
40923	DReSMin
5924	DReSMin
3878	DReSMin
124711	DReSMin
57128	DReSMin
38876	DReSMin
5934	DReSMin
78254	DReSMin
12081	DReSMin
48948	DReSMin
46046	DReSMin
10039	DReSMin
42808	DReSMin
212181	DReSMin
46047	DReSMin
23294	DReSMin
22334	DReSMin
8000	DReSMin
46913	DReSMin
46914	DReSMin
20291	DReSMin
46916	DReSMin
1861	DReSMin
1862	DReSMin
38456	DReSMin
1865	DReSMin
46922	DReSMin
46925	DReSMin
28494	DReSMin
14159	DReSMin
24400	DReSMin
10065	DReSMin
1874	DReSMin
1875	DReSMin
3924	DReSMin
1879	DReSMin
10072	DReSMin
10073	DReSMin
10074	DReSMin
148729	DReSMin
40796	DReSMin
40798	DReSMin
45444	DReSMin
12130	DReSMin
22371	DReSMin
98148	DReSMin
57620	DReSMin
8039	DReSMin
1897	DReSMin
18283	DReSMin
8045	DReSMin
57198	DReSMin
1903	DReSMin
1905	DReSMin
57203	DReSMin
1914	DReSMin
3963	DReSMin
3964	DReSMin
83838	DReSMin
10112	DReSMin
42882	DReSMin
42883	DReSMin
98182	DReSMin
55175	DReSMin
6679	DReSMin
56300	DReSMin
36746	DReSMin
98187	DReSMin
98188	DReSMin
1933	DReSMin
28558	DReSMin
26512	DReSMin
2371	DReSMin
57489	DReSMin
18326	DReSMin
29023	DReSMin
1944	DReSMin
1946	DReSMin
6043	DReSMin
20380	DReSMin
6047	DReSMin
129432	DReSMin
12196	DReSMin
24485	DReSMin
94118	DReSMin
10225	DReSMin
1963	DReSMin
49068	DReSMin
67570	DReSMin
44974	DReSMin
37192	DReSMin
8179	DReSMin
19102	DReSMin
57332	DReSMin
4027	DReSMin
8863	DReSMin
37194	DReSMin
24510	DReSMin
10175	DReSMin
51137	DReSMin
1986	DReSMin
57284	DReSMin
57334	DReSMin
18764	DReSMin
10187	DReSMin
4047	DReSMin
10192	DReSMin
2002	DReSMin
2004	DReSMin
37165	DReSMin
8150	DReSMin
21497	DReSMin
40921	DReSMin
4058	DReSMin
4059	DReSMin
4060	DReSMin
4061	DReSMin
55262	DReSMin
67552	DReSMin
10235	DReSMin
46031	DReSMin
14310	DReSMin
55271	DReSMin
107468	DReSMin
8176	DReSMin
8177	DReSMin
8178	DReSMin
339	DReSMin
46918	DReSMin
8182	DReSMin
10232	DReSMin
10233	DReSMin
2042	DReSMin
2043	DReSMin
83062	DReSMin
33109	DReSMin
