DB01729	3
DB04794	6
DB04931	2
DB05302	18
DB02966	6
DB08672	0
DB02049	13
DB00481	16
DB03741	4
DB01210	22
DB05262	5
DB00410	0
DB06695	0
DB02119	2
DB04065	4
DB07420	0
DB03917	11
DB00256	1
DB02581	0
DB00673	23
DB01245	24
DB00432	4
DB07250	0
DB01521	0
DB00778	3
DB00091	5
DB08794	0
DB07584	0
DB04751	18
DB00672	7
DB03030	0
DB00783	16
DB01325	1
DB00613	5
DB08784	0
DB03796	13
DB04222	0
DB01413	1
DB00459	8
DB04573	20
DB00675	9
DB00817	3
DB02948	1
DB01080	5
DB06698	0
DB02618	3
DB04588	10
DB07630	0
DB01160	8
DB01347	9
DB00563	6
DB00890	18
DB07308	0
DB03171	0
DB09019	0
DB00578	3
DB04274	3
DB08345	0
DB08593	0
DB07787	0
DB00489	9
DB08083	0
DB08760	0
DB02873	15
DB00813	28
DB08831	0
DB02388	12
DB04204	3
DB01102	18
DB08918	0
DB02853	12
DB05022	0
DB01979	0
DB08124	0
DB03888	6
DB01670	0
DB03458	0
DB02466	16
DB04208	4
DB01971	2
DB01578	0
DB00436	1
DB00294	13
DB01146	37
DB07073	0
DB03231	2
DB08398	0
DB00676	0
DB01928	1
DB03121	10
DB00445	5
DB08020	0
DB04657	4
DB07217	0
DB01426	0
DB01054	13
DB00797	21
DB06402	0
DB06768	0
DB08741	0
DB06978	0
DB07430	0
DB07876	0
DB08016	0
DB01629	5
DB06847	0
DB06922	0
DB01833	7
DB01534	0
DB00252	10
DB04562	4
DB01603	8
DB01105	18
DB07313	0
DB08932	0
DB00677	5
DB01428	4
DB01107	9
DB03298	10
DB00963	5
DB04863	0
DB00622	14
DB00727	11
DB00354	35
DB07316	0
DB05465	0
DB00374	15
DB07789	0
DB08520	0
DB04308	0
DB03308	6
DB05143	0
DB08026	0
DB01472	22
DB04250	10
DB00829	17
DB07448	0
DB02239	1
DB07011	0
DB06994	0
DB03553	1
DB08838	0
DB08066	0
DB01214	16
DB00257	9
DB08299	0
DB07477	0
DB04812	0
DB08808	0
DB04286	0
DB03203	4
DB01569	12
DB08826	0
DB03785	6
DB08969	0
DB01527	0
DB00593	3
DB01424	0
DB00326	1
DB08271	0
DB01557	14
DB04257	7
DB03454	11
DB06874	0
DB08085	0
DB00480	9
DB07937	0
DB00418	12
DB04631	1
DB07919	0
DB07629	0
DB01092	2
DB02375	5
DB02453	0
DB05511	0
DB05197	0
DB01364	16
DB00586	2
DB01643	4
DB01538	24
DB00551	17
DB01140	0
DB00566	10
DB00973	10
DB03006	3
DB07496	0
DB00560	2
DB08657	0
DB08747	0
DB01112	2
DB01390	7
DB01586	8
DB08164	0
DB08864	0
DB07437	0
DB03563	3
DB01254	20
DB06920	0
DB01072	10
DB02085	1
DB07888	0
DB07930	0
DB08881	0
DB04948	19
DB02679	12
DB08381	0
DB00359	0
DB05246	6
DB08484	0
DB01184	31
DB06983	0
DB08125	0
DB05123	0
DB06708	0
DB06992	0
DB03904	12
DB02586	8
DB01200	17
DB07790	0
DB02513	4
DB05458	0
DB00196	5
DB02021	6
DB02420	7
DB03357	0
DB06782	0
DB07553	0
DB07289	0
DB04769	10
DB08660	0
DB00496	37
DB08910	0
DB08341	0
DB01551	26
DB08804	0
DB04946	0
DB00697	10
DB00866	24
DB07251	0
DB08912	0
DB04888	0
DB07816	0
DB03084	9
DB01996	5
DB06972	0
DB00782	16
DB00498	17
DB02417	13
DB01123	3
DB01418	11
DB08221	0
DB08683	0
DB00565	19
DB07875	0
DB01625	0
DB02915	19
DB05229	0
DB00435	7
DB00868	14
DB01917	7
DB09017	0
DB00585	3
DB03836	6
DB07946	0
DB07412	0
DB00862	9
DB01954	29
DB00293	6
DB00398	18
DB03882	21
DB07291	0
DB08094	0
DB02628	10
DB08230	0
DB04311	14
DB07118	0
DB08979	0
DB07892	0
DB05314	9
DB00836	34
DB00412	9
DB00629	14
DB00764	9
DB00553	12
DB08744	0
DB00210	7
DB02052	9
DB08624	0
DB03379	3
DB02127	3
DB00370	28
DB01419	0
DB02116	13
DB02094	2
DB06956	0
DB08791	0
DB00713	1
DB00308	12
DB00390	5
DB03775	0
DB08606	0
DB01722	7
DB07906	0
DB03132	3
DB07610	0
DB08589	0
DB04470	9
DB06155	10
DB01131	7
DB00921	24
DB00608	4
DB06964	0
DB04856	0
DB06962	0
DB00765	15
DB00358	8
DB01064	20
DB08976	0
DB01580	22
DB08092	0
DB01461	0
DB01946	8
DB00168	13
DB01604	3
DB02815	5
DB00217	10
DB06971	0
DB07050	0
DB01512	22
DB08665	0
DB00925	22
DB03002	0
DB00400	8
DB08720	0
DB07183	0
DB01380	11
DB00348	0
DB00211	14
DB08557	0
DB08056	0
DB07562	0
DB00631	4
DB07346	0
DB01028	11
DB07290	0
DB07655	0
DB00694	7
DB03626	12
DB07865	0
DB00648	9
DB08906	0
DB01489	8
DB00119	11
DB00843	35
DB07130	0
DB05460	0
DB04183	1
DB02077	1
DB00756	6
DB00625	3
DB00982	12
DB04626	1
DB00423	15
DB00137	8
DB08941	0
DB02170	5
DB07609	0
DB00657	19
DB05824	0
DB04678	1
DB00869	8
DB03859	1
DB03705	3
DB05817	0
DB01195	8
DB02037	1
DB01090	19
DB03360	2
DB07067	0
DB04880	6
DB00689	3
DB00263	8
DB07322	0
DB02515	3
DB04763	12
DB02756	0
DB04398	5
DB02148	7
DB03980	10
DB00246	15
DB07824	0
DB07975	0
DB01143	6
DB07330	0
DB04321	0
DB04892	0
DB04781	6
DB01059	0
DB03044	10
DB09004	0
DB01057	7
DB06694	0
DB08351	0
DB08569	0
DB04831	0
DB00802	28
DB06732	0
DB07901	0
DB07347	0
DB04513	10
DB01192	27
DB02518	4
DB00228	8
DB00307	14
DB04619	0
DB04224	8
DB08312	0
DB04719	14
DB04452	0
DB07976	0
DB02550	5
DB08459	0
DB08223	0
DB01786	4
DB04889	0
DB02746	3
DB00988	15
DB00882	21
DB02352	15
DB03143	9
DB04505	10
DB07980	0
DB08727	0
DB00970	9
DB02480	4
DB07820	0
DB03897	0
DB04859	0
DB06716	0
DB00215	22
DB04841	33
DB06993	0
DB02139	2
DB08291	0
DB08126	0
DB01006	7
DB01267	25
DB00268	25
DB07536	0
DB07731	0
DB01739	9
DB00331	4
DB00145	8
DB00997	2
DB03120	7
DB04833	0
DB08989	0
DB07154	0
DB08553	0
DB01620	24
DB04093	3
DB08059	0
DB01289	0
DB03066	3
DB03566	6
DB07513	0
DB01086	7
DB08265	0
DB01624	16
DB08915	0
DB00728	9
DB01071	32
DB08773	0
DB07588	0
DB06717	0
DB00334	18
DB08012	0
DB01545	10
DB08981	0
DB03670	5
DB09003	0
DB00253	18
DB01189	7
DB03314	5
DB07194	0
DB00155	17
DB00610	12
DB08030	0
DB01767	8
DB04350	4
DB02658	4
DB08911	0
DB00470	14
DB04018	4
DB05265	0
DB00177	5
DB05104	0
DB07974	0
DB04127	3
DB07081	0
DB07145	0
DB08281	0
DB01522	12
DB02113	2
DB03005	2
DB03504	13
DB01819	8
DB01156	2
DB04520	3
DB01567	9
DB02638	2
DB04500	3
DB04586	6
DB00943	9
DB01382	13
DB06997	0
DB01253	22
DB00286	20
DB04872	0
DB00202	13
DB04598	0
DB01944	11
DB08750	0
DB04002	12
DB04307	24
DB07872	0
DB05665	0
DB04140	18
DB02741	19
DB00652	18
DB04000	9
DB03407	8
DB03228	0
DB07095	0
DB01478	0
DB03567	3
DB01880	6
DB00729	22
DB07654	0
DB00472	26
DB01608	30
DB01394	16
DB01454	21
DB01191	8
DB08232	0
DB06288	21
DB00642	5
DB07961	0
DB01337	13
DB04628	4
DB01125	12
DB00220	4
DB04393	0
DB01060	2
DB04743	11
DB00530	32
DB07445	0
DB00403	4
DB08806	0
DB04816	0
DB01236	7
DB00507	6
DB03814	14
DB01516	0
DB00493	1
DB07463	0
DB08930	0
DB07338	0
DB00907	27
DB06932	0
DB01170	28
DB04954	0
DB08865	0
DB00201	10
DB06255	0
DB01471	17
DB08749	0
DB00474	4
DB07863	0
DB03601	3
DB03062	2
DB05366	0
DB01070	10
DB07207	0
DB07326	0
DB00703	9
DB04422	9
DB08251	0
DB03645	6
DB01172	0
DB00807	11
DB01007	6
DB03740	7
DB08550	0
DB00274	0
DB08136	0
DB00888	3
DB07173	0
DB08422	0
DB07885	0
DB00173	9
DB00439	4
DB02929	14
DB05095	0
DB01161	14
DB07236	0
DB08758	0
DB07047	0
DB06902	0
DB04881	0
DB01416	0
DB07941	0
DB00993	3
DB07669	0
DB06834	0
DB08168	0
DB06414	0
DB02351	8
DB07156	0
DB00461	9
DB00296	23
DB08998	0
DB07932	0
DB04010	6
DB06851	0
DB08570	0
DB00859	16
DB07482	0
DB07890	0
DB03606	29
DB00486	14
DB08899	0
DB02018	11
DB00698	2
DB03370	15
DB04716	13
DB03381	10
DB00832	4
DB00262	4
DB08561	0
DB00627	11
DB02055	0
DB01530	19
DB08106	0
DB00205	2
DB02019	0
DB03659	11
DB08051	0
DB01444	13
DB07512	0
DB04944	0
DB07175	0
DB03651	7
DB01297	14
DB04474	7
DB04202	8
DB03945	6
DB00967	21
DB08178	0
DB04152	6
DB08454	0
DB00682	6
DB07801	0
DB06795	0
DB04891	12
DB08728	0
DB07190	0
DB03824	16
DB08023	0
DB03096	11
DB01597	4
DB01108	13
DB03783	12
DB02015	1
DB03921	10
DB07198	0
DB04821	0
DB04059	6
DB03490	18
DB07688	0
DB04702	1
DB08993	0
DB01828	2
DB01623	14
DB03571	2
DB06860	0
DB01957	8
DB04001	8
DB07213	0
DB01560	0
DB00899	26
DB00156	8
DB07717	0
DB07123	0
DB01008	5
DB08739	0
DB00531	3
DB08386	0
DB07591	0
DB09014	0
DB01076	6
DB04271	9
DB08639	0
DB07556	0
DB08511	0
DB06909	0
DB07280	0
DB07534	0
DB03195	6
DB01188	12
DB01681	6
DB00322	2
DB00662	17
DB03577	4
DB01888	24
DB08481	0
DB04714	5
DB00671	0
DB01174	12
DB07862	0
DB08905	0
DB08590	0
DB00120	15
DB08310	0
DB01321	6
DB04876	0
DB07478	0
DB01249	0
DB08788	0
DB07309	0
DB02619	0
DB06985	0
DB04149	29
DB01030	9
DB04826	0
DB03728	0
DB07281	0
DB07628	0
DB08272	0
DB04839	19
DB00734	28
DB02174	6
DB07702	0
DB02203	4
DB07036	0
DB06970	0
DB01113	9
DB01470	19
DB00573	8
DB07270	0
DB00945	10
DB08053	0
DB08307	0
DB01110	10
DB04077	9
DB08564	0
DB00417	4
DB01415	0
DB04866	0
DB01579	31
DB02192	5
DB06990	0
DB07577	0
DB08104	0
DB07320	0
DB00288	12
DB01577	17
DB05868	0
DB03817	3
DB02428	1
DB02659	12
DB08047	0
DB02025	3
DB06859	0
DB05360	0
DB02078	5
DB01359	27
DB07847	0
DB00208	22
DB00475	10
DB01791	20
DB01142	22
DB07917	0
DB00708	25
DB04483	1
DB00718	0
DB02531	3
DB01275	2
DB00402	15
DB04760	6
DB00779	2
DB03894	31
DB07092	0
DB09000	0
DB02477	1
DB00464	10
DB00525	6
DB07244	0
DB01931	1
DB08988	0
DB04711	7
DB08539	0
DB07144	0
DB02489	2
DB02279	4
DB00978	1
DB07984	0
DB00237	15
DB03643	6
DB00956	31
DB00808	14
DB08780	0
DB01823	1
DB06957	0
DB00939	7
DB04147	11
DB00615	5
DB00495	1
DB05288	0
DB02187	12
DB06623	0
DB00857	9
DB00148	8
DB07594	0
DB00822	15
DB03162	2
DB01084	32
DB08997	0
DB02647	5
DB00541	11
DB07064	0
DB08648	0
DB04165	0
DB01565	30
DB07223	0
DB08077	0
DB01399	14
DB01844	6
DB08080	0
DB03770	5
DB00827	0
DB02406	6
DB03896	7
DB08151	0
DB00879	1
DB01274	11
DB00442	0
DB06887	0
DB07830	0
DB07098	0
DB00339	3
DB07052	0
DB00282	3
DB08403	0
DB07970	0
DB00991	6
DB08877	0
DB08489	0
DB08361	0
DB01793	17
DB01588	17
DB00819	0
DB03173	18
DB01018	17
DB01078	4
DB08065	0
DB07818	0
DB00936	7
DB08605	0
DB07686	0
DB03026	3
DB04827	0
DB06933	0
DB00503	2
DB02967	5
DB08954	0
DB08130	0
DB06711	0
DB01182	22
DB01126	13
DB04333	9
DB07121	0
DB07700	0
DB08785	0
DB03422	0
DB08765	0
DB01190	1
DB00842	9
DB08568	0
DB00499	14
DB00509	5
DB08392	0
DB02642	3
DB04838	12
DB00139	10
DB08598	0
DB07292	0
DB01445	17
DB08246	0
DB03644	0
DB08567	0
DB06267	7
DB04905	0
DB01128	10
DB08656	0
DB00427	18
DB07174	0
DB06857	0
DB00162	6
DB04454	10
DB08471	0
DB01230	21
DB05812	0
DB08987	0
DB00123	12
DB08096	0
DB03033	13
DB03197	2
DB03395	12
DB08145	0
DB01856	7
DB07079	0
DB00221	15
DB01733	2
DB01595	4
DB08339	0
DB02762	5
DB02495	3
DB01615	25
DB01935	3
DB03514	6
DB00788	9
DB00172	23
DB05804	9
DB07015	0
DB06854	0
DB01650	6
DB03110	14
DB01115	15
DB02109	3
DB04818	0
DB07443	0
DB08634	0
DB02403	3
DB00781	0
DB08994	0
DB01803	6
DB02733	11
DB07238	0
DB00724	9
DB07245	0
DB01685	1
DB00335	18
DB01430	17
DB03804	2
DB08674	0
DB03181	7
DB01133	8
DB07211	0
DB00980	24
DB07658	0
DB03568	10
DB07693	0
DB00524	9
DB07474	0
DB00167	9
DB02070	0
DB07969	0
DB08608	0
DB08680	0
DB02300	12
DB06335	0
DB00690	12
DB01576	18
DB08204	0
DB02690	7
DB07278	0
DB00679	32
DB03694	0
DB03255	15
DB00422	21
DB00484	5
DB00014	8
DB04572	6
DB04499	0
DB00492	10
DB07674	0
DB00798	1
DB00508	24
DB03768	4
DB03688	5
DB01004	2
DB03826	4
DB01141	2
DB08705	0
DB08802	0
DB04646	0
DB04883	0
DB06833	0
DB04622	7
DB08909	0
DB04078	7
DB06945	0
DB01564	21
DB02427	2
DB07666	0
DB00855	4
DB08101	0
DB01619	38
DB07539	0
DB01023	20
DB06710	0
DB01220	5
DB03722	10
DB00612	16
DB07239	0
DB04630	14
DB03175	0
DB08682	0
DB08690	0
DB04840	28
DB01465	0
DB08473	0
DB02771	4
DB07758	0
DB08078	0
DB03072	13
DB02197	19
DB00844	22
DB00171	7
DB00691	13
DB04607	23
DB03899	12
DB00197	2
DB08983	0
DB08247	0
DB00700	8
DB04746	0
DB02405	5
DB02639	3
DB03209	0
DB01746	5
DB00658	2
DB01000	3
DB08258	0
DB00547	12
DB01463	16
DB02292	14
DB00767	24
DB07585	0
DB07167	0
DB03401	4
DB07687	0
DB04522	2
DB02583	11
DB09020	0
DB08391	0
DB02365	0
DB00487	10
DB01601	3
DB01248	2
DB08681	0
DB08799	0
DB01127	11
DB00810	31
DB01638	2
DB00740	3
DB07527	0
DB04761	7
DB00891	2
DB00318	24
DB08238	0
DB01145	3
DB00572	26
DB07202	0
DB01029	6
DB00295	19
DB03808	6
DB04862	0
DB02918	13
DB05444	0
DB02556	9
DB01361	0
DB04267	2
DB07924	0
DB04185	9
DB04552	6
DB08360	0
DB08721	0
DB05266	0
DB00594	4
DB07101	0
DB00451	6
DB07230	0
DB04175	4
DB00426	3
DB08439	0
DB07045	0
DB02398	8
DB04101	11
DB03251	10
DB00804	20
DB07620	0
DB01526	3
DB01570	23
DB02261	2
DB01208	0
DB07950	0
DB08257	0
DB07024	0
DB02020	8
DB02280	2
DB00310	7
DB01009	6
DB00347	1
DB01001	20
DB00574	8
DB00641	8
DB02152	8
DB07196	0
DB03649	3
DB04196	2
DB08167	0
DB04819	0
DB00969	16
DB02909	2
DB01809	24
DB07377	0
DB08873	0
DB01483	4
DB00420	25
DB04216	9
DB04851	0
DB03760	6
DB02350	16
DB04481	2
DB01537	0
DB08032	0
DB08700	0
DB00647	26
DB07649	0
DB04868	0
DB04853	0
DB08118	0
DB08154	0
DB07632	0
DB02269	7
DB02372	3
DB07778	0
DB00419	6
DB07204	0
DB02400	12
DB00861	4
DB02458	5
DB00894	8
DB06954	0
DB08197	0
DB08211	0
DB07374	0
DB00298	33
DB01878	5
DB07697	0
DB00363	20
DB05494	0
DB07690	0
DB00571	22
DB00749	3
DB00845	1
DB00233	3
DB07131	0
DB00291	2
DB00772	3
DB07143	0
DB07375	0
DB03105	6
DB01407	13
DB02984	12
DB00831	34
DB01238	31
DB01377	0
DB02789	7
DB00431	10
DB08254	0
DB07645	0
DB02234	15
DB00397	15
DB00795	2
DB08967	0
DB08037	0
DB00849	19
DB01250	6
DB00540	18
DB07264	0
DB04260	6
DB02676	6
DB04599	18
DB02567	13
DB00762	4
DB02723	9
DB07083	0
DB01268	11
DB07981	0
DB03428	15
DB00178	7
DB07561	0
DB07599	0
DB00582	6
DB06949	0
DB08441	0
DB02345	1
DB00984	17
DB00966	2
DB00378	13
DB08767	0
DB00550	7
DB05154	0
DB02228	1
DB03862	1
DB01614	28
DB01951	5
DB01645	11
DB04559	4
DB07486	0
DB00414	6
DB00755	10
DB08679	0
DB01622	0
DB01104	25
DB07541	0
DB08064	0
DB03345	5
DB08487	0
DB08757	0
DB07765	0
DB01587	0
DB08572	0
DB00786	7
DB00732	19
DB00688	7
DB06827	0
DB07200	0
DB02935	7
DB00160	12
DB01118	13
DB00455	19
DB04808	1
DB01163	0
DB01119	6
DB00962	3
DB04640	2
DB07276	0
DB08322	0
DB08868	0
DB08388	0
DB00924	16
DB07918	0
DB08338	0
DB07704	0
DB07472	0
DB01063	33
DB03771	4
DB00254	2
DB07502	0
DB02434	1
DB08294	0
DB00050	6
DB01482	0
DB07358	0
DB08502	0
DB07601	0
DB03206	3
DB08021	0
DB00878	1
DB07968	0
DB08958	0
DB06775	0
DB00264	14
DB04565	1
DB01919	7
DB02233	9
DB08039	0
DB08602	0
DB08587	0
DB04798	6
DB02616	7
DB00456	6
DB08278	0
DB05855	0
DB06594	0
DB01340	12
DB01193	10
DB08156	0
DB08121	0
DB07097	0
DB01744	7
DB00543	25
DB08458	0
DB01114	25
DB00847	9
DB00959	11
DB07259	0
DB07426	0
DB00670	25
DB00299	6
DB01031	20
DB04655	10
DB04706	8
DB01180	11
DB07104	0
DB05109	0
DB04583	8
DB01041	6
DB04732	0
DB00404	10
DB05381	10
DB00505	15
DB03856	3
DB00825	11
DB00774	4
DB07653	0
DB00327	24
DB08505	0
DB00149	7
DB08063	0
DB02933	5
DB01196	18
DB01357	23
DB00692	17
DB07982	0
DB06987	0
DB03154	8
DB07002	0
DB00528	9
DB03156	2
DB04242	5
DB03351	4
DB08796	0
DB01542	0
DB07864	0
DB00376	29
DB08325	0
DB00317	31
DB08999	0
DB04612	13
DB07835	0
DB02249	0
DB04688	7
DB08591	0
DB01351	3
DB01783	0
DB03809	12
DB02407	7
DB04861	0
DB04886	0
DB00240	7
DB08382	0
DB08073	0
DB08241	0
DB01367	31
DB01207	10
DB08494	0
DB01167	7
DB09023	0
DB00478	14
DB08577	0
DB00514	34
DB06958	0
DB04331	18
DB01770	12
DB07191	0
DB07768	0
DB01488	21
DB03067	4
DB00738	13
DB03093	4
DB06836	0
DB07854	0
DB00438	2
DB02153	4
DB06704	0
DB02752	1
DB00281	12
DB00392	26
DB03911	1
DB01475	0
DB01365	16
DB01303	0
DB06943	0
DB07661	0
DB02884	13
DB01865	0
DB02991	5
DB03767	11
DB01036	21
DB07903	0
DB01591	30
DB03193	13
DB02662	7
DB04720	11
DB04110	7
DB03150	8
DB02744	11
DB04967	10
DB07715	0
DB00300	1
DB01283	7
DB00234	28
DB04813	0
DB00693	4
DB08889	0
DB01366	9
DB01523	0
DB02112	18
DB03608	7
DB05434	0
DB00187	10
DB01486	10
DB04104	0
DB07992	0
DB08008	0
DB00911	0
DB06869	0
DB06999	0
DB01704	2
DB04484	3
DB07423	0
DB01213	6
DB08169	0
DB07056	0
DB08005	0
DB08436	0
DB02919	9
DB07283	0
DB07795	0
DB07061	0
DB08882	0
DB01898	5
DB00558	0
DB01779	2
DB01528	0
DB00655	27
DB04578	12
DB07954	0
DB00953	11
DB08504	0
DB01748	7
DB01231	39
DB01436	11
DB05137	0
DB01198	15
DB05298	0
DB03346	9
DB00664	0
DB00204	16
DB00176	14
DB00823	14
DB08107	0
DB08061	0
DB03647	0
DB00896	12
DB06804	0
DB07135	0
DB00680	24
DB07772	0
DB04329	1
DB02296	10
DB07252	0
DB04275	4
DB08097	0
DB00343	9
DB06929	0
DB08048	0
DB08916	0
DB01453	26
DB01395	16
DB07297	0
DB03119	0
DB04054	6
DB07352	0
DB05016	0
DB07405	0
DB08713	0
DB02386	20
DB05871	0
DB00987	3
DB01265	3
DB00360	13
DB02826	4
DB00754	10
DB08940	0
DB01884	12
DB07408	0
DB05384	3
DB01098	13
DB00504	28
DB07112	0
DB00830	26
DB00405	20
DB06777	0
DB04620	16
DB04690	10
DB08462	0
DB08027	0
DB00803	0
DB06938	0
DB02526	9
DB07256	0
DB04638	7
DB00447	2
DB04406	0
DB07798	0
DB05869	0
DB01045	2
DB04129	8
DB01015	1
DB01439	32
DB03475	0
DB07140	0
DB04014	9
DB04938	0
DB07114	0
DB02953	17
DB01165	1
DB04873	0
DB01100	37
DB07310	0
DB04745	0
DB09015	0
DB03266	3
DB03048	9
DB02680	2
DB00661	17
DB03046	6
DB00559	10
DB04759	5
DB03012	14
DB07210	0
DB01348	15
DB06684	0
DB08313	0
DB04879	0
DB08953	0
DB01264	5
DB00449	16
DB04581	10
DB06718	0
DB07152	0
DB01544	5
DB00368	18
DB08108	0
DB02754	9
DB04020	12
DB08740	0
DB06855	0
DB00730	3
DB08162	0
DB08479	0
DB07372	0
DB01442	22
DB07203	0
DB08573	0
DB00387	28
DB06919	0
DB02767	6
DB04114	6
DB00357	2
DB00858	22
DB02255	0
DB01720	1
DB08062	0
DB08463	0
DB00580	4
DB01906	2
DB04161	0
DB00776	18
DB00577	7
DB08314	0
DB00482	9
DB00278	10
DB07321	0
DB08207	0
DB04447	2
DB08091	0
DB00340	29
DB00502	36
DB04335	1
DB07710	0
DB01738	5
DB00567	2
DB00491	5
DB01505	0
DB07983	0
DB04151	8
DB08768	0
DB00485	0
DB08913	0
DB08778	0
DB01173	28
DB06201	0
DB03347	4
DB04553	5
DB01506	0
DB04339	4
DB03534	0
DB08298	0
DB00739	4
DB03843	3
DB02464	14
DB07017	0
DB08955	0
DB08444	0
DB08535	0
DB05186	0
DB00780	18
DB08710	0
DB07149	0
DB03672	8
DB04652	18
DB07959	0
DB00918	16
DB03929	9
DB06830	0
DB07359	0
DB02842	0
DB07905	0
DB00746	3
DB01319	5
DB08809	0
DB06203	0
DB00394	7
DB07967	0
DB01429	28
DB07546	0
DB00741	17
DB03697	11
DB03365	34
DB01116	18
DB00644	4
DB04570	0
DB00214	1
DB01301	5
DB02866	7
DB02834	5
DB01326	0
DB01647	16
DB01602	0
DB02041	6
DB01775	5
DB07197	0
DB03810	5
DB07475	0
DB01467	0
DB00341	40
DB00759	5
DB05382	0
DB03095	2
DB08828	0
DB08482	0
DB02827	3
DB00920	25
DB00533	8
DB01178	25
DB03374	2
DB03201	10
DB07046	0
DB02764	7
DB04705	9
DB01103	17
DB00223	9
DB06882	0
DB07392	0
DB00575	19
DB02486	7
DB07153	0
DB00904	19
DB00406	5
DB00127	12
DB06837	0
DB02001	6
DB08722	0
DB01607	1
DB05129	0
DB07161	0
DB00660	7
DB03600	13
DB03368	16
DB03561	15
DB07644	0
DB00898	21
DB08985	0
DB04029	0
DB05659	0
DB00344	25
DB08089	0
DB04545	4
DB08907	0
DB00986	16
DB08159	0
DB01412	5
DB04726	2
DB08188	0
DB00557	43
DB00933	34
DB02546	10
DB01414	0
DB00791	3
DB04154	0
DB04394	10
DB02044	5
DB00684	1
DB00619	24
DB07010	0
DB07284	0
DB07522	0
DB00249	4
DB00998	16
DB04080	4
DB07724	0
DB02446	3
DB00909	10
DB00663	9
DB08112	0
DB00710	16
DB05102	0
DB07803	0
DB03623	11
DB06950	0
DB02854	17
DB08183	0
DB01246	28
DB07410	0
DB03234	7
DB08936	0
DB04662	10
DB08948	0
DB03494	9
DB01091	10
DB00626	1
DB00773	8
DB08687	0
DB08506	0
DB07302	0
DB07931	0
DB02830	7
DB04817	16
DB00195	23
DB04632	14
DB02503	1
DB01400	16
DB01349	6
DB08054	0
DB04789	4
DB00372	27
DB03792	1
DB03895	3
DB03592	0
DB04291	0
DB01600	9
DB00872	2
DB08356	0
DB00367	19
DB04359	5
DB08655	0
DB00371	12
DB02544	8
DB00384	3
DB01164	11
DB02703	9
DB07805	0
DB08435	0
DB07712	0
DB01117	17
DB02534	8
DB04299	4
DB07753	0
DB06942	0
DB03733	3
DB04878	10
DB08761	0
DB07460	0
DB07677	0
DB01159	4
DB08323	0
DB01296	4
DB00929	6
DB00416	8
DB04911	0
DB01535	37
DB08493	0
DB00940	22
DB03083	16
DB07637	0
DB01388	3
DB02105	5
DB07407	0
DB05416	0
DB08095	0
DB07345	0
DB03276	5
DB01336	9
DB00352	3
DB02838	3
DB08697	0
DB08369	0
DB02972	5
DB08837	0
DB08205	0
DB07100	0
DB02587	7
DB02381	8
DB04822	0
DB04254	6
DB02848	2
DB08010	0
DB04609	2
DB07193	0
DB02795	13
DB03924	13
DB05424	0
DB01081	32
DB01550	0
DB00537	5
DB02035	9
DB02713	6
DB04528	7
DB07418	0
DB08143	0
DB00800	16
DB00854	27
DB07261	0
DB02211	35
DB00441	5
DB01362	0
DB04627	1
DB07615	0
DB05252	0
DB07807	0
DB01515	28
DB00635	12
DB01194	13
DB02858	3
DB04903	0
DB07296	0
DB05318	0
DB00709	1
DB08141	0
DB01836	8
DB04035	0
DB01342	5
DB01137	0
DB01520	27
DB01950	12
DB07729	0
DB02252	1
DB02806	0
DB01021	0
DB01333	1
DB06927	0
DB03035	5
DB07535	0
DB00269	14
DB07839	0
DB06218	0
DB00513	6
DB01022	6
DB01201	1
DB00722	6
DB02538	8
DB01067	7
DB08140	0
DB08972	0
DB01896	1
DB08822	0
DB04704	10
DB00639	12
DB00385	5
DB02622	8
DB01089	14
DB01606	2
DB04377	6
DB04674	7
DB04707	13
DB00927	4
DB00654	19
DB00794	17
DB00125	14
DB07870	0
DB00289	30
DB08816	0
DB01055	4
DB04365	36
DB01093	9
DB01251	0
DB01226	11
DB00206	14
DB07134	0
DB03040	9
DB00380	7
DB00035	5
DB00154	14
DB05251	3
DB07783	0
DB07009	0
DB03719	1
DB01261	4
DB02166	5
DB03449	8
DB08992	0
DB01437	24
DB07871	0
DB00758	29
DB03663	10
DB08790	0
DB00158	6
DB01900	9
DB08468	0
DB00302	11
DB00777	21
DB00365	1
DB01511	12
DB08707	0
DB01026	8
DB08603	0
DB08754	0
DB05107	0
DB00216	16
DB07343	0
DB07025	0
DB08846	0
DB00194	8
DB02008	4
DB04092	4
DB00950	38
DB00942	29
DB08811	0
DB01563	15
DB00313	12
DB08984	0
DB02504	9
DB00674	20
DB04885	25
DB07664	0
DB08340	0
DB02111	3
DB01760	0
DB01215	4
DB07965	0
DB00787	5
DB00624	17
DB00324	19
DB08939	0
DB08531	0
DB01941	16
DB02448	13
DB02875	7
DB00874	16
DB02877	17
DB03240	10
DB08461	0
DB00818	18
DB08182	0
DB00617	14
DB02473	14
DB08210	0
DB00601	0
DB04957	0
DB03306	5
DB02091	14
DB03086	9
DB00561	29
DB00229	2
DB08801	0
DB02262	5
DB00649	3
DB00705	3
DB07055	0
DB07271	0
DB07227	0
DB08946	0
DB01095	5
DB00556	0
DB01761	11
DB07935	0
DB08478	0
DB03485	0
DB08446	0
DB02396	5
DB09008	0
DB04681	0
DB06944	0
DB02096	16
DB06748	0
DB00170	6
DB01847	6
DB01062	13
DB04867	0
DB02959	6
DB00591	7
DB07030	0
DB00683	1
DB00242	2
DB03946	11
DB08706	0
DB04924	5
DB09002	0
DB07802	0
DB06802	0
DB08102	0
DB01132	8
DB00437	1
DB03784	0
DB07662	0
DB01611	2
DB08001	0
DB00587	7
DB02172	3
DB08704	0
DB08579	0
DB08995	0
DB01020	7
DB00128	3
DB01581	0
DB07085	0
DB01953	13
DB00863	4
DB02071	14
DB02712	7
DB00346	11
DB07947	0
DB00169	9
DB01406	11
DB08301	0
DB07859	0
DB06589	0
DB07304	0
DB01776	6
DB04814	0
DB04455	2
DB01871	12
DB01476	0
DB08787	0
DB04960	0
DB01628	7
DB00222	9
DB08395	0
DB03144	10
DB08285	0
DB00336	0
DB05488	3
DB04273	20
DB07267	0
DB00283	35
DB04166	3
DB08283	0
DB01338	14
DB08379	0
DB01612	5
DB00521	19
DB01484	0
DB00320	21
DB01735	2
DB04701	1
DB08402	0
DB00750	6
DB07873	0
DB07355	0
DB06237	0
DB08348	0
DB08165	0
DB04368	9
DB04417	8
DB07533	0
DB00532	11
DB08578	0
DB02631	6
DB01101	5
DB00938	25
DB00905	8
DB03419	0
DB02143	4
DB08122	0
DB03823	6
DB01955	7
DB01561	8
DB07548	0
DB08472	0
DB06973	0
DB02441	2
DB02969	10
DB03293	7
DB01222	6
DB07991	0
DB04715	9
DB06274	15
DB01216	14
DB03715	4
DB08860	0
DB00972	25
DB07832	0
DB04733	4
DB03588	12
DB07701	0
DB01097	1
DB00801	13
DB01010	9
DB07511	0
DB07545	0
DB00218	1
DB03910	9
DB02134	8
DB08255	0
DB00590	18
DB04637	0
DB07128	0
DB08798	0
DB08803	0
DB02132	4
DB01468	10
DB00330	5
DB01956	3
DB00853	6
DB08645	0
DB03424	6
DB08709	0
DB01218	9
DB01889	8
DB07279	0
DB08522	0
DB00799	7
DB00190	7
DB07389	0
DB07559	0
DB07714	0
DB02316	1
DB03535	11
DB07759	0
DB07767	0
DB00983	7
DB07368	0
DB07106	0
DB00552	6
DB04549	8
DB03604	17
DB01689	11
DB06924	0
DB07254	0
DB06878	0
DB01148	28
DB08357	0
DB00897	10
DB01589	6
DB07181	0
DB04843	23
DB06726	0
DB01962	4
DB04930	1
DB07804	0
DB00129	9
DB08738	0
DB03541	3
DB07997	0
DB01672	12
DB00870	14
DB07886	0
DB07360	0
DB02636	5
DB00271	0
DB07706	0
DB00287	10
DB02074	6
DB08552	0
DB02569	2
DB07808	0
DB00440	3
DB03982	7
DB05891	10
DB08654	0
DB03285	0
DB07138	0
DB00576	1
DB07069	0
DB00304	8
DB03828	12
DB06930	0
DB01765	8
DB07277	0
DB00934	30
DB01233	11
DB04909	0
DB00488	9
DB07622	0
DB00315	12
DB04582	2
DB08058	0
DB04689	15
DB01734	7
DB00465	8
DB06090	0
DB07811	0
DB08393	0
DB07364	0
DB00570	7
DB03880	10
DB04852	0
DB03519	7
DB00244	9
DB07867	0
DB00614	1
DB00928	5
DB01518	0
DB03636	13
DB03322	16
DB02779	10
DB08352	0
DB08003	0
DB04120	4
DB06707	0
DB00609	3
DB04684	6
DB07350	0
DB01147	1
DB04145	0
DB05719	0
DB01354	0
DB06738	0
DB01016	11
DB01061	5
DB03106	5
DB00126	3
DB06744	0
DB03137	5
DB07575	0
DB00721	12
DB00864	8
DB07409	0
DB00887	6
DB07334	0
DB07833	0
DB01353	6
DB02014	7
DB08049	0
DB00275	1
DB07692	0
DB03311	11
DB06702	0
DB01211	0
DB01708	10
DB00650	4
DB04933	0
DB04512	2
DB02383	8
DB07663	0
DB06948	0
DB00637	37
DB00248	18
DB04824	0
DB02004	3
DB08148	0
DB07964	0
DB01422	0
DB00999	1
DB00860	13
DB03101	4
DB07476	0
DB04786	3
DB08842	0
DB08359	0
DB01259	22
DB04541	2
DB02224	4
DB00468	12
DB00450	32
DB07094	0
DB08079	0
DB06939	0
DB01129	2
DB08331	0
DB05791	0
DB00415	4
DB01924	6
DB01852	4
DB01976	5
DB08040	0
DB02740	2
DB01221	20
DB02774	4
DB00951	3
DB00270	7
DB07008	0
DB01229	2
DB08957	0
DB08776	0
DB03833	0
DB08689	0
DB00892	13
DB07414	0
DB03411	2
DB07929	0
DB01499	0
DB00140	8
DB08688	0
DB00715	24
DB00975	11
DB08517	0
DB01462	0
DB07429	0
DB00203	10
DB00383	22
DB04407	22
DB00952	22
DB07248	0
DB05738	0
DB08650	0
DB02545	10
DB07262	0
DB00742	10
DB04823	0
DB00114	0
DB00977	16
DB02507	13
DB03976	9
DB08363	0
DB07713	0
DB01839	13
DB06989	0
DB02532	1
DB02736	0
DB04261	3
DB01263	9
DB07842	0
DB03018	1
DB02601	0
DB01676	5
DB07507	0
DB00544	5
DB00846	11
DB07694	0
DB03302	0
DB05234	0
DB04215	7
DB01014	7
DB04284	9
DB02263	7
DB01206	3
DB06896	0
DB01384	9
DB06852	0
DB08848	0
DB01464	0
DB04105	8
DB01635	0
DB04574	23
DB00529	3
DB07814	0
DB05343	7
DB04221	3
DB00227	5
DB00163	9
DB05076	3
DB03480	3
DB01048	1
DB00471	7
DB04672	2
DB00152	4
DB00159	12
DB07540	0
DB04115	6
DB06605	0
DB00179	14
DB03987	5
DB01958	3
DB00981	26
DB00753	4
DB02295	0
DB00454	26
DB03141	3
DB08827	0
DB07457	0
DB08507	0
DB07184	0
DB00527	10
DB00143	3
DB01288	14
DB00645	30
DB03226	5
DB02266	6
DB07255	0
DB07567	0
DB02758	2
DB00554	5
DB05039	20
DB08903	0
DB01701	3
DB07398	0
DB00811	3
DB00292	11
DB01298	0
DB00848	9
DB03052	11
DB06842	0
DB04531	10
DB08596	0
DB08604	0
DB06728	0
DB00522	13
DB07884	0
DB07617	0
DB07142	0
DB07773	0
DB07390	0
DB08244	0
DB00917	8
DB00389	10
DB07086	0
DB00303	1
DB07240	0
DB02245	4
DB03819	6
DB08950	0
DB06817	0
DB03369	2
DB08191	0
DB08600	0
DB00596	9
DB04970	0
DB00309	6
DB03525	4
DB03737	16
DB01074	17
DB02660	24
DB02655	4
DB06968	0
DB08544	0
DB04424	7
DB01197	3
DB07235	0
DB08974	0
DB06811	0
DB06714	0
DB02893	5
DB03128	11
DB00990	6
DB04575	24
DB08990	0
DB04725	0
DB06937	0
DB02339	5
DB01947	3
DB08387	0
DB08960	0
DB06228	0
DB01425	0
DB02839	8
DB01745	11
DB08349	0
DB08329	0
DB02450	4
DB00146	11
DB05245	4
DB08055	0
DB03610	7
DB01011	6
DB07902	0
DB06813	0
DB01495	16
DB08555	0
DB01166	17
DB03029	7
DB01183	20
DB01963	10
DB00583	11
DB03956	3
DB02883	3
DB00766	1
DB08730	0
DB02027	6
DB08137	0
DB02840	10
DB07642	0
DB02060	6
DB02142	6
DB01013	11
DB07314	0
DB08029	0
DB04608	13
DB00665	11
DB01533	10
DB00356	6
DB08711	0
DB08284	0
DB01750	6
DB06995	0
DB06838	0
DB01328	2
DB07164	0
DB04046	1
DB04641	11
DB00833	3
DB01154	6
DB07635	0
DB06877	0
DB00209	16
DB02226	1
DB01491	25
DB01487	0
DB00285	20
DB01566	22
DB00589	24
DB00500	6
DB07275	0
DB03176	22
DB00483	14
DB08810	0
DB00720	10
DB07102	0
DB07508	0
DB07517	0
DB07779	0
DB01692	5
DB05347	4
DB04338	9
DB00828	1
DB07187	0
DB02648	8
DB06712	0
DB07032	0
DB03462	5
DB04163	3
DB08457	0
DB04953	0
DB04387	14
DB01242	28
DB06700	0
DB03140	4
DB02823	0
DB08209	0
DB06875	0
DB07096	0
DB01082	2
DB08718	0
DB04468	11
DB07199	0
DB01433	16
DB04658	5
DB01135	14
DB00174	7
DB00737	34
DB00947	13
DB07558	0
DB05399	0
DB00377	29
DB04170	4
DB00251	10
DB06800	0
DB08835	0
DB04875	0
DB04074	2
DB08951	0
DB01199	14
DB00592	13
DB00600	0
DB07253	0
DB03700	8
DB07592	0
DB00852	13
DB00401	15
DB02089	5
DB03852	0
DB07459	0
DB02709	16
DB00603	16
DB00775	12
DB00443	9
DB03383	6
DB01149	25
DB00501	3
DB07361	0
DB01217	6
DB00994	0
DB00588	7
DB00349	21
DB03073	8
DB02123	3
DB06809	0
DB08019	0
DB03159	9
DB01291	10
DB07485	0
DB07453	0
DB07014	0
DB07233	0
DB00769	9
DB07286	0
DB06715	0
DB02701	5
DB00122	19
DB07606	0
DB08234	0
DB07794	0
DB00992	10
DB09007	0
DB07537	0
DB01796	2
DB01295	31
DB00636	11
DB02202	5
DB07868	0
DB00230	7
DB00916	2
DB01784	13
DB08358	0
DB01124	6
DB00180	5
DB08215	0
DB01352	0
DB08149	0
DB07719	0
DB01582	0
DB07665	0
DB01185	10
DB07300	0
DB03953	5
DB03068	0
DB00409	18
DB03463	6
DB08584	0
DB04829	28
DB06701	0
DB00902	35
DB03114	2
DB03262	7
DB03440	4
DB06781	0
DB03943	4
DB01694	7
DB00116	6
DB01751	14
DB01446	0
DB01466	21
DB00279	12
DB04828	0
DB04314	1
DB06151	6
DB06204	0
DB08135	0
DB04401	7
DB02461	4
DB00889	29
DB09009	0
DB01609	0
DB00834	14
DB00379	7
DB03056	16
DB08772	0
DB07926	0
DB04533	3
DB02757	5
DB08797	0
DB03500	10
DB00396	17
DB00919	3
DB01005	4
DB01227	16
DB04186	12
DB00618	2
DB07995	0
DB03695	8
DB02797	5
DB07877	0
DB00630	3
DB07651	0
DB07691	0
DB04787	3
DB01047	5
DB08451	0
DB00388	22
DB07908	0
DB03412	9
DB02776	8
DB03516	0
DB07538	0
DB01212	0
DB02232	13
DB00161	6
DB00908	14
DB00653	10
DB08397	0
DB02727	5
DB00333	17
DB07303	0
DB00736	0
DB04951	0
DB07059	0
DB04051	3
DB01493	8
DB00535	0
DB07837	0
DB08878	0
DB02095	10
DB08800	0
DB04075	5
DB00319	1
DB08726	0
DB07447	0
DB01618	11
DB00835	20
DB01845	6
DB07933	0
DB01077	0
DB02121	0
DB07337	0
DB08193	0
DB00989	12
DB01556	0
DB00235	3
DB00871	15
DB07564	0
DB00250	6
DB02258	17
DB04825	0
DB07739	0
DB05383	0
DB07274	0
DB08093	0
DB06150	0
DB07800	0
DB06986	0
DB05291	14
DB08134	0
DB07266	0
DB08893	0
DB06873	0
DB07328	0
DB00979	30
DB03884	5
DB04896	21
DB07977	0
DB01403	22
DB01099	0
DB00814	5
DB00345	0
DB00424	28
DB02277	6
DB02198	12
DB06931	0
DB08147	0
DB04864	4
DB07268	0
DB01235	13
DB06691	0
DB02613	5
DB04860	0
DB00142	8
DB00467	0
DB02115	8
DB04037	2
DB02327	0
DB08009	0
DB00633	14
DB07776	0
DB04052	0
DB01003	16
DB00961	22
DB08233	0
DB04698	1
DB06581	0
DB01598	2
DB08052	0
DB00760	0
DB08429	0
DB08362	0
DB00238	2
DB01536	18
DB08968	0
DB08966	0
DB06637	0
DB00964	11
DB02726	1
DB08770	0
DB01139	1
DB01134	15
DB01096	10
DB09010	0
DB07218	0
DB08691	0
DB01262	4
DB08025	0
DB00255	8
DB02887	2
DB08620	0
DB07220	0
DB00395	8
DB05034	0
DB07720	0
DB00132	12
DB07295	0
DB08748	0
DB07844	0
DB07471	0
DB08991	0
DB02818	10
DB07928	0
DB00957	15
DB01758	9
DB05806	6
DB00678	1
DB08752	0
DB00784	5
DB04478	3
DB07109	0
DB08239	0
DB04480	12
DB08286	0
DB03851	8
DB00906	23
DB01398	0
DB05521	0
DB04297	17
DB00539	8
DB08588	0
DB01759	1
DB07891	0
DB01035	11
DB00809	13
DB08529	0
DB04017	23
DB07593	0
DB07018	0
DB08789	0
DB04830	0
DB01785	2
DB07640	0
DB04113	4
DB02641	0
DB02650	6
DB05838	0
DB00579	29
DB00726	27
DB00704	26
DB07089	0
DB07006	0
DB00751	25
DB08771	0
DB01085	13
DB04942	15
DB01121	9
DB08724	0
DB00321	22
DB06916	0
DB06917	0
DB03220	18
DB07373	0
DB07288	0
DB00960	9
DB01223	11
DB01549	33
DB00915	15
DB03554	3
DB08354	0
DB08890	0
DB06693	0
DB01177	6
DB07988	0
DB08582	0
DB03703	11
DB00548	10
DB06803	0
DB05414	0
DB00744	7
DB02032	9
DB07001	0
DB01324	3
DB08901	0
DB03467	2
DB00184	20
DB04044	5
DB03839	6
DB08980	0
DB08597	0
DB09018	0
DB01948	16
DB01136	18
DB02521	13
DB01157	1
DB04797	6
DB03587	6
DB00272	9
DB06940	0
DB00104	4
DB03515	14
DB06883	0
DB07185	0
DB08070	0
DB00768	20
DB00259	6
DB00542	17
DB07764	0
DB08335	0
DB02517	8
DB08820	0
DB08315	0
DB08592	0
DB01421	0
DB02952	2
DB04784	0
DB00391	18
DB08719	0
DB08228	0
DB00699	15
DB00373	19
DB06697	0
DB00595	3
DB08144	0
DB02054	2
DB08142	0
DB00912	5
DB00413	19
DB08190	0
DB06729	0
DB07726	0
DB00632	9
DB08756	0
DB01032	7
DB07495	0
DB08815	0
DB04699	0
DB02222	3
DB08795	0
DB04717	2
DB03678	0
DB02651	4
DB00913	36
DB07757	0
DB08111	0
DB03034	2
DB01373	14
DB01025	5
DB08248	0
DB01044	1
DB05294	0
DB03388	0
DB08072	0
DB02664	8
DB08100	0
DB00121	2
DB02104	6
DB06766	0
DB00219	15
DB03057	0
DB03704	6
DB04518	19
DB07936	0
DB01423	0
DB00640	7
DB07689	0
DB00165	5
DB07810	0
DB01075	34
DB04459	6
DB07718	0
DB07162	0
DB04564	0
DB06891	0
DB01327	0
DB00634	1
DB01702	0
DB07232	0
DB00231	12
DB08081	0
DB08123	0
DB00659	7
DB04098	7
DB08786	0
DB00353	21
DB04272	4
DB00643	7
DB00555	3
DB06969	0
DB00599	9
DB01209	21
DB01019	9
DB08782	0
DB08621	0
DB01459	0
DB01460	15
DB03749	14
DB04312	4
DB03147	2
DB02178	23
DB00366	23
DB08300	0
DB07178	0
DB08659	0
DB00901	14
DB07780	0
DB00267	0
DB03585	11
DB07110	0
DB00305	3
DB00188	4
DB00463	8
DB04228	0
DB06829	0
DB01858	8
DB04006	19
DB00562	6
DB00381	10
DB07311	0
DB03780	5
DB08084	0
DB06894	0
DB01452	18
DB01942	10
DB08887	0
DB08560	0
DB03468	12
DB02633	2
DB00258	7
DB00151	9
DB03854	2
DB05057	0
DB08333	0
DB07728	0
DB07528	0
DB08764	0
DB08088	0
DB07614	0
DB08442	0
DB07843	0
DB04834	9
DB00241	5
DB04920	13
DB08612	0
DB01037	12
DB08256	0
DB07675	0
DB05003	0
DB04381	11
DB01686	11
DB07119	0
DB06832	0
DB06893	0
DB03841	2
DB07631	0
DB01555	12
DB02163	2
DB01219	4
DB03560	7
DB00138	7
DB03748	3
DB02999	10
DB00761	17
DB04601	7
DB04007	0
DB03847	11
DB01977	8
DB00428	5
DB01405	8
DB07340	0
DB01073	3
DB07388	0
DB00883	11
DB00118	1
DB01490	0
DB07176	0
DB02568	4
DB01050	10
DB02288	7
DB07317	0
DB07107	0
DB04168	5
DB01241	11
DB07695	0
DB00265	11
DB02994	11
DB08571	0
DB06910	0
DB00598	19
DB08528	0
DB06706	0
DB00723	21
DB01332	0
DB04665	17
DB06730	0
DB07062	0
DB02585	11
DB04577	10
DB04741	3
DB08927	0
DB08699	0
DB07003	0
DB00131	12
DB03316	9
DB03229	7
DB01438	3
DB00448	1
DB08490	0
DB06772	0
DB00812	16
DB07834	0
DB06925	0
DB07425	0
DB07488	0
DB03940	6
DB00968	12
DB00628	10
DB04503	2
DB08495	0
DB07996	0
DB07994	0
DB08626	0
DB07616	0
DB00900	1
DB02530	4
DB03260	10
DB01605	8
DB07306	0
DB01408	15
DB01626	0
DB08807	0
DB00430	2
DB00342	39
DB01529	16
DB08177	0
DB08424	0
DB07621	0
DB02751	6
DB08087	0
DB02016	3
DB07206	0
DB01171	19
DB04352	2
DB02184	2
DB01237	26
DB00213	1
DB05448	0
DB08133	0
DB06147	0
DB06210	0
DB00277	5
DB02627	3
DB08206	0
DB08416	0
DB01795	3
DB00408	31
DB00668	22
DB00273	2
DB08031	0
DB00681	2
DB07945	0
DB02520	3
DB00135	16
DB00880	0
DB01234	8
DB07596	0
DB04282	2
DB04343	2
DB04982	0
DB08508	0
DB06213	0
DB08519	0
DB07858	0
DB00192	13
DB06991	0
DB04270	13
DB07146	0
DB00816	18
DB00136	11
DB08226	0
DB03444	14
DB07670	0
DB03337	6
DB08897	0
DB08952	0
DB00748	25
DB08036	0
DB00656	18
DB06926	0
DB01255	8
DB00923	2
DB09028	0
DB02347	5
DB01224	23
DB00130	6
DB02656	11
DB00717	14
DB03294	5
DB08844	0
DB06207	0
DB01656	6
DB00695	4
DB00564	25
DB08701	0
DB01427	1
DB05105	0
DB00805	11
DB02936	11
DB01696	4
DB03677	9
DB07129	0
DB04084	1
DB02602	11
DB05379	6
DB08376	0
DB07993	0
DB07249	0
DB03598	11
DB00806	9
DB07053	0
DB00996	15
DB04887	0
DB03994	15
DB06771	0
DB07099	0
DB00747	27
DB03167	12
DB02175	7
DB00850	30
DB07565	0
DB03292	0
DB00232	1
DB00974	1
DB00433	31
DB02938	10
DB01042	3
DB01616	0
DB07503	0
DB02993	4
DB07419	0
DB01068	5
DB09022	0
DB00182	18
DB04820	0
DB07785	0
DB04519	11
DB07404	0
DB04884	0
DB03085	5
DB01203	21
DB08527	0
DB08943	0
DB08460	0
DB02925	13
DB07013	0
DB07625	0
DB00457	10
DB08466	0
DB00198	2
DB01144	7
DB01056	9
DB03329	4
DB02841	3
DB00815	12
DB00226	14
DB04193	1
DB00453	2
DB02010	12
DB01012	23
DB07159	0
DB02491	30
DB05083	0
DB08231	0
DB06976	0
DB04457	1
DB07348	0
DB07550	0
DB08947	0
DB03312	3
DB01397	0
DB03078	4
DB06696	0
DB00669	13
DB04600	5
DB07163	0
DB01502	0
DB02362	4
DB04179	5
DB01058	9
DB07624	0
DB00276	8
DB04466	11
DB02481	12
DB00476	19
DB00117	12
DB01244	17
DB05861	0
DB08971	0
DB01017	3
DB00820	22
DB03466	18
DB01087	6
DB04915	0
DB00153	12
DB00651	13
DB01642	0
DB01393	15
DB00716	7
DB04910	0
DB07396	0
DB01851	0
DB06144	23
DB02669	4
DB00477	29
DB05800	0
DB00714	28
DB03777	12
DB01553	0
DB08406	0
DB04125	11
DB07431	0
DB00473	24
DB08970	0
DB07312	0
DB01280	0
DB04066	2
DB02539	16
DB08926	0
DB00821	11
DB01024	7
DB01065	12
DB08103	0
DB07234	0
DB04604	7
DB08035	0
DB03102	8
DB00745	15
DB00490	32
DB08653	0
DB07216	0
DB07401	0
DB08549	0
DB03257	1
DB00581	1
DB07943	0
DB04685	0
DB07514	0
DB01186	33
DB01441	10
DB08996	0
DB03900	13
DB01150	3
DB00711	24
DB06974	0
DB04605	2
DB04926	9
DB01083	10
DB00280	13
DB08173	0
DB00884	9
DB02833	16
DB02141	9
DB08819	0
DB08708	0
DB08105	0
DB01122	8
DB08486	0
DB01613	7
DB01420	18
DB01299	2
DB00150	15
DB04537	7
DB07432	0
DB01181	2
DB02932	10
DB01138	2
DB02728	9
DB00623	31
DB00881	10
DB00266	8
DB07506	0
DB00207	1
DB05377	0
DB01330	0
DB08321	0
DB06287	6
DB04223	8
DB07613	0
DB01168	1
DB07531	0
DB00841	16
DB00311	8
DB00421	6
DB07305	0
DB08353	0
DB08324	0
DB07093	0
DB07237	0
DB00328	10
DB02057	7
DB08959	0
DB03941	17
DB02459	9
DB04739	27
DB06731	0
DB03107	0
DB08449	0
DB00876	2
DB01033	3
DB00712	11
DB03252	9
DB02189	9
DB07265	0
DB04844	28
DB04462	13
DB03559	5
DB00458	28
DB00922	3
DB00914	5
DB07623	0
DB02101	6
DB07150	0
DB04056	1
DB00133	2
DB01435	14
DB02791	0
DB08766	0
DB07743	0
DB00944	11
DB02908	3
DB04030	0
DB08389	0
DB00093	6
DB04090	18
DB03575	33
DB00793	3
DB00512	0
DB07856	0
DB03693	7
DB08450	0
DB00903	3
DB04253	0
DB01158	14
DB07544	0
DB00199	1
DB00792	18
DB00763	8
DB00885	0
DB08477	0
DB00937	12
DB07746	0
DB00393	13
DB01243	3
DB08261	0
DB08198	0
DB01282	5
DB01559	13
DB04288	12
DB00260	5
DB02072	4
DB01204	6
DB07519	0
DB01155	0
DB03009	3
DB07080	0
DB01051	0
DB01431	10
DB02359	12
DB01039	10
DB07826	0
DB02210	12
DB00706	16
DB08384	0
DB08082	0
DB04310	10
DB01228	24
DB01473	0
DB05289	8
DB01509	19
DB08792	0
DB08046	0
DB07335	0
DB00620	7
DB03503	1
DB00312	11
DB07141	0
DB01904	1
DB03082	8
DB00621	19
DB00536	6
DB01667	4
DB07108	0
DB01392	26
DB00839	6
DB07422	0
DB08383	0
DB08180	0
DB07072	0
DB07307	0
DB07626	0
DB02822	5
DB01355	16
DB00856	11
DB06770	0
DB04302	5
DB00949	18
DB08213	0
DB00604	30
DB08694	0
DB04849	0
DB06914	0
DB02552	0
DB07063	0
DB00245	33
DB03902	2
DB04209	13
DB08695	0
DB07618	0
DB07301	0
DB05786	0
DB08445	0
DB01069	21
DB01688	2
DB01053	3
DB07827	0
DB02411	5
DB00519	7
DB00181	11
DB02079	1
DB08551	0
DB08138	0
DB08282	0
DB02533	4
DB00687	13
DB02100	1
DB08172	0
DB03628	8
DB08632	0
DB08633	0
DB08777	0
DB07049	0
DB00479	0
DB07044	0
DB08924	0
DB07570	0
DB00948	1
DB00411	9
DB06889	0
DB03177	4
DB08242	0
DB04783	4
DB01162	14
DB01731	8
DB04837	21
DB00910	11
DB03837	13
DB03109	3
DB00518	6
DB07638	0
DB00355	0
DB00494	1
DB00867	14
DB06751	0
DB02024	2
DB01331	4
DB04214	4
DB08824	0
DB02856	0
DB01558	1
DB08631	0
DB04571	9
DB00497	31
DB07973	0
DB07021	0
DB07260	0
DB04523	16
DB08139	0
DB03807	15
DB00733	8
DB04200	4
DB06268	0
DB02749	6
DB08774	0
DB00790	7
DB06554	0
DB03496	10
DB01043	13
DB02768	5
DB03849	24
DB08263	0
DB04908	0
DB00186	7
DB05327	0
DB07287	0
DB04776	17
DB07076	0
DB07029	0
DB01260	7
DB08262	0
DB00696	14
DB03707	7
DB04360	1
DB00399	9
DB00323	8
DB00243	25
DB07612	0
DB00193	25
DB00306	9
DB07927	0
DB02922	2
DB00166	5
DB01691	0
DB00584	4
DB00851	8
DB00606	3
DB03750	2
DB00605	7
DB01514	0
DB08006	0
DB00701	5
DB03523	7
DB08725	0
DB02145	2
DB05508	18
DB05286	0
DB04580	0
DB01599	7
DB07126	0
DB00616	12
DB06709	0
DB08514	0
DB01176	38
DB03916	0
DB02216	8
DB02268	0
DB03955	7
DB01002	26
DB00369	3
DB01630	18
DB03267	3
DB07557	0
DB08734	0
DB00261	11
DB06209	0
DB07215	0
DB08214	0
DB01927	10
DB07685	0
DB00297	25
DB01175	26
DB00236	11
DB02579	5
DB00316	9
DB03744	7
DB00452	3
DB06148	35
DB00224	4
DB07619	0
DB04326	2
DB03800	2
DB00301	1
DB07861	0
DB04188	2
DB07147	0
DB02367	17
DB08132	0
DB04728	0
DB01546	0
DB00523	9
DB05295	0
DB01726	5
DB04370	0
DB00824	10
DB02056	6
DB01621	0
DB01718	11
DB06743	0
DB03054	0
DB06723	0
DB04898	8
DB01669	2
DB07848	0
DB03336	23
DB08805	0
DB07857	0
DB02011	5
DB03759	3
DB07179	0
DB00719	22
DB02335	4
DB04332	3
DB07597	0
DB01094	13
DB00350	4
DB00425	2
DB01594	9
DB07708	0
DB06897	0
DB00382	12
DB04594	8
DB00134	5
DB07070	0
DB01396	3
DB08015	0
DB08399	0
DB00549	15
DB00545	11
DB00796	2
DB08414	0
DB02000	2
DB06616	0
DB04289	5
DB01151	25
DB08896	0
DB08437	0
DB00175	9
DB00338	0
DB08443	0
DB02297	22
DB01202	14
DB00546	12
DB00191	16
DB07711	0
DB08355	0
DB07450	0
DB04306	5
DB06947	0
DB05475	0
DB07273	0
DB08836	0
DB06831	0
DB04842	40
DB01610	2
DB08581	0
DB01153	6
DB05482	5
DB04815	0
DB06935	0
DB03993	6
DB01205	17
DB01247	5
DB06961	0
DB02440	5
DB02998	18
DB01562	0
DB01339	14
DB08018	0
DB00434	30
DB01498	0
DB07769	0
DB08174	0
DB04855	0
DB04616	5
DB07760	0
DB00607	3
DB03367	7
DB03766	9
DB05492	0
DB07272	0
DB07078	0
DB03793	6
DB00935	12
DB00446	6
DB07874	0
DB07075	0
DB02154	4
DB00147	7
DB01501	21
DB04836	23
DB08723	0
DB07572	0
DB01320	6
DB07454	0
