DB04270	P37231
DB00233	P09917
DB03127	P42126
DB04256	Q13255
DB00363	P28221
DB00463	P48169
DB01561	P14061
DB00363	P28222
DB00334	P08908
DB02803	P00797
DB01409	P11229
DB00381	Q08289
DB04392	P15559
DB04559	P29474
DB00589	P18825
DB00536	Q14353
DB03765	P07998
DB01110	P10613
DB00072	P00533
DB04147	P69681
DB01224	P28566
DB01431	P03372
DB00246	P21918
DB01162	Q9H252
DB00240	P04150
DB00591	P04150
DB00248	P08913
DB01834	P09488
DB04147	P33247
DB01114	Q01959
DB04729	P0A7S3
DB01431	P06401
DB00458	P35367
DB01015	P0AC13
DB00397	P21728
DB00334	P08913
DB00381	Q01668
DB00897	Q16445
DB01381	P23415
DB00246	P28566
DB00586	P09917
DB00002	P31994
DB00367	P18405
DB02027	P29475
DB00661	O00555
DB01907	P0A9B2
DB02027	P29474
DB04798	P42262
DB02166	P22303
DB00248	P21918
DB01010	P06276
DB00248	P21917
DB04709	P10275
DB00114	Q96A70
DB00679	P35368
DB00795	P37231
DB03431	P08690
DB03271	P35228
DB00842	P47869
DB03014	O31440
DB00231	P34903
DB04446	P07477
DB02354	P07477
DB01144	P22748
DB00813	P41145
DB02269	P07477
DB04838	P23141
DB00268	P28335
DB03147	Q9WYT0
DB00458	P25100
DB00842	P47870
DB01200	P28335
DB03672	P06276
DB06288	P28223
DB03104	P12931
DB00142	Q9UI32
DB01026	P10613
DB00382	P06276
DB01905	P07477
DB01614	P35368
DB04447	Q9UJ68
DB00475	P28472
DB00349	P24046
DB04141	P31930
DB01403	P08913
DB01907	Q837V6
DB00475	P31644
DB03461	P32055
DB00274	P02919
DB00420	P21917
DB01622	P08908
DB00274	P02918
DB03431	P08238
DB03144	P35228
DB03337	P07477
DB00363	P20309
DB01854	P52961
DB06262	P07550
DB03555	P07477
DB01588	P28472
DB01102	P07550
DB01589	P31644
DB00588	P06401
DB00756	P00367
DB03014	Q9FCA6
DB00714	P18089
DB01215	P34903
DB03449	P29475
DB01054	Q08289
DB01907	P08319
DB00801	P47869
DB01160	P43088
DB01614	P14416
DB01200	P21728
DB02991	P29475
DB00849	P47869
DB01752	Q06528
DB01054	Q01668
DB04235	P80404
DB03153	P00492
DB03393	P62937
DB00015	P05121
DB03014	P23219
DB00307	P48443
DB01388	Q9P0X4
DB01861	Q14376
DB00268	P21728
DB04820	P21964
DB04080	P12931
DB00596	P04150
DB01805	P22303
DB01621	P08908
DB03317	P11712
DB00334	P21918
DB01301	P0A7X3
DB02391	P00491
DB02343	P22303
DB01567	P34903
DB00628	P47869
DB00363	P34969
DB00321	P28223
DB01559	P18505
DB01614	P35348
DB00393	Q13936
DB01242	P09211
DB04315	Q54089
DB00988	P14416
DB02944	P15309
DB00590	Q12809
DB01001	P08588
DB03814	P04424
DB04552	P47712
DB00142	P17174
DB00242	P09884
DB01496	P43681
DB00128	P07998
DB03686	P09211
DB00280	P08172
DB00259	P0AC13
DB03431	P14900
DB00051	P12318
DB00599	P48169
DB00809	P20309
DB00114	O95954
DB00334	P28566
DB01558	P18505
DB00417	P24228
DB03431	P19367
DB01752	P14385
DB01023	Q13936
DB03909	P0A9J6
DB00005	P31994
DB00628	P47870
DB01381	P47870
DB02944	P01130
DB00413	P18825
DB03541	P16083
DB04272	Q9X0N8
DB02335	P29474
DB00695	P00918
DB02432	P12931
DB03600	Q9NZD2
DB00417	P12256
DB01915	P08263
DB01588	P31644
DB01915	P00782
DB01373	Q13936
DB00237	Q16445
DB04444	P0A9J6
DB01589	P28472
DB03461	P11586
DB00821	P23219
DB00364	P01133
DB04269	P07477
DB01907	P06988
DB01901	P05230
DB03014	P42321
DB00854	P41143
DB01725	P07477
DB02757	P00326
DB00142	P24298
DB00854	P41145
DB04310	P68826
DB01472	P27338
DB01483	P48169
DB02644	P35228
DB00420	P11229
DB04000	P42262
DB03373	P07477
DB03431	P75430
DB03886	P35270
DB05260	P01584
DB00306	P42262
DB02379	Q9ZB17
DB01174	Q16445
DB00599	P36544
DB03814	Q9X5N2
DB01260	P04150
DB03899	P07900
DB00363	P18825
DB04790	P07477
DB03014	P04040
DB00904	P08908
DB04029	P13901
DB04141	P31040
DB01565	P35372
DB01907	P72024
DB03431	P49137
DB01351	P48169
DB01942	P22629
DB04794	P10613
DB00509	P10828
DB00458	P08172
DB00087	P31994
DB00246	P50406
DB00829	P24046
DB00458	P08173
DB00714	P28221
DB01079	P28223
DB00714	P28222
DB00714	P28223
DB00509	P10827
DB00852	P08588
DB00139	P13674
DB02419	P62937
DB00233	P35354
DB04786	P21817
DB04791	P07477
DB02153	Q9FD87
DB04276	P07384
DB00114	Q9Y617
DB01287	P21728
DB02687	P05884
DB02687	P49424
DB00381	Q13698
DB03461	Q8I814
DB02338	Q12882
DB04578	P27487
DB00540	P35348
DB00733	P06276
DB00914	Q15842
DB00786	P39900
DB00922	Q14432
DB03014	Q9KZR7
DB00139	Q02809
DB01559	P47869
DB00418	Q16445
DB00991	P23219
DB01224	P50406
DB04440	P00813
DB00690	P24046
DB01595	P18505
DB00142	Q9UPY5
DB04253	P16083
DB01558	P47870
DB00171	O95342
DB00661	Q13936
DB01437	P14867
DB01267	P21917
DB03536	Q9UBX1
DB00321	P04629
DB04513	P63316
DB00321	P35348
DB04577	P27487
DB00801	P34903
DB00509	P07202
DB04217	P32929
DB00543	P14867
DB01401	P23219
DB02966	P42262
DB00849	P34903
DB02448	P14555
DB03374	P07477
DB01130	P04150
DB02207	P35228
DB00244	O14920
DB01559	P47870
DB01594	P18505
DB00376	P08912
DB00668	P18089
DB00733	P22303
DB02676	Q08499
DB00363	P46098
DB02260	P13716
DB03860	Q92731
DB00540	P35367
DB03754	P15692
DB00014	P30968
DB01907	P14169
DB00334	P50406
DB01907	P0AET8
DB03159	P07477
DB01359	P08908
DB03595	P07477
DB01581	P0AC13
DB02010	O15530
DB04260	P00491
DB03504	P07900
DB01354	P48169
DB01233	Q13639
DB00241	P48169
DB02170	P68400
DB03535	P48147
DB00715	P20309
DB01363	P31645
DB01496	P31644
DB00869	P22748
DB04008	P07477
DB02045	P07477
DB02067	P34896
DB01144	P00918
DB04311	P07477
DB01115	Q09470
DB00028	P01031
DB03147	P16083
DB02659	P23141
DB01224	P08912
DB01224	P08913
DB00404	P47870
DB01153	P10613
DB01412	Q07343
DB01242	P28335
DB01277	P06213
DB00321	P35367
DB00616	P12821
DB03014	P72181
DB01355	P48169
DB03243	P07477
DB01047	P04150
DB04838	P54289
DB00540	P25100
DB01435	P35354
DB01224	P21918
DB01224	P21917
DB03240	P42262
DB02648	Q9UKG9
DB04530	P0AEX9
DB02825	P22303
DB01742	P62937
DB01352	P48169
DB01363	P07550
DB02379	P10844
DB01054	Q13698
DB00777	P11229
DB00160	Q16719
DB00543	P14416
DB00193	P41143
DB00546	P14867
DB03721	P23141
DB01589	P24046
DB03345	O25323
DB03026	P0AB74
DB00829	P31644
DB01942	Q27796
DB00112	P15692
DB01632	P00492
DB03026	P0AB71
DB01025	P05230
DB00402	P47869
DB04792	P07477
DB00246	P08913
DB00806	P30542
DB00246	P08912
DB00475	P24046
DB00114	P06737
DB00248	P08908
DB03496	P24941
DB04793	P07477
DB04442	P07477
DB00321	P25100
DB02309	P00492
DB00829	P28472
DB00222	Q09428
DB00543	P35348
DB00897	P14867
DB01577	P08913
DB01582	P0AC13
DB01588	P24046
DB03326	P07998
DB01115	Q13936
DB00458	P35348
DB01353	P48169
DB03690	Q00169
DB04930	P35498
DB00934	P20309
DB01907	P00362
DB01067	P37231
DB02379	Q07982
DB00268	P18089
DB00413	P41595
DB03147	P16435
DB00809	P08172
DB01200	P18089
DB00114	P20132
DB03769	P23526
DB03559	P00326
DB03461	P67910
DB03667	P23219
DB03147	Q92947
DB01352	Q16445
DB03752	P23219
DB00496	P08173
DB00363	P08172
DB00496	P08172
DB02212	Q9ZIV5
DB00363	P08173
DB04197	P05089
DB00726	P08908
DB01354	P36544
DB01412	P29274
DB02687	P23219
DB01907	P00352
DB04920	Q13698
DB01355	P36544
DB01007	Q16850
DB02526	P07477
DB02772	P68133
DB00714	P18825
DB04272	P12724
DB03814	P0A9B2
DB03753	P23219
DB01351	Q16445
DB01907	P80040
DB02744	P07477
DB03431	P52732
DB03147	P61497
DB00988	P21917
DB04233	P16233
DB02081	P07477
DB00988	P21918
DB00772	P06276
DB01907	P00367
DB00966	P37231
DB01439	P41145
DB02773	P23219
DB01577	Q96RJ0
DB01942	P09601
DB03628	P12931
DB01767	P07477
DB03222	P06746
DB00842	P34903
DB00002	P12318
DB02365	P52700
DB00231	P14867
DB00751	P34969
DB00098	P20701
DB01483	Q16445
DB04263	P11926
DB01907	P15879
DB01352	P36544
DB00364	P09038
DB04652	P28845
DB00009	P00747
DB02084	P07477
DB02212	P00492
DB00081	P31994
DB01907	P00390
DB03176	P10827
DB00337	P42345
DB00907	P11229
DB04674	P25101
DB04395	P68400
DB00241	P36544
DB00909	O43570
DB04920	Q01668
DB00173	P0AF12
DB01972	P41007
DB00418	P48169
DB05260	P02818
DB00651	P29274
DB03147	O06934
DB01393	Q03181
DB01353	P36544
DB00157	Q16878
DB02616	P00813
DB01011	P15538
DB01907	P00387
DB01224	P11229
DB04272	Q02834
DB01200	P35462
DB04447	P06988
DB00909	O95180
DB00575	P18089
DB04799	P31930
DB01656	Q08493
DB00246	P11229
DB00055	P38435
DB00408	P28223
DB00409	P28223
DB03147	Q9UKU7
DB03014	P24092
DB00622	P20309
DB01068	P18505
DB00899	P41143
DB00401	Q13936
DB02379	Q79G13
DB00899	P41145
DB01907	P0AEK4
DB04775	P68133
DB00005	P12318
DB00363	P35348
DB00128	Q5T6L4
DB01656	Q08499
DB00005	P12314
DB01065	P49286
DB03370	P00813
DB00157	P49419
DB00312	P47869
DB04077	P0A6E4
DB04579	P07858
DB03435	O94766
DB01346	P14867
DB00909	Q9NY46
DB03707	P29475
DB01809	P07949
DB03707	P29474
DB02078	P06241
DB04832	P21397
DB03449	P35228
DB01174	P48169
DB00142	P38435
DB02944	P29475
DB01325	Q13621
DB01267	P08913
DB00321	P08173
DB01907	P37672
DB00459	P09455
DB03814	P00861
DB00628	P34903
DB00321	P08172
DB01907	Q27743
DB03736	P00797
DB01765	P68400
DB00098	P05106
DB01567	P14867
DB00869	P00915
DB00157	Q16836
DB01611	Q9NYK1
DB04842	Q06432
DB00363	P35368
DB02552	P14324
DB00463	P36544
DB02727	P29475
DB01081	P41143
DB00450	P35348
DB03461	P44801
DB00602	P28472
DB00540	P08173
DB01049	P08913
DB00540	P08172
DB00111	P14784
DB00622	P62158
DB00457	Q9H252
DB01267	P08908
DB04395	P53355
DB01240	Q16647
DB02142	Q8ZNF3
DB00794	P47869
DB01595	P35498
DB01606	P62594
DB01215	P14867
DB02379	P06737
DB01833	P29474
DB01331	P02918
DB00812	P23219
DB01331	P02919
DB01251	Q09428
DB02687	P06276
DB02726	P0A733
DB01907	P11411
DB03461	P00374
DB00934	P08172
DB02379	P12528
DB02347	P42262
DB00934	P08173
DB04464	P01008
DB00142	P49915
DB01614	P08908
DB03389	O68541
DB04395	P0AES6
DB00320	P41595
DB03721	P32884
DB02944	P05884
DB01558	P34903
DB00060	P48551
DB01645	P03372
DB03856	P11926
DB02110	P23219
DB02944	P06729
DB01332	P02919
DB01594	P47869
DB01332	P02918
DB00794	P34903
DB01598	P02918
DB01598	P02919
DB00463	P43681
DB00599	P31644
DB03247	P00323
DB00622	P25100
DB03485	P02788
DB00600	P14679
DB04395	P53779
DB03431	P30085
DB02058	P11362
DB04448	P00326
DB01559	P34903
DB03963	P29474
DB00227	Q92769
DB03461	Q08257
DB00157	P16083
DB00920	P27815
DB00409	Q99720
DB01397	P23219
DB04272	P38489
DB00814	P23219
DB00171	O60706
DB00909	P22748
DB01333	P02918
DB01382	Q09428
DB01454	P23975
DB03654	P00644
DB00172	P13674
DB01436	O15528
DB04733	P04075
DB01616	P08908
DB01337	P20309
DB04774	P68133
DB04312	P00326
DB04272	P07741
DB01355	P43681
DB03431	Q9BZX2
DB02518	P15121
DB01174	P36544
DB03809	P07900
DB00381	P54289
DB00804	P08172
DB01250	P01579
DB04521	Q16772
DB02435	P07477
DB00434	P28335
DB00518	P83223
DB00312	P34903
DB00009	P05121
DB04272	Q9HU22
DB01088	Q08493
DB01200	P34969
DB00324	P04150
DB02162	P49773
DB00413	P21918
DB00463	Q16445
DB03466	P13631
DB01195	P35499
DB00925	P18089
DB00568	Q13698
DB01295	P35348
DB04552	P23219
DB04843	P20309
DB01088	Q08499
DB02212	P03950
DB00599	P43681
DB03328	P47989
DB00005	P20333
DB03865	P00734
DB01842	P07998
DB00920	Q07343
DB01363	P21397
DB01618	P08908
DB02462	P35228
DB01373	P98194
DB02659	P51161
DB00321	P41145
DB00321	P41143
DB01907	P09147
DB01483	P36544
DB01226	P06276
DB01036	P08173
DB03014	P0ABE7
DB01643	Q9HU22
DB03280	P23919
DB03431	P08192
DB03541	P04818
DB01576	Q96RJ0
DB00142	Q8TCU5
DB04894	P35346
DB03477	P35354
DB00391	P35462
DB01398	P23219
DB01907	P0A094
DB02080	P00803
DB02212	P15925
DB00359	Q27738
DB01355	Q16445
DB03186	P07998
DB03435	P30085
DB01338	P20309
DB03101	P00491
DB02687	P01857
DB03444	P49841
DB00423	P00915
DB01351	P36544
DB03417	P07477
DB03712	P12931
DB01253	P35348
DB03450	P15555
DB03431	P13569
DB04391	P07477
DB03431	P48637
DB00897	P48169
DB01565	P41145
DB00568	Q01668
DB03147	Q56839
DB01595	P47869
DB00402	P34903
DB01354	Q16445
DB04557	P23219
DB00896	P04150
DB03247	P55038
DB02338	Q16881
DB02212	P20035
DB00940	P25021
DB01594	P47870
DB01907	P00338
DB00114	P00505
DB01565	P41143
DB01341	P14867
DB00615	P0A8V2
DB03431	P27707
DB00589	P41595
DB00114	P19113
DB04027	P06732
DB01331	P0AEB2
DB03376	P07814
DB00025	Q07954
DB02944	P31723
DB04447	P00352
DB01176	P49888
DB03865	P00749
DB00368	P13945
DB01353	Q16445
DB00547	P04150
DB00704	Q5T1J1
DB00157	P07195
DB01595	P47870
DB02944	P81180
DB00656	P28335
DB00929	P35408
DB02875	P07477
DB04454	P01133
DB02379	P04958
DB00241	Q16445
DB02830	P00813
DB01392	P08908
DB02379	P23219
DB04400	P07101
DB01238	P21917
DB01623	P14416
DB00246	P46098
DB00114	P24298
DB03800	P13100
DB01238	P21918
DB02643	P27338
DB01149	Q01959
DB00475	P48169
DB01622	P35368
DB01624	P35348
DB04513	P62158
DB00142	Q12879
DB03088	P04746
DB00909	P27338
DB02932	P10275
DB03127	P07477
DB04395	P45066
DB01577	P27338
DB04379	P00797
DB01488	P28223
DB03552	P07101
DB02696	P15291
DB01992	P23181
DB00046	P06213
DB00568	O60840
DB00241	P34903
DB03136	P00749
DB01992	P0A5N0
DB00420	P25100
DB04821	P27338
DB01174	P47869
DB00131	Q08499
DB01752	Q54527
DB00171	P00519
DB00334	P18825
DB04113	P00326
DB03431	Q746L7
DB01114	P31645
DB01595	P28472
DB03147	P11310
DB00253	P04150
DB01409	P08172
DB01419	P23219
DB00129	P50440
DB00157	P14061
DB00264	P07550
DB04077	Q52369
DB03021	P68133
DB00157	P14060
DB01622	P14416
DB03127	P68400
DB01567	P18505
DB00139	P51649
DB01622	P35348
DB00418	P47869
DB01054	O95180
DB03685	P41007
DB00999	O43570
DB01354	P34903
DB02379	P46926
DB02944	P13688
DB02935	P14625
DB01238	P28566
DB01224	P28222
DB01159	O60391
DB03903	P68133
DB04820	P27338
DB00200	Q9Y4U1
DB00255	Q92731
DB01224	P28221
DB01403	P25100
DB03814	P0ACC7
DB01224	P46098
DB00114	P20711
DB01595	P31644
DB04054	P07900
DB00825	P41145
DB04325	P07477
DB01438	P35498
DB04107	P07477
DB01215	P18505
DB02366	P07477
DB04410	P07477
DB02057	P42262
DB01395	P08235
DB03213	P07477
DB00777	P35348
DB03512	P07998
DB01355	P34903
DB00306	P36544
DB00328	P14555
DB03892	P29475
DB01907	Q8KN66
DB00431	P48167
DB01558	Q16445
DB00246	P28222
DB01363	Q01959
DB01908	P12931
DB04395	P68133
DB01346	O00180
DB03904	P35222
DB04216	P11309
DB01363	P08588
DB00865	Q05940
DB03147	P12676
DB02952	P06850
DB00502	P35462
DB00726	P18089
DB01559	P24046
DB00463	P34903
DB01403	P18825
DB00582	P10613
DB04604	P27361
DB01454	P41595
DB01267	P08684
DB03501	P15291
DB01146	Q01959
DB03431	Q9WZW1
DB04017	P21397
DB00202	Q9GZZ6
DB02212	P18357
DB01558	P24046
DB02126	P69905
DB00777	P35367
DB04920	Q13936
DB01340	P12821
DB00373	P00720
DB03003	P08263
DB04522	P00634
DB01791	Q07343
DB00312	Q16445
DB03814	P49424
DB00157	O94788
DB00142	P54687
DB01369	P61177
DB04683	Q13285
DB01224	P20309
DB00248	P28223
DB00849	P42262
DB00920	Q08499
DB00599	P34903
DB00248	P28221
DB00248	P28222
DB00574	P31645
DB00313	P51649
DB00381	Q13936
DB00462	P20309
DB00988	P35462
DB02379	P02943
DB04920	O60840
DB00334	P46098
DB00328	Q04760
DB01712	P62942
DB00806	P29274
DB00029	P05121
DB01811	P02788
DB00376	P20309
DB01050	P13569
DB00835	P11229
DB01363	P13945
DB02379	P19367
DB00568	O43497
DB01127	P10613
DB00794	Q16445
DB01186	P41595
DB00786	P45452
DB01407	P13945
DB01436	P11473
DB01737	P07477
DB03461	P42330
DB00541	P68366
DB01303	P27815
DB01183	P41145
DB00114	Q9NVS9
DB04272	Q04095
DB01068	P31644
DB03814	P00521
DB03014	P04164
DB00245	P35367
DB01595	P24046
DB03968	P00797
DB01364	Q05940
DB01238	P50406
DB04395	P23677
DB02721	P00326
DB00170	Q8N0U8
DB00051	P31994
DB02175	P12931
DB01907	P49366
DB00679	Q12809
DB01407	P08588
DB01145	Q27738
DB01942	Q7DC80
DB01194	P22748
DB00398	P07949
DB04395	Q83LD8
DB00454	Q12879
DB01608	P21728
DB03251	P07477
DB01594	P24046
DB01149	P08908
DB00215	P11229
DB01931	Q05586
DB03014	P11712
DB03014	P29474
DB03147	P29475
DB00726	P28223
DB03014	P29475
DB01599	P23141
DB01496	P48169
DB04185	P00480
DB03408	P48637
DB00546	P47869
DB00897	P47869
DB03247	Q53ZE5
DB02148	P07858
DB00157	P26439
DB00703	P00918
DB00877	P42345
DB00334	P35348
DB03478	Q9NXA8
DB01656	P27815
DB03013	P15291
DB00054	P31994
DB00434	P11229
DB03283	P22303
DB04395	P0A6C8
DB00661	Q00975
DB01149	P08913
DB03461	O75874
DB03591	P12931
DB03144	P29475
DB03035	P68400
DB00842	Q16445
DB01224	P18825
DB02573	P07998
DB03147	P28593
DB00827	P43700
DB02482	P28482
DB03147	P37063
DB03147	P37062
DB00193	P20309
DB04465	Q26964
DB00424	P08173
DB00334	P14416
DB01224	P25100
DB03023	P12931
DB00586	P14555
DB02541	P35030
DB00246	P35368
DB03814	P22303
DB02426	P12235
DB01050	P10415
DB01363	Q05940
DB01068	P28472
DB00774	O43570
DB01577	P18825
DB02690	P09874
DB01142	P41595
DB01401	P35354
DB01105	Q01959
DB02556	P06850
DB00114	Q9GZT4
DB00056	P31994
DB00246	P18825
DB01352	P34903
DB01088	P34995
DB03323	Q9RHZ6
DB00334	P35368
DB03144	P05089
DB03147	Q9AGP8
DB04395	P0A6I3
DB02754	P07900
DB04238	P07477
DB02692	P29475
DB00413	P18089
DB01947	P12931
DB00420	P35348
DB00777	P08173
DB00280	P20309
DB01992	P0A5J4
DB00457	Q12809
DB04147	Q98GN8
DB01594	P31644
DB03431	P62219
DB00586	P35499
DB00171	P00966
DB03114	P12931
DB01353	P34903
DB04560	Q59334
DB00622	P54289
DB03431	P23919
DB00589	P35462
DB02381	P05089
DB00898	P00326
DB00904	Q13639
DB00898	P00325
DB01381	P23975
DB01403	P14416
DB04522	P05451
DB00477	P08908
DB00925	P07550
DB01454	Q01959
DB01239	P08912
DB00897	P47870
DB02726	Q7ADF8
DB01442	P27338
DB00248	P18825
DB00546	P47870
DB02944	P12319
DB03136	P00734
DB00904	P28222
DB01080	Q9UBS5
DB01583	P10827
DB03706	Q03013
DB03561	P07477
DB02824	P34896
DB01583	P10828
DB01594	P28472
DB00170	P16083
DB01483	P34903
DB00060	P17181
DB00401	P54289
DB00171	Q9NUB1
DB00703	P22748
DB01907	P04036
DB01621	P14416
DB01917	P11926
DB00244	P09917
DB01202	Q00975
DB01235	P21918
DB00145	Q12879
DB01235	P21917
DB01104	Q01959
DB01907	P54716
DB01238	P08912
DB01065	P16083
DB01907	P19992
DB01238	P08913
DB00875	P11229
DB00231	P18505
DB00420	P35367
DB01267	P28221
DB01351	P34903
DB00554	P35354
DB00652	Q99720
DB01871	Q9UBX1
DB01013	P04150
DB03832	Q9UKG9
DB01733	P14618
DB01625	P08173
DB00393	O00305
DB04573	Q92731
DB04753	P00491
DB00092	P31994
DB00794	P42262
DB03155	P07998
DB00114	P34897
DB03226	P01112
DB04272	Q14749
DB06148	P23975
DB00306	P31644
DB01535	P41145
DB01614	P28223
DB01992	P13702
DB01535	P41143
DB02379	Q60053
DB04754	P00491
DB02222	P00491
DB02062	P09960
DB02379	P30920
DB03014	Q52369
DB01267	P35367
DB00907	P08172
DB03253	P27487
DB03403	P30085
DB01942	P07998
DB04617	P22303
DB00372	P14416
DB01215	P47869
DB02465	O00519
DB03147	P39662
DB03014	P39662
DB00358	P29274
DB00376	P08173
DB01907	Q96T66
DB01992	Q9R381
DB00376	P08172
DB00393	O60840
DB00588	P08235
DB02096	P00813
DB04743	P02788
DB01354	P14867
DB01267	P35368
DB03431	Q94M05
DB00734	P21917
DB01907	Q14376
DB03784	P14555
DB04144	Q00987
DB01142	P08908
DB01398	P35354
DB00231	P47870
DB04719	P68400
DB00628	P18505
DB03621	P62942
DB01812	P07998
DB04616	P22303
DB00768	P04271
DB03247	P71278
DB00462	P08172
DB01992	P21340
DB02944	Q9Y286
DB01159	Q8TCU5
DB00116	P34897
DB00418	P34903
DB00909	Q15858
DB00909	Q14524
DB01068	P24046
DB01186	P21917
DB01221	P14416
DB01186	P21918
DB00142	O94925
DB03431	P15879
DB04395	P06239
DB03850	P68133
DB00898	P07327
DB01907	Q99714
DB01224	P08172
DB00661	Q9P0X4
DB01224	P08173
DB00197	P62508
DB02379	O82839
DB02078	P30405
DB02379	P69178
DB00502	P28223
DB04615	P22303
DB01346	P47869
DB01142	P08913
DB01142	P08912
DB00246	P08172
DB01685	P47989
DB01193	P07550
DB01173	Q9Y5Y9
DB01049	P35348
DB01267	P35348
DB02267	P04424
DB01992	O06414
DB03461	P16435
DB00722	Q9BYF1
DB00904	P35372
DB01907	P52961
DB04464	P04271
DB02077	P29474
DB01248	P11137
DB02796	P00491
DB02077	P29475
DB03847	P02818
DB01992	P43155
DB01631	P01857
DB00440	P04818
DB01907	Q9X108
DB02379	Q9ZEU2
DB04757	P00491
DB00246	P08173
DB03014	P29422
DB00728	P46098
DB01174	P34903
DB01942	P42321
DB01699	P80404
DB03566	Q16881
DB01224	P35348
DB01239	P11229
DB03608	P07477
DB01618	P28223
DB00095	P31994
DB01169	Q16881
DB03902	P12931
DB02911	P29474
DB00408	P28335
DB04271	Q08499
DB00306	P43681
DB01907	P0A9T0
DB01076	P27487
DB02193	P00734
DB03461	P0ABQ4
DB00363	P35462
DB00849	Q16445
DB04147	P06129
DB01454	Q05940
DB01238	P11229
DB03431	Q969G6
DB01752	P13956
DB02944	P07339
DB00157	P23368
DB00186	Q16445
DB01198	P31644
DB03003	Q03013
DB03129	P35030
DB00589	P18089
DB00312	P42262
DB00142	P07814
DB01050	P07204
DB03461	P04035
DB04315	Q9U8D3
DB00098	P31994
DB01215	P47870
DB01064	P28482
DB00714	P28335
DB01085	P20309
DB04109	P35030
DB01079	P28335
DB00628	Q16445
DB01185	P04150
DB01752	Q9WYV8
DB02944	P00736
DB04574	Q92731
DB00151	Q9Y697
DB02359	P07900
DB00243	Q14524
DB00131	P49773
DB01252	P37231
DB01420	P10275
DB00568	Q13936
DB03247	P16435
DB00243	Q15858
DB01800	P15289
DB02193	P00749
DB00801	P18505
DB01392	P28222
DB01392	P28223
DB00202	P08172
DB01567	P47870
DB02585	P35030
DB01392	P28221
DB01363	P08913
DB00157	P12268
DB03909	P0A5S4
DB01043	P46098
DB01907	P61889
DB00237	P47869
DB00063	P05106
DB02379	P29957
DB03814	P06276
DB01267	P18825
DB00013	P98164
DB01959	Q08499
DB04272	P14174
DB00157	O95298
DB00247	P41595
DB00589	P28223
DB02994	P29474
DB00589	P28222
DB00589	P28221
DB02850	P32754
DB00217	P48048
DB01142	P11229
DB03014	P14779
DB03100	P35228
DB02783	P00505
DB01392	P14416
DB00142	P08243
DB03974	P29474
DB00583	P05164
DB00409	P35462
DB01175	P35348
DB01403	P21918
DB01403	P21917
DB00540	P28223
DB00128	Q7L266
DB01955	P14555
DB01942	Q8MU52
DB01907	P13702
DB01624	P08913
DB00248	P41595
DB02644	P29475
DB00929	P43116
DB00237	P34903
DB00929	P43115
DB03014	P35228
DB04783	P68133
DB03559	P08319
DB06288	P34969
DB03048	Q12882
DB03643	P07477
DB00122	P06276
DB02379	P26827
DB03909	O00764
DB03014	P00147
DB00054	P12318
DB03014	P23222
DB00118	P21964
DB01907	Q9ZGH3
DB00801	P47870
DB03608	P19801
DB00726	P14416
DB00458	P28223
DB01771	P07477
DB00157	P11766
DB00157	P05091
DB00321	P20309
DB04057	P31939
DB00274	P0AEB2
DB00726	P35348
DB03431	P33221
DB02379	P43379
DB01942	Q9X0N8
DB00157	P30043
DB00464	P07225
DB02153	Q9ZIV5
DB02944	P05546
DB01067	Q09428
DB00114	Q16773
DB00142	P80404
DB02076	P06744
DB02944	Q9UKM7
DB01110	Q9H252
DB00393	P54284
DB02665	P07477
DB02266	P10275
DB04356	P00492
DB01114	P23975
DB02379	P13507
DB00074	P14784
DB03801	O25323
DB00687	P04150
DB00157	P05093
DB01907	P23526
DB03726	P07998
DB00143	P08263
DB01303	P30542
DB02515	P16118
DB00270	Q9NY47
DB00125	P00966
DB00674	Q9UGM1
DB04272	P00808
DB00734	P08908
DB02379	Q08751
DB02379	P01552
DB03014	P00167
DB00952	P08908
DB02689	P05089
DB00333	P41143
DB00056	P12318
DB00404	P18505
DB03876	P00749
DB00145	Q9BYV1
DB00768	Q99584
DB00173	O00763
DB00143	O43708
DB04614	P22303
DB00015	P00747
DB02379	P01556
DB01992	P31572
DB00726	P35368
DB03314	P09488
DB02751	Q14353
DB04369	P35030
DB00726	P35367
DB01351	P14867
DB00114	P21549
DB02379	P00692
DB03801	Q9WYE2
DB02379	P00691
DB01397	P35354
DB00107	P30559
DB04795	P23141
DB00349	P28472
DB00171	Q09428
DB03125	P00374
DB00349	P31644
DB03865	P07477
DB00540	P20309
DB00231	Q16445
DB01381	P14555
DB01483	P14867
DB01496	P36544
DB00231	P47869
DB01599	O95477
DB00734	P08913
DB03247	P0AFI7
DB03573	Q9UBX1
DB00170	P15559
DB01186	P08908
DB00363	P18089
DB03581	P06744
DB03664	P30085
DB05246	O43497
DB00842	P18505
DB04648	P05089
DB04395	P29317
DB00151	P48637
DB00860	P04150
DB03435	P09147
DB01175	P35367
DB03710	P29475
DB00458	P20309
DB04552	P35354
DB01218	P46925
DB02212	Q9R8E3
DB03147	P06715
DB00546	P34903
DB00413	P28223
DB00897	P34903
DB00413	P28222
DB00413	P28221
DB01186	P08913
DB03431	P00367
DB03685	P77398
DB00157	P13995
DB03900	P07998
DB03191	Q00266
DB03431	P10153
DB01352	P14867
DB00780	P24298
DB01723	P62942
DB01548	P35372
DB00622	P11229
DB00170	P02818
DB02328	P32929
DB00171	P49902
DB03554	Q12882
DB01238	P46098
DB04141	P00156
DB01567	P24046
DB01159	Q12879
DB02944	Q46079
DB03247	P0A2Y7
DB01089	Q05940
DB01587	P30536
DB04424	P07477
DB01549	P14416
DB00030	P29120
DB04530	P05089
DB02633	P15559
DB04685	P33316
DB01223	Q92769
DB00697	P18825
DB01215	P24046
DB02296	P00797
DB00030	P98164
DB00836	P41145
DB04336	P07477
DB00921	P41143
DB02464	P07477
DB01997	P35228
DB02818	P42262
DB00231	P28472
DB01174	P42262
DB04832	P27338
DB02944	P02671
DB00270	Q08289
DB01288	P08588
DB04395	P13569
DB00111	P31994
DB00643	P68371
DB00231	P31644
DB03677	P34913
DB00349	Q16445
DB00877	P09038
DB01454	P28223
DB00351	P04150
DB00157	P09601
DB03864	P48147
DB01267	P10635
DB02112	P07477
DB01242	P41595
DB04178	P12235
DB02463	P07477
DB00734	P18089
DB01992	P0A6R0
DB00849	P43681
DB00747	P08172
DB00110	P31994
DB00747	P08173
DB04326	P04075
DB03443	P07477
DB03003	P09211
DB00114	Q96GD0
DB01110	P29474
DB03461	P30043
DB03693	P78368
DB00270	Q01668
DB00142	O60391
DB00794	P48169
DB03128	P22303
DB02944	Q9HYN5
DB01483	P42262
DB00292	P18089
DB00387	P20309
DB03247	Q12882
DB00031	P00747
DB03317	P0A592
DB01972	P31939
DB00028	P31994
DB01238	P28221
DB01238	P28222
DB00797	P08913
DB02659	P62508
DB00558	Q9Y3R4
DB04444	P30085
DB00711	P23219
DB01108	P03372
DB01561	P00947
DB00315	P08908
DB00475	P34903
DB01880	P14174
DB01186	P18089
DB03014	P0A094
DB01200	P41595
DB01351	P42262
DB00268	P41595
DB04339	P09211
DB00674	Q9GZZ6
DB00249	Q9QNF7
DB00454	Q05586
DB04599	P42262
DB03147	O31616
DB02093	P06744
DB01215	P31644
DB00522	P05981
DB01184	P35462
DB00242	P23921
DB01288	P13945
DB03431	P0A6C8
DB03461	Q01782
DB04570	P24228
DB04275	P35270
DB02216	P07339
DB00334	P28335
DB01907	P11759
DB04395	P0A820
DB00074	P12318
DB00642	P31939
DB00835	P08172
DB01419	P35354
DB00835	P08173
DB03317	P99999
DB02642	P00807
DB00157	Q92781
DB00964	P35348
DB00142	P00505
DB04272	Q9Y663
DB01151	P08173
DB00114	Q8IYQ7
DB00734	P35462
DB03279	P13631
DB03506	P07741
DB02918	Q08499
DB01007	P10613
DB01588	P34903
DB04077	P06988
DB03147	P0C278
DB01215	P28472
DB03014	P0C278
DB00075	P12318
DB00248	P28335
DB01752	Q14353
DB00708	P41143
DB03247	Q9WZW1
DB00708	P41145
DB00171	P33121
DB00674	P17787
DB00470	P34972
DB02944	P23141
DB01907	Q9HAN9
DB00246	P21728
DB00223	P04150
DB01992	P10802
DB03217	P12931
DB00285	Q01959
DB00171	P08183
DB00397	P08588
DB01198	P14867
DB02379	P47929
DB01589	P34903
DB00071	P29120
DB01907	Q16836
DB04505	P07900
DB01238	P35367
DB01267	P20815
DB01238	P35368
DB00131	P06737
DB00388	P25100
DB03660	P27487
DB01992	P0A6I3
DB02726	P0AB91
DB00477	P35348
DB01388	Q13698
DB00694	P11388
DB01363	P27338
DB01295	P07550
DB01992	P0A6I8
DB03461	P29475
DB04464	P22629
DB00795	P23219
DB00852	P23975
DB00726	P21728
DB01992	P96618
DB00583	P23141
DB04246	P07477
DB04462	P68400
DB01023	P63316
DB04223	P29475
DB00434	P08172
DB04223	P29474
DB00628	P31644
DB01280	P09884
DB00143	O60760
DB00425	P47869
DB00054	P04004
DB01836	P07477
DB00073	P11836
DB02427	P00374
DB02845	P22303
DB00071	P98164
DB03572	P00813
DB01238	P35348
DB02533	P35228
DB04213	P34913
DB01373	P63316
DB00849	P31644
DB03907	P21964
DB00334	P35462
DB00477	P35368
DB00801	P31644
DB01207	P24557
DB00477	P35367
DB01200	P08908
DB03256	O95954
DB04395	P48637
DB04077	P00325
DB02044	P29474
DB00909	P35499
DB01992	P0ACC7
DB03220	P00813
DB01147	P0A3M5
DB02044	P29475
DB00196	P10613
DB00268	P08908
DB02007	P06744
DB03080	P07900
DB00838	P04150
DB01403	P18089
DB01014	P09917
DB01863	P23677
DB03431	P07998
DB00801	P28472
DB01110	Q9Y691
DB00794	P36544
DB01142	P28223
DB01656	Q07343
DB00248	P35462
DB02052	P24941
DB01278	P30988
DB01173	P23975
DB01705	P07477
DB01388	Q01668
DB02288	P07477
DB01238	P18825
DB00270	Q13698
DB01577	Q01959
DB01907	P26392
DB00157	P52895
DB03431	P0A1P6
DB01907	P26391
DB04821	Q01959
DB00035	P30518
DB01942	P0A7E1
DB01050	P00750
DB02059	O33199
DB03685	P15291
DB02379	P23904
DB03431	P10721
DB01263	P10613
DB00171	Q07912
DB01267	P28335
DB03247	P29475
DB04387	P00797
DB01472	P31645
DB03014	P08684
DB00244	P37231
DB03332	P29474
DB00215	P35348
DB03431	P04035
DB00568	O95180
DB00268	P08913
DB01440	P18505
DB02822	P00326
DB02944	P27915
DB03904	P05089
DB01992	Q8ZPC0
DB02287	P07477
DB03336	P21964
DB00231	P24046
DB03431	Q56313
DB00145	Q14957
DB00530	O75469
DB01179	P07437
DB01200	P08913
DB00560	P0A7S3
DB01154	Q14654
DB00696	P35368
DB01684	P48147
DB01907	P37062
DB00119	P11498
DB00312	P36544
DB03431	P03176
DB00394	P04150
DB00562	O43570
DB00795	O14920
DB03032	Q03013
DB03147	P42593
DB02068	P13716
DB03461	P16184
DB01267	P21728
DB02379	P0AEX9
DB00142	Q14957
DB04629	P68133
DB01200	P21918
DB01200	P21917
DB01600	P23219
DB01907	Q9NXA8
DB01442	Q01959
DB03882	Q92731
DB01113	Q9Y233
DB02726	P14618
DB00907	Q01959
DB01175	P23975
DB00215	P35367
DB01844	P00797
DB00393	Q02641
DB01329	P24228
DB00268	P21918
DB02010	Q04759
DB04249	P99999
DB03924	P68400
DB03431	P26281
DB00696	P25100
DB00162	O94788
DB01142	P20309
DB03461	Q7Z4W1
DB00661	Q12809
DB00418	P42262
DB02048	P29474
DB04147	Q02127
DB01711	P00326
DB02621	P68133
DB03136	P07477
DB03147	P09546
DB00306	Q16445
DB01064	P13945
DB01251	Q15842
DB00768	P80511
DB01388	Q08289
DB01907	Q9ZF99
DB01907	P0C0F4
DB01496	P34903
DB00157	P20839
DB01595	P48169
DB01328	P24228
DB02110	P99999
DB03953	P35228
DB02510	P07814
DB01791	P27815
DB04799	P00156
DB01224	P18089
DB01151	P08912
DB01741	P07477
DB00628	P24046
DB00237	P42262
DB05039	P07550
DB01142	P25100
DB03065	P29474
DB03758	P08238
DB00157	P00338
DB02210	P01112
DB00424	P20309
DB00671	P44469
DB02379	P04746
DB02379	P04745
DB01303	P29274
DB03431	O14965
DB04071	P00326
DB03147	P27338
DB00454	O15399
DB02404	P22303
DB00402	P31644
DB04843	P11229
DB01907	O08355
DB00831	P63316
DB00835	P08912
DB00865	Q01959
DB04576	P43700
DB04272	Q9WZW1
DB01088	Q07343
DB01548	P41145
DB04576	P43702
DB00157	P00352
DB01019	P08172
DB01388	O60840
DB01876	P07477
DB03801	Q9HTQ2
DB03415	P11310
DB00246	P18089
DB04566	P12268
DB04534	P35228
DB01369	P0A7J6
DB04009	P00167
DB03173	P07477
DB04272	P12931
DB00114	O15270
DB01577	P18089
DB03014	P09917
DB00142	Q9Y617
DB01287	P08913
DB03847	P00734
DB02989	P07477
DB03814	P15291
DB06439	P06858
DB02379	P05618
DB04310	Q9HBH1
DB00583	P47989
DB01238	P08172
DB02193	P07477
DB01238	P08173
DB01576	Q05940
DB00466	P23416
DB01587	P14867
DB04400	P35228
DB01267	P35462
DB01907	P95780
DB00312	P43681
DB04522	P13569
DB00114	O15269
DB01393	P37231
DB00114	P80404
DB02379	P0AEK4
DB02393	P16118
DB01614	P21728
DB01118	O95180
DB03801	P39377
DB00404	P28472
DB01142	P18825
DB00674	Q15822
DB01364	P35348
DB00463	P47869
DB00143	Q16775
DB01110	P35228
DB00157	P00367
DB01577	Q05940
DB03828	P12931
DB00157	P03886
DB00786	P22894
DB00157	P00374
DB01224	P35462
DB00248	P18089
DB01942	P29475
DB01745	P07477
DB02868	P62158
DB01346	Q14524
DB00143	Q04760
DB01392	P28335
DB00134	Q93088
DB03298	P12931
DB03781	O00763
DB04299	P17174
DB02845	P06276
DB00841	P07550
DB01363	P18825
DB03147	Q06319
DB00818	P35499
DB00157	P00387
DB01866	P12931
DB03442	P31939
DB00801	P24046
DB01983	P05089
DB00842	P31644
DB04152	P42262
DB01192	P41143
DB01625	P20309
DB03431	O00764
DB00734	P28221
DB00449	P06276
DB00842	P28472
DB01591	P08912
DB02805	P07998
DB03149	P03369
DB03847	P00742
DB01068	P48169
DB01442	Q05940
DB00186	P24046
DB01239	P08172
DB02059	Q9NXA8
DB00142	Q13255
DB01239	P08173
DB01115	O95180
DB00142	Q13224
DB03461	P16100
DB04137	P16118
DB00157	P00390
DB00119	P80404
DB00628	P28472
DB00142	P17735
DB00367	P10275
DB03078	P12931
DB00925	P08913
DB04233	P74334
DB02812	P07477
DB00599	P47869
DB00171	P31749
DB02684	P07814
DB02363	P07998
DB03349	P49773
DB01388	O00305
DB00171	Q08828
DB03754	Q8WVQ1
DB01118	Q9NY47
DB00334	P18089
DB02379	Q9HYN5
DB00172	P30405
DB00454	Q14957
DB01907	P06715
DB01992	P09373
DB00692	P35348
DB03929	Q05586
DB00466	O75311
DB04495	P12931
DB01186	P28223
DB02379	P37698
DB01186	P28222
DB03886	P00374
DB01186	P28221
DB00031	P27797
DB02063	P07477
DB00568	Q9P0X4
DB01226	P20309
DB03977	P62158
DB01197	P14780
DB01351	P47869
DB03801	Q70AC7
DB00157	P32322
DB03014	P35354
DB00125	P29474
DB00661	P31645
DB02032	P52700
DB00794	P31644
DB04721	P68400
DB00489	P07550
DB00246	P20309
DB04464	P00395
DB00244	P05164
DB01410	P04150
DB03691	Q9UBX1
DB01352	P47869
DB00589	P28335
DB00334	P28221
DB00334	P28222
DB04821	P05164
DB04825	P62158
DB04720	P68400
DB04530	P0ACB2
DB06148	P31645
DB00143	P09210
DB00072	P04626
DB02226	P22303
DB00920	Q08493
DB01558	P31644
DB01142	P08173
DB00721	Q15822
DB00143	P09211
DB01142	P08172
DB01769	P48147
DB01186	P35368
DB02855	P07858
DB00328	P37231
DB03014	Q08129
DB02044	P35228
DB01452	P41145
DB01244	O95180
DB01452	P41143
DB01992	Q04416
DB01406	P06401
DB04281	Q02127
DB00640	P30542
DB00404	P24046
DB00312	P31644
DB03226	P00326
DB00246	P34969
DB02047	P23219
DB01752	P50135
DB01536	P14060
DB00311	P00918
DB03431	P0A9J6
DB03876	P07477
DB00507	P94692
DB01942	P0A733
DB00142	O15399
DB01558	P28472
DB04464	P03886
DB01102	P13945
DB00740	Q9UPY5
DB01483	P47869
DB00142	O15382
DB02049	P45452
DB00491	P10253
DB00546	P18505
DB02944	P03472
DB00349	P48169
DB00897	P18505
DB00332	P20309
DB02266	P23219
DB02375	P48736
DB01205	P31644
DB01915	P07097
DB01054	Q13936
DB01392	P35462
DB04272	P07998
DB01186	P35348
DB01224	P34969
DB00756	O14521
DB00145	O60391
DB00842	P24046
DB00413	P28335
DB01472	P21397
DB02212	P08164
DB03096	P07339
DB00306	P48169
DB01355	P47869
DB00248	P34969
DB02379	P13650
DB02059	P0A9S1
DB00202	P20309
DB02466	P13631
DB01626	P27338
DB01186	P25100
DB01496	P14867
DB04768	Q9H3S4
DB01622	P28223
DB01142	P14416
DB01346	P42262
DB02098	P07998
DB00794	P43681
DB00734	P18825
DB01267	P18089
DB02239	P13716
DB01023	O95180
DB00130	Q06203
DB02944	P27487
DB00579	P31645
DB00239	P10613
DB03081	P07477
DB03814	Q84FH6
DB06262	P13945
DB01907	P07195
DB00108	P31994
DB00543	P21728
DB03431	P54278
DB01033	P00492
DB01621	P28223
DB03722	P09874
DB02764	P07477
DB01244	Q9NY47
DB01403	P28223
DB01142	P35368
DB01559	P28472
DB03147	P26440
DB00157	P48728
DB00915	Q8TCU5
DB03431	P24425
DB03944	P63316
DB01559	P31644
DB02103	P14625
DB01907	Q07982
DB01353	P47869
DB00818	P47870
DB00747	P08912
DB03276	P62993
DB03980	Q16539
DB01023	Q9NY47
DB01179	P68366
DB00536	P07998
DB00311	P22748
DB00413	P21728
DB01624	P28223
DB00029	P00747
DB03431	P14625
DB03523	Q02127
DB04272	P39126
DB01738	P05771
DB01162	Q12809
DB02379	P24300
DB02424	P08238
DB00425	P34903
DB01388	P54284
DB00805	P21397
DB00334	P34969
DB00449	P07550
DB01595	Q16445
DB01354	P47869
DB00241	P47869
DB01037	P21397
DB00716	P07900
DB04141	O14521
DB01186	P18825
DB01623	P28223
DB02714	P07998
DB01907	P00587
DB02249	P00326
DB01972	Q08188
DB00454	Q13224
DB01142	P35348
DB03814	Q9ZAG3
DB00241	P31644
DB01589	P18505
DB04842	P28223
DB00540	P08908
DB00592	P28472
DB02116	P28482
DB00393	Q08289
DB00289	P31645
DB00449	P35348
DB01355	P31644
DB01626	P21397
DB04129	P42262
DB03721	P03472
DB02105	P21964
DB02308	P35030
DB00182	Q05940
DB01197	P08253
DB01972	P49773
DB00993	P00492
DB01299	P13922
DB02908	P12931
DB03777	O15530
DB00321	P08912
DB02198	P23219
DB03461	P14941
DB04654	P07477
DB00683	P24046
DB01588	P18505
DB01805	P07477
DB00540	P08912
DB00251	P10613
DB01907	P77674
DB01483	P43681
DB00270	O95180
DB03685	P0AA43
DB01406	P10275
DB01198	P47869
DB00909	Q99250
DB00797	P35367
DB00475	P18505
DB01149	P28335
DB02944	P08069
DB02379	Q47644
DB02944	P12564
DB04137	Q84424
DB00393	Q01668
DB00171	P08243
DB01939	P07477
DB01023	Q08289
DB04272	O76074
DB01951	P62942
DB04215	P07477
DB00157	P04035
DB00231	P48169
DB01073	P27707
DB01110	O15554
DB00268	P28223
DB04514	P07998
DB00268	P28221
DB02153	P32119
DB00268	P28222
DB02452	Q9HU22
DB01353	P31644
DB04786	P23945
DB03461	P11413
DB04218	P00813
DB01200	P28221
DB01200	P28222
DB01200	P28223
DB01124	Q09428
DB02772	Q9L5C7
DB02944	P23219
DB03247	P42593
DB02379	P19571
DB00589	P08913
DB03024	P00797
DB02234	P29474
DB01907	P07327
DB02944	P02788
DB03719	P14625
DB03637	P35030
DB00114	P32929
DB04781	P13716
DB04301	P07477
DB02548	P06744
DB01907	Q88CZ6
DB02126	P68871
DB01354	P31644
DB01454	P28335
DB04114	P22303
DB00277	Q92769
DB01068	P47869
DB02944	P01008
DB02944	P49424
DB00237	P48169
DB02499	P05089
DB01736	P12235
DB00151	Q9BZV2
DB00143	P28161
DB00905	P42330
DB01960	P06730
DB00157	P42330
DB00463	P31644
DB01363	P23975
DB00193	Q8TCU5
DB01472	Q01959
DB04315	P63000
DB01810	Q9UBX1
DB00589	P21917
DB00589	P21918
DB00458	P08912
DB01353	P43681
DB00418	P36544
DB03056	P23141
DB00393	P08235
DB01577	P31645
DB00543	P08913
DB04254	P07900
DB03014	P68871
DB01618	P11229
DB03461	P00325
DB01115	P62158
DB03014	Q00441
DB03147	P21397
DB03088	P15692
DB00795	P09917
DB01835	P35228
DB03359	P22303
DB03967	P37001
DB00098	P42081
DB00909	Q9UI33
DB01972	P0AG16
DB00431	P18505
DB01905	P00749
DB00622	P35348
DB01238	P28335
DB04137	P00367
DB01023	P08235
DB00668	P35368
DB04556	P22303
DB01354	P43681
DB00241	P43681
DB01496	P42262
DB01907	P08200
DB01054	Q9NY47
DB01068	P47870
DB04795	P31040
DB03305	P29474
DB00413	P08908
DB00280	P11229
DB00786	P51512
DB03005	P22303
DB01351	P43681
DB00349	P18505
DB02336	P12931
DB01017	P99999
DB00602	O75311
DB02483	P00338
DB02859	O00763
DB03297	P05981
DB00477	P21728
DB01054	P54289
DB01381	P14867
DB03014	Q8GR64
DB02637	P35270
DB01907	P40394
DB02983	Q92731
DB02285	P02792
DB00599	Q16445
DB00909	P00918
DB00819	P22748
DB00159	Q03181
DB01352	P43681
DB03147	P47989
DB04012	P62942
DB00257	P10613
DB02589	P29474
DB00668	P25100
DB00131	Q07343
DB00715	P08172
DB02379	P36924
DB00715	P08173
DB03014	Q8VQF6
DB01238	P21728
DB01364	P23975
DB00201	P21817
DB00622	P35368
DB01175	P11229
DB01837	P23219
DB02152	Q02750
DB03147	Q12882
DB03014	P35520
DB00227	P20701
DB00396	P08235
DB01907	P22513
DB01928	P22303
DB02508	P14324
DB00413	P08913
DB04018	P29474
DB03866	P35354
DB02379	Q54331
DB04570	P02918
DB01142	P28335
DB03494	P07477
DB00418	P43681
DB04570	P02919
DB00157	P51649
DB01115	Q08289
DB03643	P05981
DB01769	O33830
DB03247	Q02127
DB00747	P20309
DB01115	Q01668
DB02315	O00408
DB02659	P00326
DB04125	P07477
DB02303	Q12882
DB00159	Q8NER1
DB01907	O94788
DB00145	P50440
DB02143	P29475
DB03431	P0A6W9
DB04395	P33221
DB03061	P00326
DB01435	P23219
DB03273	P23526
DB03435	P04547
DB03792	P07998
DB00075	P31994
DB04136	P00734
DB03014	P09601
DB00195	P07550
DB00157	Q13423
DB00363	P08913
DB01559	P14867
DB03093	P07900
DB00363	P08912
DB00496	P08912
DB04187	P09488
DB02352	P09960
DB03758	P14625
DB04741	P31930
DB00349	P47869
DB04039	P06129
DB00393	Q13698
DB04469	Q08499
DB01065	P62158
DB04844	P14416
DB00543	P11229
DB01972	P0A9M5
DB04151	P68133
DB00078	P31994
DB00458	P11229
DB01238	P35462
DB03015	P00813
DB00268	P18825
DB00849	P48169
DB01097	Q14289
DB02998	P10275
DB00674	P36544
DB03616	P68133
DB01200	P35368
DB01200	P18825
DB03431	Q00266
DB01014	P37231
DB03918	P29474
DB00829	P18505
DB03429	P12235
DB01466	P35372
DB02379	P07986
DB03014	P0A592
DB00171	Q92887
DB01558	P14867
DB01472	Q05940
DB01229	P11137
DB02141	P29474
DB03247	P38489
DB01023	Q13698
DB00349	P47870
DB00237	P36544
DB00421	P10275
DB01287	P28223
DB03987	P00374
DB01291	P08588
DB00687	P10275
DB01065	P05164
DB01200	P25100
DB01384	P04150
DB03147	Q16881
DB04021	P22303
DB01068	P34903
DB00749	P19793
DB02944	P01857
DB01785	P14324
DB02691	P51161
DB00054	P08514
DB01425	P14416
DB03149	P23946
DB01299	Q27738
DB04585	P05089
DB01159	Q12791
DB04560	P13716
DB03147	P22637
DB00795	P35354
DB01594	P34903
DB01110	Q12791
DB03028	P07339
DB03147	P06149
DB03865	P05981
DB03814	Q9FCA6
DB04272	P45568
DB01351	P31644
DB00145	Q7Z2H8
DB04338	P28482
DB01598	P42971
DB00672	Q09428
DB04432	P07477
DB04272	P16608
DB01087	P16083
DB02944	P12528
DB01289	Q15842
DB01595	P34903
DB00131	P16220
DB02472	P00813
DB01151	P20309
DB00835	P20309
DB01352	P31644
DB00714	P41595
DB00363	P28566
DB01587	P18505
DB03159	P00749
DB03040	P02788
DB04132	P08263
DB01069	P62158
DB02498	P09874
DB01023	Q01668
DB03461	P42593
DB00818	P28472
DB02659	P00395
DB01907	P17584
DB04395	P59846
DB03020	P00326
DB04132	Q03013
DB03431	Q9HTN2
DB03016	P07477
DB03329	P07858
DB00114	P17735
DB00575	P18825
DB03014	Q746J6
DB03268	P12931
DB02800	P34896
DB04076	P00491
DB00157	P15121
DB03448	P07998
DB02080	P14555
DB00320	P08913
DB00321	P08908
DB00114	O94903
DB00306	P47869
DB04563	P07477
DB01174	P43681
DB00622	P08173
DB03159	P00734
DB00622	P08172
DB00402	P14867
DB01154	Q15842
DB03447	P07998
DB01483	P31644
DB01791	Q08493
DB04133	Q8XJ01
DB00818	Q99250
DB01117	Q08210
DB02888	P62942
DB01907	P14061
DB01791	Q08499
DB02701	P00338
DB00475	P47870
DB04315	P60339
DB03611	Q00266
DB03841	P47989
DB00586	O43526
DB04574	P03372
DB00363	P11229
DB00198	Q9Y3R4
DB01766	P54577
DB03814	P31434
DB00496	P11229
DB01327	P02919
DB01589	P47869
DB01327	P02918
DB01150	P0A3M5
DB01588	P47870
DB00157	Q99714
DB00620	P04150
DB00157	P11586
DB00852	Q01959
DB03759	P42262
DB00674	P06276
DB01752	Q14749
DB03910	P29474
DB00714	P08908
DB04126	P07858
DB02944	P17342
DB01229	O75469
DB01309	P06213
DB00586	P78348
DB01100	P35462
DB01488	Q99720
DB02379	Q9BW91
DB01608	P08913
DB01907	P30901
DB03431	P13000
DB01328	P02918
DB01065	P27797
DB00306	P34903
DB04896	Q05586
DB01328	P02919
DB02379	P00490
DB03878	P00519
DB01496	Q16445
DB02979	P29474
DB00398	P11362
DB00129	Q8WY07
DB03849	Q08499
DB00634	P0AC13
DB00169	P11473
DB00875	P28223
DB00809	P11229
DB04010	P09874
DB04035	P00811
DB00714	P08913
DB03014	P99999
DB03083	P78368
DB00674	P43681
DB04272	P05042
DB01041	P21802
DB01414	P02919
DB01339	Q15822
DB01329	P02919
DB01329	P02918
DB01414	P02918
DB01442	P21397
DB00667	Q9H3N8
DB03431	P06710
DB01238	P18089
DB04447	Q9ZEU2
DB00715	P08912
DB00045	O60603
DB00640	P29274
DB00640	P29275
DB00734	P28335
DB03203	P03300
DB01907	O24990
DB04094	P62942
DB03014	P0A514
DB04639	P01857
DB03014	P0A512
DB02550	P07900
DB02687	P27915
DB00599	P42262
DB01997	P29475
DB00842	P48169
DB00852	P31645
DB01415	P02918
DB04786	P14555
DB01415	P02919
DB01588	P47869
DB04315	P01112
DB00114	O15382
DB01115	Q13698
DB02824	P11926
DB01766	P00734
DB00934	P08912
DB01611	Q9NR96
DB03928	P32929
DB00171	O14727
DB02526	P00749
DB01907	P23368
DB01664	P42262
DB02871	P00326
DB00409	P21917
DB00475	P47869
DB03183	Q08499
DB00072	P31994
DB00925	P18825
DB01907	P69167
DB04395	P19367
DB01612	P16066
DB01186	P28335
DB00173	Q8RLY5
DB03461	Q59931
DB03431	P06732
DB01907	P12268
DB01767	P00734
DB01331	P24228
DB01198	P34903
DB02741	P13631
DB00398	P17948
DB00545	P06276
DB00831	P62158
DB01577	P21397
DB00734	P21728
DB01200	P35348
DB03014	Q9HX49
DB01337	P08172
DB03014	O34453
DB00661	Q08289
DB04537	P23381
DB00780	P80404
DB00569	P00742
DB04821	P21397
DB00363	P50406
DB00909	P21397
DB00115	Q99707
DB00031	Q07954
DB00418	P31644
DB02656	P48736
DB00431	P23415
DB00431	P23416
DB01174	P31644
DB03597	Q03013
DB00307	P19793
DB00157	Q96C36
DB00074	P31994
DB04395	P08690
DB00157	P28845
DB00438	P02918
DB00438	P02919
DB00321	Q09470
DB04820	P21397
DB00321	P11229
DB01151	P28223
DB00157	P14679
DB00431	O75311
DB01325	P55011
DB02999	P42262
DB01036	P08912
DB02944	P06276
DB03419	Q12882
DB03338	P62942
DB01329	P0AEB2
DB00073	P31994
DB01235	P35462
DB04776	O00764
DB00697	P18089
DB00540	P11229
DB00126	P09172
DB00628	P48169
DB00846	P04150
DB00157	P11177
DB01380	P04150
DB02311	P62942
DB04470	P07477
DB00412	O60488
DB01821	P29475
DB01338	P08172
DB01821	P29474
DB00912	P37231
DB06274	P41145
DB06274	P41143
DB02508	P71278
DB03431	P23677
DB02762	P12931
DB00237	P31644
DB04137	P03300
DB02209	P11926
DB01303	Q92769
DB00590	Q9H252
DB00934	P11229
DB01496	P47869
DB00822	P09172
DB01238	P20309
DB01907	O33830
DB01151	P35348
DB02059	Q84CU3
DB00368	P07550
DB00374	P43119
DB00715	P11229
DB03431	P0A6F3
DB01907	Q6GGU4
DB00241	P42262
DB02379	P37700
DB01354	P42262
DB01686	P29474
DB02944	P16410
DB03525	P12931
DB00669	P08908
DB02987	P07998
DB02673	P22303
DB00668	P08913
DB01110	Q12809
DB00407	P01008
DB00546	P24046
DB00747	P14410
DB01142	P18089
DB00805	P22303
DB00897	P24046
DB00172	P62937
DB01632	P07741
DB01907	P11766
DB04770	O00764
DB00829	P47870
DB01907	P05091
DB00392	P08172
DB00342	P20309
DB00635	P28845
DB01355	P42262
DB04522	P02974
DB03431	P69441
DB01238	P34969
DB00248	P21728
DB00939	O43526
DB01567	P28472
DB00401	Q13698
DB00131	P11309
DB03793	P96965
DB00312	P48169
DB01363	P18089
DB01352	P42262
DB01752	Q79FX6
DB00349	P34903
DB00171	P12235
DB01429	Q14524
DB00078	P12318
DB00622	Q08289
DB01175	Q01959
DB01961	P07998
DB01442	P23975
DB01558	P48169
DB02258	P13631
DB01403	P28335
DB00622	P08912
DB00731	P37231
DB01567	P31644
DB03431	Q7BK04
DB04493	P06744
DB02659	P54965
DB01591	P08172
DB01942	Q60099
DB01186	P35462
DB03306	P12931
DB00651	P30542
DB00726	Q01959
DB01591	P08173
DB04137	P01112
DB03014	P94690
DB00622	Q01668
DB03909	Q8ZKR2
DB01239	P20309
DB03934	P99999
DB01220	O75469
DB01412	P30542
DB00475	Q16445
DB01287	P14867
DB01353	P42262
DB00518	P68371
DB01395	P10275
DB04570	P42971
DB00162	P00352
DB03431	P68133
DB01621	P21728
DB01992	O06644
DB00463	P42262
DB01303	Q14432
DB00142	Q05586
DB01577	P23975
DB03977	P99999
DB01403	P21728
DB02944	P80188
DB03660	P80561
DB00909	Q9P0X4
DB00401	Q01668
DB03319	P42262
DB02153	Q8NX78
DB03014	P72849
DB00142	P48506
DB00237	P43681
DB03740	P01857
DB01147	P0AEB3
DB00055	Q9UNN8
DB01576	P23975
DB01426	Q14524
DB03147	P40859
DB01907	P08164
DB00805	P11229
DB03814	Q01770
DB04821	P23975
DB00313	P45954
DB02490	P06732
DB00849	P36544
DB01306	P06213
DB03431	P49841
DB00198	P23141
DB00114	P54687
DB00546	P31644
DB00430	P02918
DB01623	P21728
DB03740	P22303
DB00430	P02919
DB00897	P31644
DB02944	P32927
DB01992	Q8ZKF6
DB00546	P28472
DB01863	O15530
DB04216	P48736
DB00897	P28472
DB00434	P20309
DB00489	P08588
DB01579	P23975
DB04657	P31040
DB01307	P06213
DB02701	Q9NXA8
DB04493	P16118
DB03382	P48147
DB01622	P21728
DB00401	Q08289
DB00661	Q13698
DB01216	P31213
DB01665	P07477
DB03073	P09874
DB03431	P0A6I3
DB00900	P00491
DB03137	P07900
DB03731	P05089
DB03431	P0A6I9
DB04315	Q83JC4
DB00988	Q01959
DB00777	P28335
DB01050	P37231
DB02266	P35354
DB01594	P14867
DB01287	P35348
