0.1144927536231884	DB05260	P02818
0.1144927536231884	DB05260	P01584
0.1144927536231884	DB06148	P23975
0.1144927536231884	DB06148	P31645
0.1144927536231884	DB06262	P07550
0.1144927536231884	DB06262	P13945
0.1144927536231884	DB06274	P41145
0.1144927536231884	DB06274	P41143
0.1144927536231884	DB06288	P34969
0.1144927536231884	DB06288	P28223
0.1144927536231884	DB00674	P06276
0.1144927536231884	DB03367	P22894
0.1144927536231884	DB01236	P20648
0.1144927536231884	DB01124	Q15842
0.1144927536231884	DB01182	O00555
0.1144927536231884	DB01236	P54707
0.1144927536231884	DB01337	P46098
0.1144927536231884	DB04586	Q27713
0.1144927536231884	DB01983	P53608
0.1144927536231884	DB03298	P07947
0.1144927536231884	DB03415	Q9UKU7
0.1144927536231884	DB01858	P07711
0.1144927536231884	DB00699	P35368
0.1144927536231884	DB02400	P16083
0.1144927536231884	DB00730	P31040
0.1144927536231884	DB00162	P18902
0.1144927536231884	DB01079	P23975
0.1144927536231884	DB00015	P01012
0.1144927536231884	DB02737	P11974
0.1144927536231884	DB01858	P25774
0.1144927536231884	DB00467	P06786
0.1144927536231884	DB04739	P63185
0.1144927536231884	DB01107	P23416
0.1144927536231884	DB01107	P23415
0.1144927536231884	DB01107	O75311
0.1144927536231884	DB02789	P49888
0.1144927536231884	DB03080	P14625
0.1144927536231884	DB02354	P35030
0.1144927536231884	DB01841	P19531
0.1144927536231884	DB02354	P35031
0.1144927536231884	DB01136	P21728
0.1144927536231884	DB00501	Q13639
0.1144927536231884	DB00679	P34969
0.1144927536231884	DB00868	Q99250
0.1144927536231884	DB01097	Q02127
0.1144927536231884	DB00934	P34969
0.1144927536231884	DB04227	P03472
0.1144927536231884	DB00205	P0A884
0.1144927536231884	DB02902	P50225
0.1144927536231884	DB04563	P00763
0.1144927536231884	DB00230	P35499
0.1144927536231884	DB04763	P00915
0.1144927536231884	DB00992	P01132
0.1144927536231884	DB00519	Q10714
0.1144927536231884	DB01144	P23589
0.1144927536231884	DB02220	P00915
0.1144927536231884	DB00780	Q29437
0.1144927536231884	DB00454	O60391
0.1144927536231884	DB00656	P18825
0.1144927536231884	DB01039	O18924
0.1144927536231884	DB02045	P00763
0.1144927536231884	DB04114	P30122
0.1144927536231884	DB02991	P29473
0.1144927536231884	DB00371	Q8ITG2
0.1144927536231884	DB00176	P48029
0.1144927536231884	DB04402	P0A094
0.1144927536231884	DB02285	P02792
0.1144927536231884	DB03878	P04629
0.1144927536231884	DB02315	P12369
0.1144927536231884	DB00270	P35498
0.1144927536231884	DB00643	P07437
0.1144927536231884	DB00619	P08581
0.1144927536231884	DB00444	P06786
0.1144927536231884	DB00704	P30872
0.1144927536231884	DB00514	P30531
0.1144927536231884	DB01410	P01009
0.1144927536231884	DB02458	Q03013
0.1144927536231884	DB02458	P21266
0.1144927536231884	DB02458	P08010
0.1144927536231884	DB03480	P0A7E1
0.1144927536231884	DB02458	P04905
0.1144927536231884	DB02336	P42684
0.1144927536231884	DB00192	Q15858
0.1144927536231884	DB03559	O57380
0.1144927536231884	DB01074	P28329
0.1144927536231884	DB00473	Q99250
0.1144927536231884	DB01028	P05023
0.1144927536231884	DB02185	Q08638
0.1144927536231884	DB00801	P24046
0.1144927536231884	DB03929	Q12879
0.1144927536231884	DB03929	Q13224
0.1144927536231884	DB03929	Q14957
0.1144927536231884	DB02812	P00761
0.1144927536231884	DB03929	O15399
0.1144927536231884	DB00141	P08037
0.1144927536231884	DB02822	O57380
0.1144927536231884	DB03279	P10826
0.1144927536231884	DB04261	Q9L5C8
0.1144927536231884	DB01769	P27361
0.1144927536231884	DB01769	P28482
0.1144927536231884	DB03261	P08581
0.1144927536231884	DB03007	P71278
0.1144927536231884	DB01101	Q27713
0.1144927536231884	DB00235	Q13946
0.1144927536231884	DB00588	P05154
0.1144927536231884	DB04462	P28523
0.1144927536231884	DB03591	P00519
0.1144927536231884	DB01161	P35498
0.1144927536231884	DB00637	Q9H252
0.1144927536231884	DB03632	P54196
0.1144927536231884	DB00279	P10276
0.1144927536231884	DB03766	P04117
0.1144927536231884	DB03792	P00669
0.1144927536231884	DB01189	P15385
0.1144927536231884	DB00996	P35498
0.1144927536231884	DB02428	P05896
0.1144927536231884	DB00145	Q17328
0.1144927536231884	DB00116	P34897
0.1144927536231884	DB03878	P08631
0.1144927536231884	DB03674	P23589
0.1144927536231884	DB00475	Q16445
0.1144927536231884	DB00475	P31644
0.1144927536231884	DB00475	P47869
0.1144927536231884	DB00475	P48169
0.1144927536231884	DB00475	P34903
0.1144927536231884	DB00432	Q27713
0.1144927536231884	DB00367	Q62986
0.1144927536231884	DB04037	P0AD63
0.1144927536231884	DB00338	P98194
0.1144927536231884	DB03262	P00915
0.1144927536231884	DB01203	P13945
0.1144927536231884	DB01268	P06241
0.1144927536231884	DB01197	Q9BYF1
0.1144927536231884	DB03287	P18485
0.1144927536231884	DB00696	P41595
0.1144927536231884	DB00210	P62508
0.1144927536231884	DB02160	Q9BWD1
0.1144927536231884	DB03373	P00761
0.1144927536231884	DB03591	P00521
0.1144927536231884	DB01100	P62158
0.1144927536231884	DB03527	P00328
0.1144927536231884	DB00116	O94788
0.1144927536231884	DB00116	P00352
0.1144927536231884	DB03564	P05091
0.1144927536231884	DB01863	P06213
0.1144927536231884	DB04545	P19424
0.1144927536231884	DB01319	Q9Q2G8
0.1144927536231884	DB00692	P18825
0.1144927536231884	DB04832	Q01959
0.1144927536231884	DB01134	P04150
0.1144927536231884	DB00514	Q12879
0.1144927536231884	DB00514	Q13224
0.1144927536231884	DB03398	P29317
0.1144927536231884	DB00514	Q14957
0.1144927536231884	DB01400	P06276
0.1144927536231884	DB00514	O15399
0.1144927536231884	DB00774	P98194
0.1144927536231884	DB03876	P35030
0.1144927536231884	DB00998	P08908
0.1144927536231884	DB01394	Q9NY65
0.1144927536231884	DB03876	P35031
0.1144927536231884	DB00751	P34969
0.1144927536231884	DB04141	P14769
0.1144927536231884	DB04217	Q55793
0.1144927536231884	DB00321	P18825
0.1144927536231884	DB01169	P53779
0.1144927536231884	DB02698	Q9PTT3
0.1144927536231884	DB04399	P0A094
0.1144927536231884	DB01169	Q16539
0.1144927536231884	DB00562	P55011
0.1144927536231884	DB00562	Q13621
0.1144927536231884	DB00898	Q17328
0.1144927536231884	DB02058	P07333
0.1144927536231884	DB00645	O00555
0.1144927536231884	DB01634	Q43077
0.1144927536231884	DB00963	Q05769
0.1144927536231884	DB00338	P54707
0.1144927536231884	DB00963	P05979
0.1144927536231884	DB00153	Q16678
0.1144927536231884	DB04505	O02705
0.1144927536231884	DB03673	P17752
0.1144927536231884	DB01905	P35031
0.1144927536231884	DB03673	Q8IWU9
0.1144927536231884	DB03602	P10648
0.1144927536231884	DB01939	Q92876
0.1144927536231884	DB03602	Q16772
0.1144927536231884	DB03602	P24472
0.1144927536231884	DB00029	P00760
0.1144927536231884	DB03602	P13745
0.1144927536231884	DB01939	P06870
0.1144927536231884	DB00093	P47901
0.1144927536231884	DB03900	Q07412
0.1144927536231884	DB00858	P08235
0.1144927536231884	DB01226	Q9N587
0.1144927536231884	DB00511	P20648
0.1144927536231884	DB00511	P54707
0.1144927536231884	DB00396	P10635
0.1144927536231884	DB04381	P00352
0.1144927536231884	DB04381	O94788
0.1144927536231884	DB00896	P12429
0.1144927536231884	DB00896	Q5R1W0
0.1144927536231884	DB01138	P13569
0.1144927536231884	DB01254	Q14289
0.1144927536231884	DB01544	P14867
0.1144927536231884	DB02727	P29476
0.1144927536231884	DB02294	P06864
0.1144927536231884	DB01909	P26827
0.1144927536231884	DB02718	P34897
0.1144927536231884	DB03828	P12931
0.1144927536231884	DB00606	P42260
0.1144927536231884	DB03731	P53608
0.1144927536231884	DB00606	P39086
0.1144927536231884	DB02375	O00443
0.1144927536231884	DB01018	P25100
0.1144927536231884	DB00817	P43702
0.1144927536231884	DB02795	P00592
0.1144927536231884	DB01408	P21918
0.1144927536231884	DB00594	P00750