CHEMBL336908	DB02662
CHEMBL72434	DB02143
CHEMBL47	DB00163
CHEMBL829	DB01246
CHEMBL503090	DB06997
CHEMBL594	DB01084
CHEMBL319354	DB03700
CHEMBL308745	DB02727
CHEMBL709	DB00346
CHEMBL1234085	DB08122
CHEMBL1172560	DB03897
CHEMBL30008	DB04841
CHEMBL1072	DB00887
CHEMBL9417	DB07575
CHEMBL35084	DB00616
CHEMBL590753	DB03980
CHEMBL1619	DB00242
CHEMBL278894	DB07612
CHEMBL458975	DB08739
CHEMBL259621	DB07506
CHEMBL926	DB00841
CHEMBL705	DB00523
CHEMBL104937	DB01977
CHEMBL2106220	DB01502
CHEMBL389029	DB04728
CHEMBL165315	DB02316
CHEMBL443732	DB01833
CHEMBL253825	DB07626
CHEMBL559638	DB08701
CHEMBL501942	DB08103
CHEMBL1213270	DB07932
CHEMBL1234088	DB08125
CHEMBL279301	DB04468
CHEMBL1200668	DB01164
CHEMBL16081	DB02736
CHEMBL178938	DB07617
CHEMBL1200689	DB00435
CHEMBL2028661	DB08822
CHEMBL1087630	DB04910
CHEMBL9514	DB08313
CHEMBL117869	DB02014
CHEMBL483348	DB07677
CHEMBL1235837	DB08520
CHEMBL175083	DB02037
CHEMBL515387	DB08382
CHEMBL304784	DB07558
CHEMBL822	DB00857
CHEMBL112322	DB08748
CHEMBL1232817	DB04113
CHEMBL478464	DB07486
CHEMBL2146142	DB08993
CHEMBL1235535	DB04145
CHEMBL836	DB00706
CHEMBL63560	DB02932
CHEMBL21932	DB02795
CHEMBL1657	DB00799
CHEMBL14193	DB03560
CHEMBL29	DB01053
CHEMBL478718	DB07104
CHEMBL213758	DB07130
CHEMBL288100	DB00703
CHEMBL1231661	DB04035
CHEMBL199237	DB07459
CHEMBL1902981	DB08992
CHEMBL211456	DB01364
CHEMBL1236704	DB03792
CHEMBL70352	DB09023
CHEMBL1289	DB00793
CHEMBL353861	DB03262
CHEMBL284104	DB04267
CHEMBL1201356	DB00353
CHEMBL203517	DB06887
CHEMBL203517	DB07719
CHEMBL142348	DB01889
CHEMBL494360	DB08708
CHEMBL669	DB00924
CHEMBL494708	DB08529
CHEMBL64934	DB03982
CHEMBL566534	DB06697
CHEMBL219916	DB01184
CHEMBL539640	DB07259
CHEMBL496574	DB07254
CHEMBL425646	DB08087
CHEMBL444814	DB00155
CHEMBL377312	DB06852
CHEMBL264167	DB03823
CHEMBL259352	DB07928
CHEMBL1235676	DB04090
CHEMBL371732	DB07976
CHEMBL647	DB00964
CHEMBL1201237	DB01210
CHEMBL185918	DB07009
CHEMBL426560	DB08687
CHEMBL478409	DB07790
CHEMBL7492	DB03695
CHEMBL1201314	DB01610
CHEMBL83116	DB03346
CHEMBL121	DB00412
CHEMBL1213447	DB07729
CHEMBL122055	DB06935
CHEMBL1371	DB00356
CHEMBL329985	DB01958
CHEMBL84	DB01030
CHEMBL48396	DB08926
CHEMBL12760	DB07350
CHEMBL417844	DB04188
CHEMBL2104103	DB09003
CHEMBL1200880	DB00729
CHEMBL2365807	DB01470
CHEMBL174539	DB08605
CHEMBL74632	DB04570
CHEMBL129795	DB03285
CHEMBL1236200	DB02768
CHEMBL4	DB01165
CHEMBL538940	DB07094
CHEMBL62193	DB06150
CHEMBL1213083	DB06831
CHEMBL455271	DB08083
CHEMBL1096562	DB00992
CHEMBL53418	DB04816
CHEMBL2105051	DB04970
CHEMBL435381	DB05095
CHEMBL90593	DB01708
CHEMBL8224	DB01467
CHEMBL666	DB00529
CHEMBL1201344	DB00209
CHEMBL490730	DB07083
CHEMBL485961	DB08234
CHEMBL45816	DB01388
CHEMBL233295	DB07109
CHEMBL475814	DB08006
CHEMBL24563	DB03143
CHEMBL384467	DB01234
CHEMBL3301680	DB06402
CHEMBL13960	DB08809
CHEMBL1023	DB00307
CHEMBL1201286	DB00219
CHEMBL99946	DB08918
CHEMBL375530	DB08473
CHEMBL629	DB00321
CHEMBL1232243	DB04674
CHEMBL839	DB00521
CHEMBL30713	DB01446
CHEMBL123558	DB04957
CHEMBL523395	DB07691
CHEMBL993	DB03462
CHEMBL3137742	DB03360
CHEMBL2104356	DB01587
CHEMBL207729	DB07964
CHEMBL59461	DB00278
CHEMBL1234087	DB08124
CHEMBL288441	DB06616
CHEMBL292707	DB08955
CHEMBL123978	DB03073
CHEMBL109227	DB02627
CHEMBL232942	DB06972
CHEMBL14882	DB02041
CHEMBL434025	DB02089
CHEMBL1589896	DB08957
CHEMBL15770	DB00605
CHEMBL589	DB00268
CHEMBL337577	DB03240
CHEMBL279785	DB00786
CHEMBL1231277	DB02154
CHEMBL1234268	DB02893
CHEMBL55	DB00738
CHEMBL428496	DB08059
CHEMBL460499	DB09010
CHEMBL41172	DB01957
CHEMBL180948	DB07200
CHEMBL1617	DB01220
CHEMBL203407	DB07688
CHEMBL573819	DB07046
CHEMBL720	DB06770
CHEMBL1200412	DB00984
CHEMBL1697712	DB04836
CHEMBL1073	DB01067
CHEMBL166444	DB02998
CHEMBL1185001	DB08549
CHEMBL1231847	DB07572
CHEMBL1625	DB01428
CHEMBL1401624	DB04866
CHEMBL1201764	DB06702
CHEMBL231950	DB07540
CHEMBL104943	DB03994
CHEMBL1235541	DB03329
CHEMBL10372	DB08772
CHEMBL362811	DB03141
CHEMBL297884	DB05868
CHEMBL257468	DB08551
CHEMBL550453	DB08143
CHEMBL660	DB00915
CHEMBL1236122	DB08589
CHEMBL323542	DB02991
CHEMBL1533310	DB05891
CHEMBL1533310	DB05381
CHEMBL39560	DB01614
CHEMBL1591	DB00618
CHEMBL846	DB05314
CHEMBL846	DB00136
CHEMBL481	DB00762
CHEMBL1232595	DB03514
CHEMBL15939	DB02764
CHEMBL2106573	DB01533
CHEMBL1201224	DB00267
CHEMBL217914	DB07844
CHEMBL284377	DB04522
CHEMBL3188202	DB01612
CHEMBL272114	DB07239
CHEMBL476937	DB06954
CHEMBL550795	DB08191
CHEMBL171623	DB01955
CHEMBL1623	DB00737
CHEMBL270686	DB08178
CHEMBL450	DB00463
CHEMBL273575	DB04821
CHEMBL32800	DB01288
CHEMBL1200622	DB00910
CHEMBL77961	DB02258
CHEMBL1489	DB00928
CHEMBL218166	DB04888
CHEMBL493	DB01200
CHEMBL1236251	DB03347
CHEMBL1257070	DB05659
CHEMBL852	DB01042
CHEMBL204459	DB08244
CHEMBL655	DB00683
CHEMBL927	DB00535
CHEMBL1201216	DB00298
CHEMBL265720	DB07613
CHEMBL239857	DB07519
CHEMBL250270	DB00528
CHEMBL220492	DB00273
CHEMBL564085	DB01361
CHEMBL607712	DB07718
CHEMBL195836	DB01526
CHEMBL1265	DB00210
CHEMBL255044	DB06623
CHEMBL248176	DB08005
CHEMBL1231099	DB07396
CHEMBL46817	DB07562
CHEMBL38434	DB03523
CHEMBL1239	DB00676
CHEMBL1200453	DB00632
CHEMBL1201753	DB08860
CHEMBL119084	DB04002
CHEMBL79	DB05291
CHEMBL79	DB00281
CHEMBL150	DB01852
CHEMBL398435	DB08816
CHEMBL1232920	DB02515
CHEMBL1229651	DB06860
CHEMBL231779	DB06605
CHEMBL14173	DB04166
CHEMBL14173	DB04056
CHEMBL1443	DB00607
CHEMBL708	DB00246
CHEMBL187105	DB07236
CHEMBL1198147	DB06942
CHEMBL386051	DB02567
CHEMBL66907	DB04549
CHEMBL403772	DB03833
CHEMBL1161789	DB03132
CHEMBL37387	DB04168
CHEMBL1441570	DB02639
CHEMBL11298	DB00133
CHEMBL244342	DB08749
CHEMBL95097	DB02288
CHEMBL308333	DB04310
CHEMBL553426	DB04454
CHEMBL207225	DB02758
CHEMBL652	DB01195
CHEMBL1234009	DB03490
CHEMBL1200907	DB01108
CHEMBL710	DB01216
CHEMBL1256	DB00753
CHEMBL1200472	DB01589
CHEMBL1697833	DB01527
CHEMBL295830	DB04620
CHEMBL490814	DB06897
CHEMBL1614	DB01078
CHEMBL7413	DB00474
CHEMBL363387	DB07063
CHEMBL468837	DB01354
CHEMBL1517	DB00595
CHEMBL297053	DB01865
CHEMBL841	DB00836
CHEMBL495597	DB07056
CHEMBL1200993	DB00483
CHEMBL282837	DB07550
CHEMBL314854	DB08868
CHEMBL314854	DB05286
CHEMBL116597	DB07143
CHEMBL325434	DB02427
CHEMBL519504	DB08915
CHEMBL1064	DB00641
CHEMBL26424	DB04905
CHEMBL16332	DB08766
CHEMBL121291	DB04394
CHEMBL216579	DB04289
CHEMBL226345	DB00173
CHEMBL931	DB01159
CHEMBL792	DB01696
CHEMBL792	DB08844
CHEMBL75680	DB07364
CHEMBL1331216	DB00424
CHEMBL468900	DB04761
CHEMBL230354	DB08362
CHEMBL252642	DB03601
CHEMBL482708	DB08023
CHEMBL402744	DB04274
CHEMBL1201347	DB00913
CHEMBL1383	DB02189
CHEMBL1393	DB00421
CHEMBL1451633	DB08984
CHEMBL46148	DB01767
CHEMBL385937	DB06925
CHEMBL122264	DB06948
CHEMBL279676	DB01520
CHEMBL692	DB04077
CHEMBL1235287	DB04484
CHEMBL138806	DB03102
CHEMBL261454	DB03921
CHEMBL573077	DB07144
CHEMBL1518	DB00550
CHEMBL168634	DB08265
CHEMBL511942	DB04759
CHEMBL80	DB01183
CHEMBL1228	DB03585
CHEMBL228133	DB07856
CHEMBL429852	DB02581
CHEMBL180071	DB07708
CHEMBL13291	DB01567
CHEMBL402315	DB08582
CHEMBL1207949	DB07420
CHEMBL20225	DB00385
CHEMBL1201193	DB01002
CHEMBL143305	DB08728
CHEMBL2361014	DB01562
CHEMBL364748	DB08760
CHEMBL32	DB00218
CHEMBL283800	DB00148
CHEMBL1234751	DB04075
CHEMBL86715	DB00387
CHEMBL1016	DB00796
CHEMBL238502	DB02641
CHEMBL399510	DB09018
CHEMBL1138	DB00973
CHEMBL20461	DB01963
CHEMBL715	DB00334
CHEMBL374713	DB07213
CHEMBL772	DB00206
CHEMBL113142	DB08770
CHEMBL48109	DB02915
CHEMBL808	DB01127
CHEMBL1622	DB00158
CHEMBL47527	DB04518
CHEMBL207701	DB06958
CHEMBL157729	DB03177
CHEMBL81697	DB08794
CHEMBL249530	DB08535
CHEMBL1096882	DB01073
CHEMBL139908	DB04250
CHEMBL1349	DB00577
CHEMBL1644	DB01140
CHEMBL347862	DB02079
CHEMBL445304	DB03644
CHEMBL1230674	DB02489
CHEMBL1159662	DB04286
CHEMBL493062	DB08102
CHEMBL175367	DB02993
CHEMBL228077	DB02077
CHEMBL481931	DB08037
CHEMBL379630	DB02556
CHEMBL1232076	DB07623
CHEMBL1484	DB00622
CHEMBL164	DB02375
CHEMBL435747	DB07281
CHEMBL157138	DB00589
CHEMBL1231491	DB04401
CHEMBL385517	DB06335
CHEMBL170988	DB00914
CHEMBL279865	DB01478
CHEMBL1236196	DB01851
CHEMBL1201117	DB00423
CHEMBL398428	DB08072
CHEMBL940	DB00996
CHEMBL1389	DB00367
CHEMBL195660	DB07052
CHEMBL103	DB00396
CHEMBL2107433	DB05444
CHEMBL181	DB01119
CHEMBL170	DB00468
CHEMBL14060	DB03255
CHEMBL608	DB01599
CHEMBL577144	DB02827
CHEMBL454568	DB04741
CHEMBL1676	DB08906
CHEMBL233970	DB07538
CHEMBL1201294	DB01081
CHEMBL20210	DB05102
CHEMBL477487	DB04457
CHEMBL202311	DB04698
CHEMBL283754	DB00587
CHEMBL1448	DB06803
CHEMBL6367	DB01951
CHEMBL38851	DB08030
CHEMBL382639	DB07272
CHEMBL538	DB06728
CHEMBL16502	DB03900
CHEMBL1697838	DB01382
CHEMBL67158	DB03677
CHEMBL1232804	DB02642
CHEMBL257543	DB07665
CHEMBL354634	DB03737
CHEMBL99203	DB04604
CHEMBL112687	DB04500
CHEMBL1232142	DB04393
CHEMBL453620	DB07316
CHEMBL623	DB01149
CHEMBL551326	DB05295
CHEMBL478649	DB07835
CHEMBL290106	DB04813
CHEMBL1200666	DB02300
CHEMBL63857	DB04824
CHEMBL41342	DB02552
CHEMBL1495	DB00383
CHEMBL117651	DB03005
CHEMBL270190	DB06274
CHEMBL451721	DB06926
CHEMBL761	DB06711
CHEMBL226117	DB03440
CHEMBL417	DB00445
CHEMBL192812	DB02815
CHEMBL1234490	DB08215
CHEMBL276520	DB08953
CHEMBL427896	DB07049
CHEMBL399043	DB04302
CHEMBL399598	DB02834
CHEMBL465161	DB06743
CHEMBL290429	DB01535
CHEMBL482767	DB07361
CHEMBL726	DB00623
CHEMBL143309	DB02518
CHEMBL36245	DB03987
CHEMBL535	DB01268
CHEMBL56475	DB03002
CHEMBL1755	DB00872
CHEMBL204394	DB07661
CHEMBL451432	DB08620
CHEMBL504	DB01093
CHEMBL1235252	DB02056
CHEMBL460102	DB07936
CHEMBL1201	DB01623
CHEMBL551043	DB07359
CHEMBL64676	DB04470
CHEMBL920	DB00122
CHEMBL1200761	DB00269
CHEMBL1547	DB00152
CHEMBL486954	DB07557
CHEMBL485	DB00318
CHEMBL28721	DB00566
CHEMBL21485	DB01795
CHEMBL435	DB00999
CHEMBL273453	DB04630
CHEMBL218490	DB00869
CHEMBL428495	DB01750
CHEMBL495072	DB06914
CHEMBL1201262	DB00449
CHEMBL58	DB01204
CHEMBL94417	DB02873
CHEMBL247484	DB08230
CHEMBL1201203	DB00245
CHEMBL555205	DB07431
CHEMBL216647	DB08031
CHEMBL33103	DB04275
CHEMBL96783	DB01904
CHEMBL114500	DB07002
CHEMBL340813	DB08233
CHEMBL293405	DB02113
CHEMBL1346	DB00496
CHEMBL614	DB00339
CHEMBL113	DB00201
CHEMBL448500	DB02192
CHEMBL267936	DB00657
CHEMBL1165	DB00691
CHEMBL1663	DB00556
CHEMBL1098060	DB08355
CHEMBL221181	DB07075
CHEMBL20767	DB02459
CHEMBL46780	DB07508
CHEMBL2104116	DB01534
CHEMBL457047	DB08132
CHEMBL235157	DB06932
CHEMBL124493	DB07422
CHEMBL1055	DB00310
CHEMBL1500276	DB04822
CHEMBL479079	DB08519
CHEMBL303296	DB03308
CHEMBL262628	DB08659
CHEMBL1232328	DB07674
CHEMBL1757	DB00828
CHEMBL76768	DB08848
CHEMBL1201320	DB00736
CHEMBL29641	DB02984
CHEMBL1597	DB06782
CHEMBL492514	DB06978
CHEMBL870	DB00630
CHEMBL65	DB04690
CHEMBL1237066	DB00326
CHEMBL46102	DB08806
CHEMBL301769	DB08406
CHEMBL1234848	DB03040
CHEMBL197865	DB07296
CHEMBL176467	DB03368
CHEMBL1029	DB00419
CHEMBL458997	DB07460
CHEMBL63323	DB04552
CHEMBL376140	DB00560
CHEMBL232557	DB07024
CHEMBL1201373	DB03785
CHEMBL14	DB00411
CHEMBL450940	DB06832
CHEMBL524004	DB04843
CHEMBL1200799	DB00287
CHEMBL1232369	DB03943
CHEMBL1083185	DB08555
CHEMBL1172	DB00967
CHEMBL203569	DB07686
CHEMBL1474889	DB09004
CHEMBL6444	DB08719
CHEMBL141889	DB07548
CHEMBL567204	DB08457
CHEMBL1412	DB00592
CHEMBL369180	DB04154
CHEMBL155103	DB02728
CHEMBL102970	DB00147
CHEMBL79512	DB04311
CHEMBL371491	DB08395
CHEMBL101801	DB08572
CHEMBL1213604	DB08255
CHEMBL192894	DB08356
CHEMBL1237132	DB04920
CHEMBL522579	DB07811
CHEMBL475251	DB07159
CHEMBL314712	DB02477
CHEMBL227745	DB07085
CHEMBL2022411	DB01557
CHEMBL340978	DB04812
CHEMBL1576	DB01031
CHEMBL1092581	DB07238
CHEMBL1205948	DB04781
CHEMBL677	DB06707
CHEMBL618	DB03728
CHEMBL219841	DB06877
CHEMBL1436	DB01112
CHEMBL1229908	DB08989
CHEMBL1201250	DB00767
CHEMBL485323	DB08026
CHEMBL1235346	DB02749
CHEMBL430879	DB04601
CHEMBL656	DB00497
CHEMBL25186	DB03306
CHEMBL54893	DB05871
CHEMBL54893	DB08679
CHEMBL599	DB00814
CHEMBL207496	DB07204
CHEMBL84242	DB02922
CHEMBL1057	DB00693
CHEMBL445472	DB05107
CHEMBL383634	DB01251
CHEMBL405346	DB08606
CHEMBL1095	DB00754
CHEMBL1552	DB02123
CHEMBL487739	DB07704
CHEMBL82321	DB01976
CHEMBL1178595	DB02972
CHEMBL249847	DB07390
CHEMBL1233985	DB04726
CHEMBL225546	DB03515
CHEMBL478629	DB08597
CHEMBL942	DB09020
CHEMBL1235932	DB02228
CHEMBL1235932	DB04084
CHEMBL1235932	DB04483
CHEMBL1235932	DB04282
CHEMBL1198138	DB07131
CHEMBL288010	DB03768
CHEMBL562	DB00400
CHEMBL1094	DB00949
CHEMBL19611	DB02255
CHEMBL239243	DB01956
CHEMBL1129	DB00432
CHEMBL372303	DB08348
CHEMBL1230612	DB07279
CHEMBL1950554	DB04853
CHEMBL1201747	DB06766
CHEMBL251935	DB07908
CHEMBL243712	DB06288
CHEMBL727	DB00352
CHEMBL106	DB00196
CHEMBL458624	DB08106
CHEMBL458624	DB08105
CHEMBL500779	DB07161
CHEMBL1599	DB01139
CHEMBL267744	DB04831
CHEMBL1163	DB01072
CHEMBL144366	DB02756
CHEMBL1200356	DB01000
CHEMBL26128	DB03298
CHEMBL125386	DB02830
CHEMBL7942	DB02175
CHEMBL379652	DB02774
CHEMBL1624	DB00451
CHEMBL508102	DB00389
CHEMBL476869	DB03424
CHEMBL434394	DB04861
CHEMBL1525826	DB00664
CHEMBL33468	DB07240
CHEMBL560739	DB00604
CHEMBL1107	DB01218
CHEMBL279898	DB00824
CHEMBL1520	DB00862
CHEMBL79993	DB03535
CHEMBL1751	DB00390
CHEMBL1231396	DB02121
CHEMBL1951706	DB01512
CHEMBL1475	DB04571
CHEMBL1200748	DB00190
CHEMBL395752	DB07320
CHEMBL262616	DB07409
CHEMBL2104499	DB08836
CHEMBL953	DB00494
CHEMBL404108	DB01283
CHEMBL379760	DB08095
CHEMBL303950	DB08204
CHEMBL1230015	DB06993
CHEMBL239508	DB07512
CHEMBL255750	DB07346
CHEMBL334226	DB02752
CHEMBL236708	DB04260
CHEMBL1233239	DB02411
CHEMBL32190	DB02919
CHEMBL601719	DB08865
CHEMBL601719	DB08700
CHEMBL1200946	DB08804
CHEMBL93247	DB03953
CHEMBL318721	DB07862
CHEMBL75880	DB01074
CHEMBL1727	DB00567
CHEMBL376185	DB01190
CHEMBL1482	DB01019
CHEMBL199544	DB07305
CHEMBL132966	DB05855
CHEMBL1449	DB01607
CHEMBL1652	DB01122
CHEMBL103667	DB03044
CHEMBL1234797	DB08291
CHEMBL911	DB00425
CHEMBL328944	DB03645
CHEMBL1235146	DB08369
CHEMBL855	DB00427
CHEMBL609880	DB03485
CHEMBL28472	DB04152
CHEMBL46516	DB04842
CHEMBL474579	DB01330
CHEMBL1006	DB01143
CHEMBL250787	DB07081
CHEMBL371668	DB03026
CHEMBL1422	DB01261
CHEMBL487738	DB08134
CHEMBL859	DB05262
CHEMBL189434	DB08393
CHEMBL516	DB00434
CHEMBL1115	DB00545
CHEMBL1027	DB00906
CHEMBL70927	DB08826
CHEMBL207228	DB07218
CHEMBL69330	DB07780
CHEMBL117658	DB07593
CHEMBL2135534	DB00255
CHEMBL70663	DB08639
CHEMBL1231453	DB07485
CHEMBL1090	DB00194
CHEMBL1556	DB04335
CHEMBL1200803	DB01591
CHEMBL1519	DB00519
CHEMBL243731	DB07289
CHEMBL1140	DB02701
CHEMBL383541	DB07107
CHEMBL41036	DB03176
CHEMBL354541	DB08827
CHEMBL478524	DB06833
CHEMBL1334860	DB08792
CHEMBL826	DB00467
CHEMBL261777	DB07614
CHEMBL264669	DB06851
CHEMBL2252949	DB01744
CHEMBL1471	DB00673
CHEMBL742	DB01221
CHEMBL431210	DB04368
CHEMBL261713	DB07861
CHEMBL1328913	DB08996
CHEMBL1364	DB00165
CHEMBL180517	DB07712
CHEMBL233360	DB07072
CHEMBL404155	DB08552
CHEMBL82304	DB08713
CHEMBL45412	DB01935
CHEMBL1159650	DB01013
CHEMBL1233749	DB08021
CHEMBL177	DB00479
CHEMBL87580	DB06883
CHEMBL1201355	DB00403
CHEMBL125278	DB04261
CHEMBL452596	DB07283
CHEMBL1752	DB00651
CHEMBL563196	DB06917
CHEMBL539165	DB03610
CHEMBL1162483	DB03741
CHEMBL42	DB00363
CHEMBL293034	DB08213
CHEMBL196228	DB07768
CHEMBL696	DB00593
CHEMBL1208302	DB06893
CHEMBL787	DB00471
CHEMBL101253	DB04879
CHEMBL1353	DB01390
CHEMBL255874	DB07255
CHEMBL1232077	DB04308
CHEMBL1232077	DB02601
CHEMBL1232077	DB04291
CHEMBL1485	DB00125
CHEMBL1697737	DB01559
CHEMBL82411	DB07950
CHEMBL572528	DB02633
CHEMBL1235237	DB08383
CHEMBL17962	DB00117
CHEMBL936	DB01231
CHEMBL87	DB01394
CHEMBL193	DB01115
CHEMBL85388	DB01738
CHEMBL1231806	DB07564
CHEMBL321113	DB02019
CHEMBL1431	DB00331
CHEMBL230153	DB07244
CHEMBL3301800	DB01150
CHEMBL1235693	DB08479
CHEMBL256528	DB08581
CHEMBL484726	DB08088
CHEMBL107251	DB02044
CHEMBL454	DB00241
CHEMBL394826	DB06938
CHEMBL495224	DB03105
CHEMBL519160	DB07443
CHEMBL435982	DB08272
CHEMBL456163	DB08136
CHEMBL485835	DB07717
CHEMBL1232305	DB02883
CHEMBL331057	DB03067
CHEMBL1295	DB00639
CHEMBL1110	DB00969
CHEMBL1492	DB01146
CHEMBL1201287	DB00405
CHEMBL1539	DB01299
CHEMBL1000	DB00341
CHEMBL563168	DB08789
CHEMBL527	DB00554
CHEMBL979	DB00371
CHEMBL391586	DB08705
CHEMBL1306	DB00251
CHEMBL1241	DB00792
CHEMBL932	DB00975
CHEMBL1232297	DB03759
CHEMBL267178	DB07556
CHEMBL1200706	DB06723
CHEMBL946	DB00719
CHEMBL2104231	DB08999
CHEMBL1235338	DB03381
CHEMBL637	DB00285
CHEMBL2104668	DB01487
CHEMBL260538	DB05366
CHEMBL370805	DB00907
CHEMBL459265	DB00406
CHEMBL216226	DB05861
CHEMBL207994	DB07314
CHEMBL436546	DB08634
CHEMBL455946	DB08133
CHEMBL19490	DB04828
CHEMBL495758	DB08065
CHEMBL517427	DB06712
CHEMBL433501	DB03643
CHEMBL401843	DB03072
CHEMBL109612	DB03809
CHEMBL1230961	DB04626
CHEMBL1009	DB01235
CHEMBL315021	DB01342
CHEMBL760	DB00261
CHEMBL572879	DB03924
CHEMBL1160523	DB07773
CHEMBL1144	DB00175
CHEMBL1201116	DB00739
CHEMBL1232673	DB01784
CHEMBL1160619	DB03195
CHEMBL19449	DB05266
CHEMBL1697837	DB08968
CHEMBL459177	DB07140
CHEMBL35	DB00695
CHEMBL1201281	DB07565
CHEMBL1229937	DB01775
CHEMBL1235825	DB03458
CHEMBL1740659	DB08966
CHEMBL486921	DB07317
CHEMBL1231533	DB07503
CHEMBL3301675	DB08890
CHEMBL447627	DB07069
CHEMBL2105907	DB08795
CHEMBL453	DB00263
CHEMBL512283	DB07419
CHEMBL1616433	DB01605
CHEMBL1183605	DB01718
CHEMBL188442	DB01720
CHEMBL1234777	DB02381
CHEMBL1672	DB01416
CHEMBL400520	DB06983
CHEMBL220467	DB03480
CHEMBL305380	DB08808
CHEMBL2105032	DB04863
CHEMBL23194	DB00127
CHEMBL296035	DB06726
CHEMBL445353	DB02339
CHEMBL1590	DB00852
CHEMBL957	DB00559
CHEMBL376180	DB08878
CHEMBL195328	DB02403
CHEMBL399530	DB07594
CHEMBL275742	DB03322
CHEMBL395347	DB08084
CHEMBL409536	DB08561
CHEMBL253838	DB01506
CHEMBL768	DB00187
CHEMBL86554	DB03784
CHEMBL861	DB00532
CHEMBL128	DB00669
CHEMBL436947	DB02211
CHEMBL1536	DB00153
CHEMBL1229517	DB08881
CHEMBL372832	DB07407
CHEMBL492	DB08987
CHEMBL298827	DB08626
CHEMBL222649	DB03837
CHEMBL364811	DB07654
CHEMBL1092830	DB07789
CHEMBL26717	DB03468
CHEMBL580	DB00186
CHEMBL116736	DB01942
CHEMBL750	DB00909
CHEMBL463580	DB08137
CHEMBL1170	DB01420
CHEMBL1236576	DB04093
CHEMBL55068	DB03704
CHEMBL460026	DB00159
CHEMBL444422	DB02141
CHEMBL99447	DB08397
CHEMBL667	DB03128
CHEMBL434374	DB08258
CHEMBL1198130	DB06878
CHEMBL991	DB00649
CHEMBL976	DB01058
CHEMBL1201404	DB00764
CHEMBL63895	DB07482
CHEMBL1762	DB01056
CHEMBL1194	DB00750
CHEMBL83088	DB03369
CHEMBL1234781	DB08286
CHEMBL1235787	DB08506
CHEMBL364092	DB07119
CHEMBL45483	DB07926
CHEMBL425386	DB07408
CHEMBL55612	DB03519
CHEMBL55612	DB04185
CHEMBL254832	DB08980
CHEMBL24811	DB03114
CHEMBL163	DB00503
CHEMBL2104585	DB05265
CHEMBL2146121	DB01373
CHEMBL3182343	DB01604
CHEMBL917	DB00322
CHEMBL248643	DB03623
CHEMBL457526	DB08112
CHEMBL1236582	DB08688
CHEMBL331858	DB02602
CHEMBL1233772	DB08029
CHEMBL570775	DB07260
CHEMBL245678	DB07629
CHEMBL113381	DB02858
CHEMBL406393	DB07690
CHEMBL2110816	DB09016
CHEMBL406105	DB08790
CHEMBL185073	DB01337
CHEMBL94061	DB08564
CHEMBL249736	DB08539
CHEMBL1231557	DB07511
CHEMBL292963	DB07450
CHEMBL207095	DB07312
CHEMBL6	DB00328
CHEMBL286678	DB01947
CHEMBL600	DB06151
CHEMBL54922	DB00172
CHEMBL54922	DB02853
CHEMBL1201346	DB01014
CHEMBL89598	DB01080
CHEMBL922	DB00718
CHEMBL111575	DB07076
CHEMBL27551	DB02650
CHEMBL1601	DB01328
CHEMBL100622	DB08960
CHEMBL141247	DB04186
CHEMBL106708	DB07108
CHEMBL376388	DB07854
CHEMBL2103875	DB08911
CHEMBL1201338	DB00979
CHEMBL880	DB00426
CHEMBL2104309	DB01461
CHEMBL466496	DB07234
CHEMBL1660	DB01201
CHEMBL63893	DB02446
CHEMBL415324	DB07615
CHEMBL516023	DB07945
CHEMBL1201220	DB00271
CHEMBL44857	DB01670
CHEMBL471	DB00489
CHEMBL2107576	DB08998
CHEMBL1234965	DB08323
CHEMBL1161626	DB03916
CHEMBL219586	DB07215
CHEMBL65730	DB02139
CHEMBL1090173	DB07943
CHEMBL385587	DB07847
CHEMBL1305	DB08799
CHEMBL225210	DB07830
CHEMBL1230039	DB03018
CHEMBL22969	DB00570
CHEMBL1626	DB00283
CHEMBL263881	DB04829
CHEMBL295666	DB01735
CHEMBL203125	DB02948
CHEMBL358150	DB08983
CHEMBL832	DB01138
CHEMBL132530	DB08905
CHEMBL139835	DB04839
CHEMBL1435	DB01327
CHEMBL497	DB04815
CHEMBL442	DB00696
CHEMBL459149	DB08738
CHEMBL273386	DB04528
CHEMBL1201258	DB00642
CHEMBL404	DB01606
CHEMBL261720	DB07664
CHEMBL270687	DB08182
CHEMBL1488	DB00791
CHEMBL668	DB00344
CHEMBL90488	DB04478
CHEMBL1577	DB00232
CHEMBL423	DB00195
CHEMBL2104153	DB09000
CHEMBL18	DB00311
CHEMBL227744	DB04223
CHEMBL1271	DB01090
CHEMBL3301672	DB04933
CHEMBL231095	DB08340
CHEMBL1382627	DB05245
CHEMBL1233457	DB07930
CHEMBL1201198	DB00885
CHEMBL2110954	DB04926
CHEMBL46	DB00904
CHEMBL493986	DB07514
CHEMBL321691	DB02539
CHEMBL321691	DB02234
CHEMBL1131	DB00459
CHEMBL2104616	DB01523
CHEMBL107498	DB03600
CHEMBL679	DB00668
CHEMBL42039	DB06869
CHEMBL684	DB00711
CHEMBL39064	DB03567
CHEMBL39064	DB03740
CHEMBL39064	DB03109
CHEMBL524266	DB07149
CHEMBL753	DB00925
CHEMBL513225	DB08443
CHEMBL522038	DB04898
CHEMBL659	DB00674
CHEMBL61872	DB04982
CHEMBL545	DB00898
CHEMBL260880	DB07426
CHEMBL200238	DB02909
CHEMBL711	DB00498
CHEMBL221735	DB07025
CHEMBL404150	DB07345
CHEMBL31962	DB02664
CHEMBL492529	DB08008
CHEMBL339427	DB01199
CHEMBL170721	DB03587
CHEMBL566	DB03419
CHEMBL1200790	DB01107
CHEMBL212522	DB07309
CHEMBL267473	DB03052
CHEMBL1201295	DB00901
CHEMBL1185	DB00315
CHEMBL295124	DB04115
CHEMBL227452	DB07599
CHEMBL362148	DB02335
CHEMBL1232770	DB02521
CHEMBL126726	DB04007
CHEMBL266497	DB02712
CHEMBL1213351	DB00647
CHEMBL1201165	DB04575
CHEMBL31965	DB05424
CHEMBL66526	DB03030
CHEMBL407	DB01205
CHEMBL807	DB01043
CHEMBL11306	DB08403
CHEMBL593	DB00705
CHEMBL3182071	DB01180
CHEMBL482193	DB08285
CHEMBL408	DB00197
CHEMBL1231350	DB04641
CHEMBL157101	DB01026
CHEMBL42208	DB01691
CHEMBL303457	DB07961
CHEMBL548	DB00917
CHEMBL19224	DB01113
CHEMBL3301668	DB01282
CHEMBL1213460	DB01545
CHEMBL1201201	DB01577
CHEMBL609728	DB05492
CHEMBL1200515	DB01089
CHEMBL1230270	DB07106
CHEMBL1747	DB00684
CHEMBL252128	DB06940
CHEMBL1109	DB06729
CHEMBL293700	DB07906
CHEMBL1004	DB00366
CHEMBL457665	DB04370
CHEMBL441	DB00599
CHEMBL563	DB00712
CHEMBL430893	DB01954
CHEMBL430893	DB03606
CHEMBL430893	DB04149
CHEMBL500724	DB07256
CHEMBL658	DB00708
CHEMBL30336	DB01516
CHEMBL184023	DB08226
CHEMBL1682	DB01638
CHEMBL7390	DB04140
CHEMBL54714	DB03649
CHEMBL1201225	DB05382
CHEMBL284348	DB06637
CHEMBL50267	DB01931
CHEMBL237600	DB08085
CHEMBL345248	DB03054
CHEMBL72	DB01151
CHEMBL320049	DB02094
CHEMBL1095777	DB05039
CHEMBL593442	DB02586
CHEMBL20852	DB01896
CHEMBL503160	DB04299
CHEMBL1201012	DB00846
CHEMBL313842	DB02918
CHEMBL1233584	DB00167
CHEMBL93687	DB02049
CHEMBL219146	DB00309
CHEMBL2104926	DB01594
CHEMBL335954	DB03744
CHEMBL1477	DB00439
CHEMBL451	DB00475
CHEMBL1478530	DB01366
CHEMBL88	DB00531
CHEMBL503	DB00227
CHEMBL522806	DB08198
CHEMBL178090	DB07621
CHEMBL521	DB01050
CHEMBL190201	DB08392
CHEMBL220346	DB07284
CHEMBL1544	DB00279
CHEMBL184618	DB00452
CHEMBL184618	DB00994
CHEMBL526479	DB08553
CHEMBL14249	DB00171
CHEMBL1238	DB00548
CHEMBL379642	DB07743
CHEMBL237370	DB07818
CHEMBL1235743	DB04499
CHEMBL518647	DB07414
CHEMBL1476500	DB00778
CHEMBL1201208	DB00830
CHEMBL185595	DB03851
CHEMBL6993	DB03780
CHEMBL341824	DB04196
CHEMBL34076	DB03826
CHEMBL306380	DB01809
CHEMBL394450	DB04284
CHEMBL509	DB00939
CHEMBL361054	DB07787
CHEMBL941	DB00619
CHEMBL255069	DB08207
CHEMBL862	DB01018
CHEMBL6594	DB08723
CHEMBL483091	DB04018
CHEMBL415879	DB02365
CHEMBL337765	DB00360
CHEMBL1093	DB09009
CHEMBL746	DB00716
CHEMBL27	DB00571
CHEMBL1236594	DB08689
CHEMBL1232586	DB04332
CHEMBL96741	DB08522
CHEMBL1234624	DB08254
CHEMBL56367	DB04743
CHEMBL1200434	DB01303
CHEMBL329363	DB06970
CHEMBL611	DB01162
CHEMBL1177	DB01230
CHEMBL275638	DB07776
CHEMBL17	DB01144
CHEMBL404422	DB01353
CHEMBL1525	DB04930
CHEMBL1201244	DB00728
CHEMBL866	DB01024
CHEMBL2104027	DB01499
CHEMBL327715	DB06854
CHEMBL967	DB00231
CHEMBL359020	DB06976
CHEMBL605003	DB08039
CHEMBL416301	DB07873
CHEMBL375971	DB08209
CHEMBL511099	DB04889
CHEMBL290194	DB01425
CHEMBL3182301	DB06718
CHEMBL236777	DB07535
CHEMBL156987	DB01793
CHEMBL240530	DB07123
CHEMBL1201182	DB06287
CHEMBL309282	DB02741
CHEMBL1231862	DB03852
CHEMBL96	DB02530
CHEMBL213947	DB02458
CHEMBL86954	DB03636
CHEMBL288470	DB01424
CHEMBL1045	DB02746
CHEMBL8739	DB00132
CHEMBL467773	DB02100
CHEMBL43	DB00276
CHEMBL1169	DB00233
CHEMBL211769	DB07888
CHEMBL214205	DB03096
CHEMBL1232182	DB04312
CHEMBL491841	DB07588
CHEMBL279786	DB03880
CHEMBL245416	DB01055
CHEMBL968	DB00690
CHEMBL152	DB00369
CHEMBL8943	DB06837
CHEMBL291962	DB01746
CHEMBL291962	DB00149
CHEMBL333179	DB07372
CHEMBL379300	DB08073
CHEMBL257341	DB08352
CHEMBL5	DB00779
CHEMBL550348	DB01609
CHEMBL519939	DB07152
CHEMBL1235810	DB08511
CHEMBL1206869	DB04640
CHEMBL398707	DB00327
CHEMBL573	DB00627
CHEMBL560377	DB08386
CHEMBL960	DB01097
CHEMBL1229868	DB06945
CHEMBL1106	DB00751
CHEMBL164138	DB03251
CHEMBL1200802	DB00306
CHEMBL512172	DB07194
CHEMBL513	DB00262
CHEMBL407567	DB06924
CHEMBL1256292	DB05383
CHEMBL1200963	DB00905
CHEMBL1148	DB00214
CHEMBL1229535	DB06836
CHEMBL32113	DB02583
CHEMBL1229855	DB06939
CHEMBL1096339	DB07347
CHEMBL1234815	DB08300
CHEMBL697	DB05246
CHEMBL411879	DB08080
CHEMBL277522	DB08981
CHEMBL184151	DB06927
CHEMBL483790	DB07292
CHEMBL424278	DB08633
CHEMBL385178	DB07183
CHEMBL191141	DB08282
CHEMBL1551724	DB04944
CHEMBL1201746	DB06813
CHEMBL1697834	DB01495
CHEMBL377956	DB08232
CHEMBL507688	DB06748
CHEMBL151062	DB04784
CHEMBL452587	DB07619
CHEMBL8	DB05488
CHEMBL8	DB00537
CHEMBL894	DB01156
CHEMBL549340	DB08787
CHEMBL338790	DB07096
CHEMBL475398	DB07478
CHEMBL422	DB00831
CHEMBL16958	DB08036
CHEMBL492513	DB06949
CHEMBL78755	DB08301
CHEMBL403328	DB04672
CHEMBL66	DB02224
CHEMBL541	DB03793
CHEMBL124718	DB07769
CHEMBL1200507	DB01249
CHEMBL1963681	DB06237
CHEMBL410834	DB08389
CHEMBL2107793	DB01555
CHEMBL265758	DB01906
CHEMBL148	DB01598
CHEMBL558	DB00379
CHEMBL191	DB00678
CHEMBL204543	DB07610
CHEMBL1259	DB01336
CHEMBL259833	DB07585
CHEMBL267648	DB00487
CHEMBL74074	DB03171
CHEMBL17432	DB07437
CHEMBL419	DB06795
CHEMBL12420	DB01488
CHEMBL788	DB00249
CHEMBL279014	DB04967
CHEMBL123154	DB07047
CHEMBL7863	DB01352
CHEMBL1193	DB01620
CHEMBL100239	DB04163
CHEMBL1432	DB01672
CHEMBL1234276	DB03814
CHEMBL1377	DB01131
CHEMBL94277	DB03626
CHEMBL193482	DB04573
CHEMBL1017	DB00966
CHEMBL6966	DB00661
CHEMBL175247	DB01083
CHEMBL331373	DB02109
CHEMBL1454	DB00848
CHEMBL183817	DB03257
CHEMBL264950	DB08695
CHEMBL1069	DB00177
CHEMBL94809	DB02035
CHEMBL226403	DB08358
CHEMBL256997	DB05016
CHEMBL1581	DB00790
CHEMBL499017	DB05377
CHEMBL1171837	DB08901
CHEMBL550	DB01085
CHEMBL227937	DB02027
CHEMBL108778	DB02531
CHEMBL34964	DB04360
CHEMBL38397	DB03847
CHEMBL1201271	DB00354
CHEMBL1197118	DB07193
CHEMBL700	DB00891
CHEMBL177749	DB07739
CHEMBL34259	DB00563
CHEMBL847	DB01096
CHEMBL243024	DB06943
CHEMBL49	DB00490
CHEMBL1037	DB00226
CHEMBL1738	DB00380
CHEMBL451666	DB03707
CHEMBL92	DB01248
CHEMBL1421	DB01254
CHEMBL1200623	DB01493
CHEMBL339996	DB07114
CHEMBL820	DB01008
CHEMBL86882	DB08985
CHEMBL86304	DB01171
CHEMBL176602	DB08507
CHEMBL10413	DB02132
CHEMBL277100	DB01405
CHEMBL1230333	DB02434
CHEMBL1291	DB01214
CHEMBL396416	DB04339
CHEMBL383570	DB01734
CHEMBL561318	DB07875
CHEMBL374478	DB01045
CHEMBL1236345	DB01676
CHEMBL174391	DB03056
CHEMBL1232699	DB07764
CHEMBL266800	DB08720
CHEMBL2106526	DB01468
CHEMBL385711	DB07154
CHEMBL1232445	DB07702
CHEMBL249334	DB07179
CHEMBL399121	DB01094
CHEMBL32010	DB03703
CHEMBL242080	DB07726
CHEMBL2106618	DB01289
CHEMBL158	DB00355
CHEMBL266195	DB00866
CHEMBL354739	DB03086
CHEMBL225304	DB02533
CHEMBL827	DB06701
CHEMBL1201293	DB00659
CHEMBL330572	DB02744
CHEMBL1231334	DB04637
CHEMBL571	DB01009
CHEMBL1972860	DB05719
CHEMBL1200549	DB04834
CHEMBL332935	DB02166
CHEMBL1688530	DB04911
CHEMBL1175	DB00476
CHEMBL170179	DB01433
CHEMBL2110686	DB05123
CHEMBL1232973	DB03162
CHEMBL111234	DB08466
CHEMBL260585	DB07287
CHEMBL206468	DB04545
CHEMBL1236441	DB08655
CHEMBL204086	DB07522
CHEMBL583	DB00365
CHEMBL363847	DB07965
CHEMBL190467	DB07230
CHEMBL964	DB00822
CHEMBL379367	DB07398
CHEMBL196526	DB07651
CHEMBL869	DB00336
CHEMBL1213368	DB07824
CHEMBL350320	DB04029
CHEMBL2105075	DB08976
CHEMBL20	DB00819
CHEMBL2104047	DB01560
CHEMBL364869	DB08165
CHEMBL22242	DB00409
CHEMBL393949	DB07448
CHEMBL358064	DB02367
CHEMBL1373	DB00745
CHEMBL41355	DB04953
CHEMBL311228	DB08325
CHEMBL109420	DB03534
CHEMBL326611	DB04044
CHEMBL190	DB00277
CHEMBL986	DB00162
CHEMBL1082407	DB08899
CHEMBL559	DB00509
CHEMBL170797	DB08988
CHEMBL1236482	DB02969
CHEMBL1230438	DB01561
CHEMBL48046	DB04424
CHEMBL23	DB00343
CHEMBL148333	DB07997
CHEMBL325023	DB07622
CHEMBL588	DB00800
CHEMBL1730	DB00493
CHEMBL301265	DB00413
CHEMBL324455	DB08570
CHEMBL1370561	DB01223
CHEMBL567	DB00850
CHEMBL288436	DB01941
CHEMBL252923	DB04896
CHEMBL1173328	DB03454
CHEMBL563327	DB06969
CHEMBL1467	DB00437
CHEMBL267345	DB00681
CHEMBL253608	DB08697
CHEMBL1230988	DB07375
CHEMBL406050	DB05448
CHEMBL47181	DB02726
CHEMBL200435	DB06971
CHEMBL3274194	DB02015
CHEMBL1201251	DB01102
CHEMBL241577	DB07030
CHEMBL268254	DB01511
CHEMBL2105566	DB01550
CHEMBL123678	DB02848
CHEMBL2103812	DB05475
CHEMBL990	DB01091
CHEMBL289004	DB02713
CHEMBL509101	DB06896
CHEMBL286497	DB08631
CHEMBL126	DB00601
CHEMBL2051955	DB00922
CHEMBL978	DB06709
CHEMBL82293	DB03796
CHEMBL589370	DB07176
CHEMBL108	DB00564
CHEMBL1162144	DB00119
CHEMBL1233097	DB03337
CHEMBL230347	DB08354
CHEMBL202930	DB07078
CHEMBL2105399	DB08798
CHEMBL1518212	DB08835
CHEMBL472193	DB07360
CHEMBL959	DB00478
CHEMBL1092824	DB07591
CHEMBL92567	DB04523
CHEMBL358850	DB03066
CHEMBL358850	DB04398
CHEMBL445647	DB03229
CHEMBL521703	DB07700
CHEMBL782	DB01124
CHEMBL1233976	DB02233
CHEMBL1233976	DB03412
CHEMBL435128	DB08502
CHEMBL57	DB00238
CHEMBL499783	DB00803
CHEMBL15245	DB01392
CHEMBL285063	DB07662
CHEMBL1190476	DB02269
CHEMBL121915	DB02818
CHEMBL171679	DB00168
CHEMBL714	DB01001
CHEMBL1117	DB01177
CHEMBL184444	DB08001
CHEMBL1181633	DB03895
CHEMBL243978	DB07008
CHEMBL527018	DB07233
CHEMBL491473	DB04849
CHEMBL809	DB08567
CHEMBL809	DB01104
CHEMBL1232472	DB04688
CHEMBL1200733	DB01189
CHEMBL37537	DB03946
CHEMBL578	DB00584
CHEMBL1233249	DB04704
CHEMBL1551	DB01586
CHEMBL18901	DB08486
CHEMBL1542	DB00993
CHEMBL1643	DB00811
CHEMBL1161949	DB07355
CHEMBL47302	DB02091
CHEMBL259850	DB01950
CHEMBL1185242	DB06994
CHEMBL200528	DB04715
CHEMBL109341	DB08587
CHEMBL6437	DB06148
CHEMBL539163	DB04787
CHEMBL124660	DB05465
CHEMBL237127	DB07832
CHEMBL1363	DB01274
CHEMBL45844	DB04065
CHEMBL1255	DB03843
CHEMBL492762	DB08744
CHEMBL494072	DB08351
CHEMBL1229585	DB06842
CHEMBL360410	DB06937
CHEMBL366312	DB07655
CHEMBL695	DB00347
CHEMBL180101	DB00234
CHEMBL380373	DB08097
CHEMBL222838	DB03856
CHEMBL184410	DB02822
CHEMBL1514	DB01227
CHEMBL70418	DB00349
CHEMBL113948	DB07592
CHEMBL1200374	DB00990
CHEMBL161	DB01212
CHEMBL73451	DB01071
CHEMBL930	DB00130
CHEMBL930	DB02174
CHEMBL376505	DB04719
CHEMBL297273	DB03231
CHEMBL537968	DB08450
CHEMBL277474	DB01435
CHEMBL240725	DB07187
CHEMBL184	DB05347
CHEMBL184	DB00787
CHEMBL818	DB06704
CHEMBL867	DB08946
CHEMBL1161998	DB04326
CHEMBL446036	DB03057
CHEMBL297569	DB03107
CHEMBL112	DB00316
CHEMBL1232164	DB07645
CHEMBL16073	DB03783
CHEMBL195393	DB08093
CHEMBL526330	DB04658
CHEMBL2105044	DB08939
CHEMBL307189	DB03475
CHEMBL483	DB00300
CHEMBL220396	DB07303
CHEMBL243940	DB06829
CHEMBL237337	DB08504
CHEMBL561057	DB05186
CHEMBL521589	DB01408
CHEMBL85320	DB08040
CHEMBL237786	DB08445
CHEMBL45	DB01065
CHEMBL267048	DB02651
CHEMBL233349	DB07539
CHEMBL1084625	DB07628
CHEMBL1200971	DB00689
CHEMBL950	DB02279
CHEMBL341273	DB07203
CHEMBL1575	DB01196
CHEMBL460460	DB07291
CHEMBL918	DB01121
CHEMBL514988	DB07445
CHEMBL1088	DB00933
CHEMBL380888	DB07100
CHEMBL810	DB00853
CHEMBL1254682	DB00504
CHEMBL19019	DB00704
CHEMBL227439	DB07185
CHEMBL895	DB00844
CHEMBL275528	DB03575
CHEMBL224120	DB00118
CHEMBL473119	DB07935
CHEMBL1234133	DB08145
CHEMBL254951	DB03345
CHEMBL401377	DB07210
CHEMBL432162	DB01349
CHEMBL680	DB00833
CHEMBL1230661	DB04612
CHEMBL356700	DB07618
CHEMBL590540	DB00138
CHEMBL646	DB00897
CHEMBL1276421	DB00377
CHEMBL200849	DB08757
CHEMBL1201798	DB00658
CHEMBL270875	DB07457
CHEMBL380500	DB08694
CHEMBL1371200	DB09015
CHEMBL633	DB01118
CHEMBL1235110	DB08361
CHEMBL380648	DB08058
CHEMBL1046	DB00513
CHEMBL864	DB00748
CHEMBL1201772	DB06209
CHEMBL452	DB01068
CHEMBL415087	DB09002
CHEMBL1236690	DB04359
CHEMBL216146	DB04580
CHEMBL1086445	DB04381
CHEMBL16	DB00252
CHEMBL139393	DB03670
CHEMBL1230790	DB07335
CHEMBL497834	DB04706
CHEMBL185097	DB01858
CHEMBL596	DB00813
CHEMBL177275	DB07018
CHEMBL778	DB00633
CHEMBL213490	DB07404
CHEMBL1208309	DB02776
CHEMBL1235482	DB03266
CHEMBL82767	DB07163
CHEMBL223228	DB00625
CHEMBL1201204	DB00430
CHEMBL303004	DB03260
CHEMBL190083	DB05289
CHEMBL1230044	DB07015
CHEMBL489657	DB07693
CHEMBL309339	DB03819
CHEMBL227954	DB08588
CHEMBL173706	DB00373
CHEMBL71	DB00477
CHEMBL517712	DB00572
CHEMBL1208306	DB00464
CHEMBL1071	DB00991
CHEMBL54976	DB00150
CHEMBL956	DB00870
CHEMBL1200641	DB00565
CHEMBL1201239	DB08948
CHEMBL2106284	DB01475
CHEMBL1232381	DB03775
CHEMBL254432	DB04331
CHEMBL372357	DB08278
CHEMBL3092041	DB01538
CHEMBL175970	DB02461
CHEMBL328139	DB03370
CHEMBL408967	DB07596
CHEMBL136145	DB01803
CHEMBL15722	DB01996
CHEMBL87493	DB00574
CHEMBL1893554	DB01514
CHEMBL359482	DB08454
CHEMBL1764	DB01403
CHEMBL970	DB00801
CHEMBL2111066	DB08802
CHEMBL459	DB00968
CHEMBL1205969	DB03688
CHEMBL189938	DB08063
CHEMBL487894	DB04817
CHEMBL26260	DB06732
CHEMBL129788	DB08734
CHEMBL1232236	DB02127
CHEMBL472879	DB07901
CHEMBL225664	DB08062
CHEMBL1162	DB00717
CHEMBL375270	DB07863
CHEMBL70	DB00295
CHEMBL445420	DB08135
CHEMBL86	DB01233
CHEMBL245549	DB08221
CHEMBL95681	DB04699
CHEMBL219445	DB08391
CHEMBL264702	DB07663
CHEMBL125236	DB07423
CHEMBL44426	DB05414
CHEMBL571159	DB07300
CHEMBL65230	DB03234
CHEMBL372164	DB07216
CHEMBL2028663	DB08912
CHEMBL2	DB00457
CHEMBL2107457	DB04924
CHEMBL1051	DB00654
CHEMBL286398	DB01839
CHEMBL405957	DB02172
CHEMBL576127	DB08979
CHEMBL184048	DB02585
CHEMBL2135460	DB02638
CHEMBL219484	DB08478
CHEMBL1236282	DB08621
CHEMBL104166	DB03082
CHEMBL863	DB00151
CHEMBL863	DB03201
CHEMBL1196	DB00807
CHEMBL638	DB00582
CHEMBL1235108	DB08359
CHEMBL562317	DB08384
CHEMBL1183717	DB01430
CHEMBL301523	DB00120
CHEMBL531	DB01186
CHEMBL1233206	DB07874
CHEMBL186422	DB04745
CHEMBL44657	DB00773
CHEMBL286738	DB02292
CHEMBL492265	DB07307
CHEMBL1230906	DB02952
CHEMBL42423	DB03407
CHEMBL2010601	DB08820
CHEMBL1744	DB01579
CHEMBL985	DB03904
CHEMBL1229	DB00198
CHEMBL480626	DB04638
CHEMBL245807	DB04823
CHEMBL253376	DB09019
CHEMBL453137	DB07695
CHEMBL1500	DB01565
CHEMBL363614	DB04179
CHEMBL66380	DB08256
CHEMBL516357	DB07045
CHEMBL1234904	DB08314
CHEMBL274467	DB04619
CHEMBL195441	DB01845
CHEMBL360563	DB03749
CHEMBL474637	DB08018
CHEMBL120708	DB02008
CHEMBL234569	DB08710
CHEMBL119385	DB07138
CHEMBL1263	DB00938
CHEMBL1231329	DB01681
CHEMBL1234952	DB08321
CHEMBL252557	DB03085
CHEMBL1473	DB00588
CHEMBL165024	DB08724
CHEMBL249856	DB04880
CHEMBL1234416	DB08197
CHEMBL67133	DB02544
CHEMBL502	DB00843
CHEMBL539906	DB08777
CHEMBL1521	DB00962
CHEMBL24722	DB06894
CHEMBL498	DB00672
CHEMBL455333	DB02226
CHEMBL387385	DB07264
CHEMBL333964	DB04000
CHEMBL263143	DB07156
CHEMBL9113	DB01900
CHEMBL355497	DB03062
CHEMBL1233	DB00395
CHEMBL11722	DB04193
CHEMBL46486	DB03095
CHEMBL406863	DB08148
CHEMBL550781	DB04856
CHEMBL269538	DB07919
CHEMBL1077	DB00963
CHEMBL1503	DB00338
CHEMBL1113	DB00543
CHEMBL23996	DB08307
CHEMBL397420	DB01418
CHEMBL231884	DB08995
CHEMBL790	DB00878
CHEMBL1118	DB06700
CHEMBL1233636	DB07992
CHEMBL2103929	DB00256
CHEMBL562314	DB08774
CHEMBL1685	DB01209
CHEMBL95889	DB04455
CHEMBL590	DB00170
CHEMBL1454946	DB08974
CHEMBL1160508	DB02153
CHEMBL205437	DB08239
CHEMBL268736	DB02406
CHEMBL216973	DB04605
CHEMBL1619758	DB01546
CHEMBL1201245	DB01237
CHEMBL458049	DB04208
CHEMBL1230684	DB02222
CHEMBL1194345	DB07021
CHEMBL254520	DB07929
CHEMBL409450	DB03444
CHEMBL462394	DB01578
CHEMBL1233401	DB07918
CHEMBL47072	DB06738
CHEMBL456218	DB07014
CHEMBL1235716	DB04161
CHEMBL1236484	DB03422
CHEMBL251074	DB02507
CHEMBL107874	DB02448
CHEMBL422668	DB03012
CHEMBL317052	DB06213
CHEMBL226471	DB07728
CHEMBL1079935	DB08927
CHEMBL357995	DB08807
CHEMBL806	DB00499
CHEMBL62136	DB07080
CHEMBL1235644	DB00755
CHEMBL1042	DB00169
CHEMBL457530	DB01686
CHEMBL24072	DB04825
CHEMBL425616	DB08096
CHEMBL394875	DB02216
CHEMBL1213369	DB07865
CHEMBL3182018	DB04257
CHEMBL2107583	DB01613
CHEMBL1522	DB00402
CHEMBL1200862	DB00765
CHEMBL1401691	DB01134
CHEMBL1233506	DB01630
CHEMBL1570	DB01145
CHEMBL389621	DB00741
CHEMBL389621	DB07886
CHEMBL617	DB00456
CHEMBL360998	DB07609
CHEMBL43719	DB04105
CHEMBL428462	DB07859
CHEMBL507361	DB07101
CHEMBL3085436	DB06827
CHEMBL233992	DB08174
CHEMBL113690	DB02754
CHEMBL376044	DB08481
CHEMBL575218	DB07141
CHEMBL1235533	DB02372
CHEMBL261723	DB01871
CHEMBL484780	DB07559
CHEMBL254219	DB01396
CHEMBL55771	DB08508
CHEMBL2107419	DB01569
CHEMBL316308	DB07903
CHEMBL24	DB00335
CHEMBL444144	DB02806
CHEMBL90403	DB02953
CHEMBL230001	DB07401
CHEMBL69863	DB08399
CHEMBL1232511	DB02856
CHEMBL144888	DB03976
CHEMBL493287	DB01296
CHEMBL1229211	DB08930
CHEMBL1213252	DB00628
CHEMBL438303	DB08353
CHEMBL1101	DB00810
CHEMBL191060	DB07842
CHEMBL300982	DB04725
CHEMBL24983	DB04459
CHEMBL73303	DB02197
CHEMBL833	DB00208
CHEMBL392990	DB07146
CHEMBL1236620	DB08691
CHEMBL45029	DB00849
CHEMBL321944	DB03046
CHEMBL1664	DB01319
CHEMBL139928	DB02503
CHEMBL1218	DB00980
CHEMBL257553	DB07252
CHEMBL410462	DB07147
CHEMBL56279	DB02679
CHEMBL410668	DB08242
CHEMBL274064	DB04338
CHEMBL318516	DB04684
CHEMBL16645	DB01688
CHEMBL1070	DB00461
CHEMBL887	DB01367
CHEMBL134022	DB04010
CHEMBL781	DB00579
CHEMBL200255	DB04588
CHEMBL1191	DB00576
CHEMBL1200934	DB00957
CHEMBL31574	DB07795
CHEMBL1234479	DB03033
CHEMBL186483	DB07368
CHEMBL509064	DB07112
CHEMBL723	DB01136
CHEMBL280998	DB02232
CHEMBL1595	DB01551
CHEMBL89363	DB08577
CHEMBL149603	DB02762
CHEMBL2106240	DB00286
CHEMBL291157	DB00817
CHEMBL1232918	DB02263
CHEMBL62855	DB08458
CHEMBL1201210	DB00777
CHEMBL53904	DB01624
CHEMBL538937	DB08786
CHEMBL1296	DB00229
CHEMBL33	DB01137
CHEMBL269634	DB02032
CHEMBL615	DB00417
CHEMBL1201388	DB00687
CHEMBL402747	DB07079
CHEMBL320358	DB02938
CHEMBL200022	DB08177
CHEMBL1404	DB00243
CHEMBL118	DB00482
CHEMBL1423	DB01100
CHEMBL1760	DB00871
CHEMBL296435	DB07711
CHEMBL22587	DB01167
CHEMBL1231778	DB04387
CHEMBL925	DB00135
CHEMBL925	DB03839
CHEMBL198362	DB06228
CHEMBL198362	DB08477
CHEMBL273101	DB07802
CHEMBL2110809	DB09014
CHEMBL383705	DB01884
CHEMBL1197051	DB08941
CHEMBL286204	DB01796
CHEMBL796	DB00422
CHEMBL394429	DB01643
CHEMBL2110602	DB01414
CHEMBL55264	DB06830
CHEMBL194805	DB06902
CHEMBL242237	DB07268
CHEMBL569713	DB00747
CHEMBL1234151	DB04732
CHEMBL905	DB00953
CHEMBL1234042	DB03810
CHEMBL1234042	DB01898
CHEMBL1234956	DB08322
CHEMBL141	DB00709
CHEMBL574060	DB03035
CHEMBL90555	DB00541
CHEMBL3251336	DB04627
CHEMBL689	DB00742
CHEMBL16300	DB01924
CHEMBL110971	DB06931
CHEMBL436784	DB08089
CHEMBL1324	DB00323
CHEMBL125381	DB03181
CHEMBL145	DB01880
CHEMBL293498	DB08598
CHEMBL76029	DB08077
CHEMBL1232702	DB07765
CHEMBL1201380	DB00223
CHEMBL437557	DB07092
CHEMBL1201206	DB01338
CHEMBL1082	DB01060
CHEMBL25	DB00945
CHEMBL425148	DB04200
CHEMBL134	DB00575
CHEMBL171246	DB04553
CHEMBL44803	DB03571
CHEMBL1754	DB00561
CHEMBL303992	DB02526
CHEMBL608476	DB04127
CHEMBL608476	DB04352
CHEMBL1231178	DB07418
CHEMBL1374738	DB00614
CHEMBL324846	DB04519
CHEMBL53	DB00714
CHEMBL1200694	DB01236
CHEMBL642	DB01193
CHEMBL109367	DB02473
CHEMBL549748	DB01751
CHEMBL126506	DB01442
CHEMBL444	DB01483
CHEMBL204593	DB07290
CHEMBL402626	DB08579
CHEMBL112896	DB03504
CHEMBL465	DB00470
CHEMBL275084	DB07954
CHEMBL383208	DB02884
CHEMBL58910	DB03357
CHEMBL58910	DB02280
CHEMBL358860	DB03525
CHEMBL1469	DB02000
CHEMBL455706	DB01564
CHEMBL38943	DB05416
CHEMBL849	DB08604
CHEMBL376632	DB06916
CHEMBL61593	DB00606
CHEMBL653	DB00585
CHEMBL437526	DB04875
CHEMBL1229967	DB01635
CHEMBL298826	DB07720
CHEMBL1739	DB00416
CHEMBL231068	DB04908
CHEMBL1201222	DB01255
CHEMBL945	DB00594
CHEMBL269881	DB02407
CHEMBL300461	DB03503
CHEMBL191275	DB08121
CHEMBL1081615	DB04631
CHEMBL223873	DB08056
CHEMBL506649	DB08310
CHEMBL440510	DB08681
CHEMBL357217	DB02400
CHEMBL1445	DB01185
CHEMBL209740	DB07276
CHEMBL608393	DB08210
CHEMBL734	DB00551
CHEMBL391640	DB07211
CHEMBL93	DB00744
CHEMBL428647	DB01229
CHEMBL51969	DB06838
CHEMBL452648	DB08104
CHEMBL1201780	DB06775
CHEMBL980	DB00874
CHEMBL277535	DB04794
CHEMBL218382	DB08416
CHEMBL9	DB01059
CHEMBL286939	DB01962
CHEMBL570	DB00508
CHEMBL352764	DB07377
CHEMBL1272	DB00912
CHEMBL394259	DB04864
CHEMBL515774	DB07937
CHEMBL511	DB06691
CHEMBL564249	DB08429
CHEMBL1200490	DB00050
CHEMBL509730	DB08140
CHEMBL380589	DB07128
CHEMBL582878	DB02740
CHEMBL57531	DB08144
CHEMBL501822	DB08294
CHEMBL1146	DB01326
CHEMBL305178	DB01761
CHEMBL19980	DB07348
CHEMBL202431	DB07977
CHEMBL612	DB01576
CHEMBL549	DB00215
CHEMBL1571863	DB08943
CHEMBL1079	DB00697
CHEMBL1201335	DB00986
CHEMBL1200572	DB01377
CHEMBL458616	DB02210
CHEMBL575	DB01603
CHEMBL24231	DB04214
CHEMBL1697841	DB06706
CHEMBL262103	DB07223
CHEMBL225983	DB01694
CHEMBL447	DB00418
CHEMBL504567	DB03068
CHEMBL441738	DB04931
CHEMBL211614	DB07757
CHEMBL1233867	DB08049
CHEMBL420671	DB07388
CHEMBL153813	DB03767
CHEMBL332447	DB05838
CHEMBL1323	DB01264
CHEMBL281795	DB08489
CHEMBL482505	DB08376
CHEMBL1201242	DB00192
CHEMBL23261	DB04883
CHEMBL1231358	DB01944
CHEMBL253976	DB07644
CHEMBL388751	DB00856
CHEMBL296939	DB07826
CHEMBL236086	DB08020
CHEMBL425	DB01250
CHEMBL316388	DB08608
CHEMBL1161221	DB03154
CHEMBL802	DB00350
CHEMBL65273	DB08422
CHEMBL819	DB00713
CHEMBL101683	DB07288
CHEMBL50444	DB04377
CHEMBL224436	DB01321
CHEMBL1454910	DB01422
CHEMBL115	DB00224
CHEMBL13280	DB01544
CHEMBL483995	DB07561
CHEMBL857	DB00121
CHEMBL2106409	DB05129
CHEMBL81	DB00481
CHEMBL386389	DB00091
CHEMBL402262	DB08046
CHEMBL595	DB01132
CHEMBL998	DB00455
CHEMBL487431	DB07537
CHEMBL1771	DB00758
CHEMBL513425	DB08051
CHEMBL167874	DB08722
CHEMBL439	DB00359
CHEMBL22150	DB08936
CHEMBL249120	DB02163
CHEMBL1380	DB01048
CHEMBL127	DB00760
CHEMBL380331	DB07687
CHEMBL142936	DB01460
CHEMBL291678	DB03276
CHEMBL1208	DB00827
CHEMBL416146	DB01628
CHEMBL436	DB02383
CHEMBL232566	DB08173
CHEMBL99	DB04297
CHEMBL1187319	DB08141
CHEMBL1670	DB00648
CHEMBL466269	DB08747
CHEMBL218289	DB08672
CHEMBL199441	DB07304
CHEMBL211312	DB03800
CHEMBL10118	DB07778
CHEMBL561540	DB08010
CHEMBL375112	DB07848
CHEMBL1201749	DB06781
CHEMBL1236661	DB08699
CHEMBL1231486	DB03804
CHEMBL158766	DB04120
CHEMBL220087	DB02417
CHEMBL1201056	DB01298
CHEMBL305544	DB01347
CHEMBL87223	DB04452
CHEMBL416526	DB01445
CHEMBL294199	DB05318
CHEMBL92361	DB01765
CHEMBL260091	DB07536
CHEMBL1232653	DB03147
CHEMBL1200866	DB05791
CHEMBL70967	DB07343
CHEMBL222863	DB01092
CHEMBL177820	DB04462
CHEMBL838	DB00542
CHEMBL770	DB00797
CHEMBL9324	DB08837
CHEMBL447183	DB07405
CHEMBL123904	DB02690
CHEMBL570533	DB07267
CHEMBL541253	DB03120
CHEMBL1229950	DB02534
CHEMBL1078685	DB01685
CHEMBL63055	DB02020
CHEMBL1084081	DB07541
CHEMBL462712	DB07969
CHEMBL1766	DB00547
CHEMBL333410	DB01570
CHEMBL606	DB00929
CHEMBL606	DB05379
CHEMBL146755	DB03902
CHEMBL236573	DB07013
CHEMBL8706	DB04017
CHEMBL52333	DB05360
CHEMBL130	DB00446
CHEMBL372396	DB02296
CHEMBL1789941	DB08877
CHEMBL1341	DB01028
CHEMBL465183	DB00154
CHEMBL229264	DB07286
CHEMBL24778	DB06207
CHEMBL116	DB00701
CHEMBL328560	DB08329
CHEMBL1210221	DB08435
CHEMBL103043	DB04059
CHEMBL12318	DB00720
CHEMBL456929	DB08223
CHEMBL2104406	DB04851
CHEMBL346178	DB04872
CHEMBL2103849	DB06267
CHEMBL489586	DB08460
CHEMBL261850	DB03312
CHEMBL1230670	DB07302
CHEMBL356362	DB04714
CHEMBL1455	DB00488
CHEMBL657	DB01075
CHEMBL23254	DB02733
CHEMBL191146	DB07868
CHEMBL1580	DB00552
CHEMBL682	DB00613
CHEMBL305785	DB07295
CHEMBL463321	DB08081
CHEMBL1235660	DB08471
CHEMBL8663	DB01037
CHEMBL309499	DB03770
CHEMBL1480987	DB04838
CHEMBL116296	DB02252
CHEMBL1274	DB00665
CHEMBL359788	DB04520
CHEMBL194009	DB02352
CHEMBL391737	DB07277
CHEMBL1168	DB00178
CHEMBL234838	DB07217
CHEMBL1623765	DB01473
CHEMBL287556	DB01759
CHEMBL1201173	DB00253
CHEMBL416956	DB00358
CHEMBL43452	DB08910
CHEMBL39221	DB04228
CHEMBL253371	DB01616
CHEMBL192966	DB02545
CHEMBL1231562	DB07517
CHEMBL497058	DB08027
CHEMBL269732	DB00864
CHEMBL1237046	DB01301
CHEMBL1201341	DB01057
CHEMBL1149	DB00583
CHEMBL462228	DB08055
CHEMBL190170	DB07871
CHEMBL1234905	DB08315
CHEMBL12315	DB04329
CHEMBL35033	DB08188
CHEMBL256725	DB07250
CHEMBL364347	DB02010
CHEMBL301213	DB04609
CHEMBL1981292	DB00644
CHEMBL1321	DB01168
CHEMBL382127	DB04577
CHEMBL248702	DB01191
CHEMBL1232132	DB07637
CHEMBL1200731	DB00761
CHEMBL1233797	DB02929
CHEMBL368238	DB07974
CHEMBL821	DB00536
CHEMBL146554	DB04074
CHEMBL1235529	DB08441
CHEMBL1201229	DB00944
CHEMBL258208	DB04733
CHEMBL2107591	DB01482
CHEMBL1946170	DB08896
CHEMBL1571	DB00894
CHEMBL390674	DB07029
CHEMBL1230004	DB06987
CHEMBL325041	DB00188
CHEMBL325041	DB07475
CHEMBL146428	DB05003
CHEMBL9967	DB00670
CHEMBL119	DB01157
CHEMBL603	DB00549
CHEMBL470670	DB00825
CHEMBL413965	DB07477
CHEMBL526	DB00818
CHEMBL1997373	DB05806
CHEMBL1200596	DB01243
CHEMBL104815	DB04125
CHEMBL325414	DB04503
CHEMBL1025	DB00677
CHEMBL1184499	DB04763
CHEMBL391805	DB07630
CHEMBL1235738	DB03894
CHEMBL178657	DB07429
CHEMBL477772	DB06589
CHEMBL1560	DB01197
CHEMBL514	DB01206
CHEMBL1233654	DB07996
CHEMBL292821	DB01537
CHEMBL274826	DB01536
CHEMBL1040	DB00146
CHEMBL334830	DB05327
CHEMBL1200714	DB01178
CHEMBL254316	DB06817
CHEMBL1256391	DB04951
CHEMBL459170	DB08444
CHEMBL214253	DB04608
CHEMBL194176	DB07334
CHEMBL641	DB00289
CHEMBL38827	DB06708
CHEMBL191598	DB08064
CHEMBL72232	DB04030
CHEMBL376359	DB06203
CHEMBL1235702	DB04776
CHEMBL1235981	DB01704
CHEMBL1515795	DB00698
CHEMBL450449	DB05109
CHEMBL361348	DB01888
CHEMBL99965	DB08680
CHEMBL1648	DB00270
CHEMBL213618	DB07235
CHEMBL119596	DB02249
CHEMBL126279	DB01566
CHEMBL289469	DB00889
CHEMBL265325	DB02085
CHEMBL400431	DB07174
CHEMBL110739	DB04652
CHEMBL1585	DB00236
CHEMBL1763	DB00774
CHEMBL111	DB06155
CHEMBL289422	DB08683
CHEMBL592	DB00854
CHEMBL71927	DB08665
CHEMBL2110774	DB09007
CHEMBL636	DB00989
CHEMBL251940	DB01608
CHEMBL220491	DB01194
CHEMBL14687	DB03175
CHEMBL447868	DB01398
CHEMBL1094304	DB04662
CHEMBL853	DB00943
CHEMBL479032	DB08379
CHEMBL1198650	DB07095
CHEMBL44884	DB00330
CHEMBL302715	DB01748
CHEMBL1433	DB00254
CHEMBL15980	DB03561
CHEMBL1201256	DB00662
CHEMBL472	DB01016
CHEMBL311932	DB08271
CHEMBL1233202	DB07870
CHEMBL36	DB00205
CHEMBL1112	DB01238
CHEMBL561	DB00978
CHEMBL431	DB01348
CHEMBL1232180	DB07649
CHEMBL2104149	DB01459
CHEMBL1731	DB00948
CHEMBL1419	DB01105
CHEMBL1230023	DB07001
CHEMBL227924	DB07857
CHEMBL227924	DB07858
CHEMBL963	DB01192
CHEMBL251932	DB08206
CHEMBL2106467	DB08803
CHEMBL486214	DB08711
CHEMBL112834	DB03899
CHEMBL260629	DB03144
CHEMBL10878	DB06594
CHEMBL216543	DB02052
CHEMBL1242	DB01438
CHEMBL351298	DB08487
CHEMBL29392	DB04333
CHEMBL83547	DB04306
CHEMBL1460	DB00900
CHEMBL1236469	DB03374
CHEMBL1496	DB01098
CHEMBL1234135	DB08147
CHEMBL1276308	DB00834
CHEMBL202839	DB07121
CHEMBL233149	DB07534
CHEMBL1231193	DB08645
CHEMBL74078	DB08299
CHEMBL174	DB00415
CHEMBL539697	DB06695
CHEMBL564	DB00420
CHEMBL27220	DB03849
CHEMBL1201776	DB06204
CHEMBL1230020	DB06999
CHEMBL1605	DB01415
CHEMBL56053	DB01739
CHEMBL1233134	DB04702
CHEMBL557915	DB07872
CHEMBL1524039	DB01530
CHEMBL1236019	DB03203
CHEMBL321357	DB03817
CHEMBL1232589	DB02396
CHEMBL704	DB00244
CHEMBL603367	DB03101
CHEMBL410448	DB08557
CHEMBL1200604	DB00809
CHEMBL779	DB00820
CHEMBL203631	DB08025
CHEMBL1491	DB00381
CHEMBL459324	DB01452
CHEMBL272198	DB07274
CHEMBL902	DB00927
CHEMBL532	DB00199
CHEMBL1200896	DB01160
CHEMBL384304	DB08094
CHEMBL1233300	DB04707
CHEMBL2110569	DB08824
CHEMBL2105745	DB08909
CHEMBL443	DB01015
CHEMBL1235116	DB08363
CHEMBL1257	DB00228
CHEMBL1221659	DB07389
CHEMBL492320	DB07097
CHEMBL148630	DB03078
CHEMBL1200438	DB01007
CHEMBL597	DB00692
CHEMBL452289	DB07181
CHEMBL455	DB00634
CHEMBL1411693	DB08991
CHEMBL62897	DB06857
CHEMBL127071	DB05458
CHEMBL343336	DB08159
CHEMBL44228	DB03836
CHEMBL95	DB00382
CHEMBL1201766	DB06716
CHEMBL189607	DB04006
CHEMBL445813	DB08142
CHEMBL56190	DB03705
CHEMBL22	DB00440
CHEMBL218394	DB08873
CHEMBL218394	DB05665
CHEMBL1388	DB00600
CHEMBL776	DB00816
CHEMBL1021	DB06802
CHEMBL2103778	DB04885
CHEMBL31871	DB07892
CHEMBL389767	DB08345
CHEMBL257036	DB07412
CHEMBL486422	DB02115
CHEMBL1440	DB00759
CHEMBL1278	DB00952
CHEMBL169901	DB04840
CHEMBL6448	DB08721
CHEMBL298312	DB01776
CHEMBL2104955	DB04891
CHEMBL47590	DB04407
CHEMBL515606	DB01340
CHEMBL406572	DB06992
CHEMBL24957	DB07984
CHEMBL24957	DB07981
CHEMBL1589	DB00414
CHEMBL2104745	DB04903
CHEMBL253951	DB08333
CHEMBL144673	DB08958
CHEMBL468154	DB03106
CHEMBL76	DB00608
CHEMBL729	DB01601
CHEMBL2105458	DB04826
CHEMBL354773	DB04406
CHEMBL1199080	DB01158
CHEMBL221118	DB07206
CHEMBL197550	DB07308
CHEMBL230172	DB07746
CHEMBL1235017	DB02262
CHEMBL625	DB00730
CHEMBL378160	DB08560
CHEMBL514794	DB04760
CHEMBL556	DB00746
CHEMBL2105275	DB06714
CHEMBL214502	DB07197
CHEMBL477	DB00640
CHEMBL319467	DB07126
CHEMBL401842	DB07946
CHEMBL900	DB01173
CHEMBL621	DB00656
CHEMBL559147	DB08756
CHEMBL400599	DB09022
CHEMBL132376	DB03859
CHEMBL291747	DB00156
CHEMBL989	DB00591
CHEMBL71611	DB06891
CHEMBL744	DB00740
CHEMBL119296	DB03854
CHEMBL430488	DB07885
CHEMBL1370	DB01222
CHEMBL1410	DB06804
CHEMBL440498	DB08490
CHEMBL1104	DB01010
CHEMBL423192	DB07374
CHEMBL134886	DB02440
CHEMBL283639	DB08726
CHEMBL495898	DB08111
CHEMBL440464	DB00184
CHEMBL85799	DB02854
CHEMBL329137	DB01729
CHEMBL969	DB01588
CHEMBL279956	DB02999
CHEMBL2359721	DB08990
CHEMBL1197	DB00473
CHEMBL551978	DB06751
CHEMBL220513	DB07804
CHEMBL686	DB00784
CHEMBL1451	DB00620
CHEMBL3187683	DB05343
CHEMBL406821	DB07876
CHEMBL1231545	DB07507
CHEMBL205596	DB02659
CHEMBL1232960	DB02111
CHEMBL2106613	DB05288
CHEMBL31344	DB04175
CHEMBL1221699	DB08462
CHEMBL850	DB01208
CHEMBL476189	DB08768
CHEMBL41631	DB04513
CHEMBL2103920	DB05034
CHEMBL1020	DB00500
CHEMBL220896	DB07993
CHEMBL12208	DB07118
CHEMBL426815	DB02420
CHEMBL281812	DB03228
CHEMBL1480	DB01023
CHEMBL129	DB00495
CHEMBL66412	DB03748
CHEMBL1579	DB01384
CHEMBL1235259	DB02327
CHEMBL117785	DB04844
CHEMBL177101	DB07798
CHEMBL253629	DB08211
CHEMBL264374	DB01393
CHEMBL243580	DB07301
CHEMBL1235157	DB03167
CHEMBL1201260	DB00217
CHEMBL87277	DB02277
CHEMBL1160567	DB02011
CHEMBL66280	DB07173
CHEMBL270164	DB07833
CHEMBL32479	DB09017
CHEMBL877	DB00302
CHEMBL1255739	DB04819
CHEMBL200377	DB07759
CHEMBL1082738	DB04616
CHEMBL406652	DB08709
CHEMBL343892	DB01745
CHEMBL24787	DB08725
CHEMBL467987	DB07706
CHEMBL1232952	DB07814
CHEMBL149223	DB00222
CHEMBL1230144	DB07061
CHEMBL278703	DB07933
CHEMBL1201323	DB00272
CHEMBL370143	DB01421
CHEMBL3183440	DB00265
CHEMBL115220	DB06944
CHEMBL1201264	DB00940
CHEMBL82324	DB03140
CHEMBL1650	DB01380
CHEMBL109005	DB08571
CHEMBL351769	DB03006
CHEMBL485945	DB08130
CHEMBL6466	DB04665
CHEMBL83668	DB00525
CHEMBL453716	DB03316
CHEMBL240719	DB01689
CHEMBL1513	DB01029
CHEMBL1399	DB01217
CHEMBL219695	DB08257
CHEMBL1190	DB01245
CHEMBL91	DB01110
CHEMBL28	DB07352
CHEMBL281948	DB02152
CHEMBL1256786	DB00983
CHEMBL29411	DB02513
CHEMBL307782	DB02054
CHEMBL1213403	DB07808
CHEMBL14227	DB03568
CHEMBL1712170	DB01466
CHEMBL707	DB00590
CHEMBL1235848	DB02453
CHEMBL40422	DB02386
CHEMBL2140942	DB01441
CHEMBL154	DB08298
CHEMBL154	DB00788
CHEMBL87647	DB06874
CHEMBL328827	DB02001
CHEMBL765	DB01170
CHEMBL1088751	DB07941
CHEMBL1160559	DB02428
CHEMBL462170	DB07265
CHEMBL398346	DB06961
CHEMBL44	DB01645
CHEMBL285527	DB04474
CHEMBL1621	DB01267
CHEMBL1232903	DB01779
CHEMBL1089	DB00780
CHEMBL456	DB00903
CHEMBL275339	DB08214
CHEMBL1232583	DB07724
CHEMBL278663	DB01472
CHEMBL785	DB00867
CHEMBL197277	DB04632
CHEMBL1232343	DB04678
CHEMBL1516	DB00275
CHEMBL227123	DB04537
CHEMBL631	DB01182
CHEMBL549385	DB08015
CHEMBL438	DB01581
CHEMBL249973	DB04867
CHEMBL36506	DB01051
CHEMBL212218	DB07620
CHEMBL2104523	DB08810
CHEMBL109162	DB02268
CHEMBL194859	DB07635
CHEMBL1378	DB00372
CHEMBL55960	DB08100
CHEMBL77562	DB08632
CHEMBL63130	DB04531
CHEMBL2104306	DB08994
CHEMBL457547	DB01141
CHEMBL363302	DB07653
CHEMBL440	DB01154
CHEMBL296323	DB07454
CHEMBL301370	DB07884
CHEMBL205098	DB07248
CHEMBL1108	DB00450
CHEMBL701	DB00181
CHEMBL303041	DB02295
CHEMBL681	DB00292
CHEMBL512	DB00863
CHEMBL239507	DB07513
CHEMBL1182247	DB04221
CHEMBL48813	DB08495
CHEMBL1773	DB01101
CHEMBL1231248	DB01515
CHEMBL14021	DB03766
CHEMBL479880	DB02055
CHEMBL64579	DB03173
CHEMBL304858	DB02016
CHEMBL1194666	DB00937
CHEMBL316053	DB07261
CHEMBL54918	DB01629
CHEMBL367588	DB07032
CHEMBL529	DB00207
CHEMBL14376	DB04946
CHEMBL409038	DB08707
CHEMBL28319	DB01726
CHEMBL463	DB00345
CHEMBL149752	DB03941
CHEMBL1463	DB01099
CHEMBL473417	DB08828
CHEMBL370252	DB08972
CHEMBL1957038	DB04915
CHEMBL522387	DB06882
CHEMBL151604	DB01927
CHEMBL1501	DB01047
CHEMBL856	DB00794
CHEMBL1201109	DB01260
CHEMBL458966	DB08108
CHEMBL291386	DB08261
CHEMBL574003	DB07917
CHEMBL1434	DB01017
CHEMBL3184381	DB01076
CHEMBL1236595	DB08690
CHEMBL14192	DB04581
CHEMBL123132	DB02966
CHEMBL568737	DB03750
CHEMBL442951	DB04046
CHEMBL58832	DB00174
CHEMBL227381	DB07947
CHEMBL865	DB00580
CHEMBL363498	DB07198
CHEMBL18442	DB06809
CHEMBL372795	DB01082
CHEMBL70421	DB02025
CHEMBL469662	DB04422
CHEMBL313405	DB07337
CHEMBL334167	DB03294
CHEMBL1086	DB00527
CHEMBL378927	DB07313
CHEMBL280074	DB02116
CHEMBL267894	DB01351
CHEMBL383189	DB07877
CHEMBL382311	DB08003
CHEMBL1979448	DB00137
CHEMBL1441961	DB05197
CHEMBL327127	DB08339
CHEMBL449	DB00237
CHEMBL1479	DB01406
CHEMBL401974	DB07062
CHEMBL96852	DB01760
CHEMBL7728	DB01355
CHEMBL86658	DB04270
CHEMBL602	DB00847
CHEMBL1098	DB00297
CHEMBL29609	DB05105
CHEMBL409	DB01128
CHEMBL460	DB01618
CHEMBL1515	DB00763
CHEMBL897	DB01032
CHEMBL289233	DB08190
CHEMBL418471	DB03917
CHEMBL1081312	DB08052
CHEMBL219544	DB02245
CHEMBL94	DB00981
CHEMBL122	DB00533
CHEMBL522157	DB07044
CHEMBL13239	DB00859
CHEMBL142996	DB08169
CHEMBL1235351	DB01856
CHEMBL405730	DB02569
CHEMBL137	DB00916
CHEMBL75013	DB04859
CHEMBL1628227	DB01142
CHEMBL1123	DB00804
CHEMBL134537	DB02826
CHEMBL221959	DB08183
CHEMBL2106763	DB08970
CHEMBL1159524	DB03156
CHEMBL406819	DB07980
CHEMBL50894	DB04014
CHEMBL1444	DB01006
CHEMBL34921	DB03293
CHEMBL1237021	DB08815
CHEMBL730	DB00727
CHEMBL411274	DB07410
CHEMBL139020	DB08193
CHEMBL506	DB01087
CHEMBL187835	DB01847
CHEMBL1008	DB01244
CHEMBL1441	DB00609
CHEMBL308954	DB06414
CHEMBL308954	DB07191
CHEMBL594840	DB02347
CHEMBL2180265	DB06090
CHEMBL1235931	DB02239
CHEMBL35107	DB08740
CHEMBL603830	DB01647
CHEMBL1232392	DB04447
CHEMBL1232392	DB01692
CHEMBL1232392	DB02184
CHEMBL563377	DB07488
CHEMBL797	DB00832
CHEMBL773	DB00145
CHEMBL1237119	DB00374
CHEMBL45005	DB03029
CHEMBL1256841	DB04820
CHEMBL1231501	DB02202
CHEMBL455907	DB07017
CHEMBL568150	DB04769
CHEMBL1234200	DB08164
CHEMBL6622	DB00883
CHEMBL75691	DB08061
CHEMBL1200455	DB01362
CHEMBL1173462	DB03500
CHEMBL2106571	DB01521
CHEMBL255863	DB04868
CHEMBL280728	DB01207
CHEMBL8211	DB02967
CHEMBL1719398	DB01549
CHEMBL560511	DB00921
CHEMBL144527	DB07110
CHEMBL533	DB00308
CHEMBL569	DB00721
CHEMBL1200436	DB00621
CHEMBL1095097	DB00700
CHEMBL191083	DB08167
CHEMBL1235818	DB08514
CHEMBL289228	DB04960
CHEMBL142703	DB04876
CHEMBL461101	DB06210
CHEMBL93560	DB03220
CHEMBL12856	DB01427
CHEMBL41	DB00472
CHEMBL1200932	DB08947
CHEMBL206646	DB08754
CHEMBL1543	DB00143
CHEMBL222440	DB07338
CHEMBL24038	DB07675
CHEMBL573306	DB06847
CHEMBL386049	DB07476
CHEMBL1384	DB01172
CHEMBL139423	DB02072
CHEMBL421	DB00795
CHEMBL36994	DB04599
CHEMBL404630	DB07601
CHEMBL6885	DB02532
CHEMBL62836	DB03494
CHEMBL62836	DB06855
CHEMBL269264	DB01946
CHEMBL1234635	DB02841
CHEMBL939	DB00317
CHEMBL1294	DB00908
CHEMBL1235568	DB08451
CHEMBL1236104	DB08578
CHEMBL395280	DB01928
CHEMBL539843	DB05738
CHEMBL2107333	DB08908
CHEMBL6640	DB08653
CHEMBL216697	DB07280
CHEMBL1078	DB01095
CHEMBL220529	DB07843
CHEMBL16102	DB03119
CHEMBL1297	DB00573
CHEMBL30959	DB02771
CHEMBL470365	DB08442
CHEMBL1235246	DB02261
CHEMBL121790	DB04480
CHEMBL1508	DB01175
CHEMBL1201219	DB01339
CHEMBL542	DB02362
CHEMBL1697744	DB05057
CHEMBL191910	DB08284
CHEMBL654	DB00370
CHEMBL1201212	DB00211
CHEMBL27577	DB08797
CHEMBL1219	DB01129
CHEMBL411930	DB08035
CHEMBL148732	DB02908
CHEMBL512341	DB07006
CHEMBL1405	DB00655
CHEMBL213661	DB07807
CHEMBL1005	DB00899
CHEMBL365617	DB07495
CHEMBL1235106	DB08357
CHEMBL379218	DB08568
CHEMBL1502	DB00213
CHEMBL270527	DB01836
CHEMBL1231	DB01062
CHEMBL1395	DB06710
CHEMBL1230662	DB02628
CHEMBL1078534	DB07373
CHEMBL135	DB00783
CHEMBL354201	DB07669
CHEMBL235668	DB02631
CHEMBL498416	DB02070
CHEMBL914	DB00950
CHEMBL217894	DB07640
CHEMBL1741	DB01211
CHEMBL46439	DB08654
CHEMBL1232157	DB02613
CHEMBL489285	DB07694
CHEMBL52606	DB02587
CHEMBL206109	DB07685
CHEMBL609109	DB01622
CHEMBL1231666	DB07544
CHEMBL349803	DB02925
CHEMBL6731	DB01509
CHEMBL43048	DB01454
CHEMBL195368	DB01979
CHEMBL315838	DB01228
CHEMBL356359	DB04873
CHEMBL343480	DB01785
CHEMBL576960	DB07142
CHEMBL420937	DB03034
CHEMBL289277	DB07715
CHEMBL891	DB01147
CHEMBL1077896	DB00296
CHEMBL456649	DB08446
CHEMBL275311	DB02877
CHEMBL188865	DB07967
CHEMBL153036	DB08544
CHEMBL153036	DB08472
CHEMBL189	DB00235
CHEMBL1201232	DB01625
CHEMBL1574	DB00191
CHEMBL406973	DB03411
CHEMBL460910	DB08596
CHEMBL46257	DB01917
CHEMBL1512	DB00180
CHEMBL1232858	DB02767
CHEMBL649	DB01203
CHEMBL296419	DB00637
CHEMBL1085	DB01063
CHEMBL326523	DB04505
CHEMBL215205	DB07731
CHEMBL374731	DB01265
CHEMBL2103749	DB02351
CHEMBL135488	DB03563
CHEMBL50300	DB02823
CHEMBL83626	DB05399
CHEMBL1213271	DB08398
CHEMBL201880	DB04689
CHEMBL1234086	DB08123
CHEMBL713	DB00442
CHEMBL446	DB01582
CHEMBL18591	DB02838
CHEMBL491019	DB08459
CHEMBL1336	DB00398
CHEMBL496942	DB07827
CHEMBL811	DB00835
CHEMBL896	DB00557
CHEMBL1234557	DB03715
CHEMBL18850	DB02060
CHEMBL554496	DB08788
CHEMBL3302622	DB01453
CHEMBL471474	DB07905
CHEMBL1236882	DB08752
CHEMBL467888	DB05234
CHEMBL1235647	DB03760
CHEMBL95700	DB02466
CHEMBL1601669	DB01436
CHEMBL1161222	DB04204
CHEMBL553	DB00530
CHEMBL395308	DB07150
CHEMBL497939	DB09028
CHEMBL287038	DB02842
CHEMBL342478	DB04001
CHEMBL1230308	DB03993
CHEMBL1350	DB01133
CHEMBL374936	DB07067
CHEMBL443064	DB04051
CHEMBL643	DB01069
CHEMBL467	DB01005
CHEMBL296306	DB00581
CHEMBL182	DB01004
CHEMBL435883	DB05229
CHEMBL421138	DB03828
CHEMBL639	DB00972
CHEMBL2021342	DB00116
CHEMBL6615	DB08959
CHEMBL42336	DB00134
CHEMBL169046	DB04705
CHEMBL401365	DB07625
CHEMBL197577	DB08650
CHEMBL197577	DB08648
CHEMBL278398	DB01619
CHEMBL1232399	DB07689
CHEMBL1229947	DB06968
CHEMBL505	DB01114
CHEMBL46730	DB08381
CHEMBL8642	DB01465
CHEMBL113537	DB07553
CHEMBL157105	DB07975
CHEMBL119489	DB02866
CHEMBL480	DB00448
CHEMBL570537	DB08778
CHEMBL11	DB00458
CHEMBL1232261	DB07666
CHEMBL44354	DB00438
CHEMBL24441	DB06698
CHEMBL2048484	DB08907
CHEMBL2104054	DB01615
CHEMBL858	DB00974
CHEMBL1369407	DB00845
CHEMBL6607	DB01484
CHEMBL196	DB00126
CHEMBL1541	DB00671
CHEMBL1233882	DB08054
CHEMBL53463	DB00997
CHEMBL453280	DB04202
CHEMBL1141	DB06715
CHEMBL1741913	DB03292
CHEMBL349605	DB04481
CHEMBL898	DB00861
CHEMBL263376	DB03694
CHEMBL1284	DB01702
CHEMBL2357792	DB01426
CHEMBL332750	DB05298
CHEMBL298445	DB02833
CHEMBL29024	DB04798
CHEMBL285123	DB03929
CHEMBL23393	DB00815
CHEMBL403673	DB07251
CHEMBL2106265	DB01444
CHEMBL2095209	DB08887
CHEMBL31561	DB03463
CHEMBL97355	DB04512
CHEMBL1230244	DB04598
CHEMBL1236215	DB08602
CHEMBL193240	DB01656
CHEMBL332958	DB07670
CHEMBL1592	DB00881
CHEMBL1200558	DB00626
CHEMBL123368	DB08248
CHEMBL1908364	DB08997
CHEMBL13968	DB03659
CHEMBL1561	DB00491
CHEMBL448	DB00312
CHEMBL2089125	DB08624
CHEMBL1206	DB00392
CHEMBL893	DB00485
CHEMBL1316	DB00821
CHEMBL446143	DB00129
CHEMBL105	DB00305
CHEMBL1213406	DB07055
CHEMBL590754	DB02660
CHEMBL1237007	DB08784
CHEMBL418971	DB06973
CHEMBL107316	DB07701
CHEMBL1231644	DB02994
CHEMBL107400	DB07425
CHEMBL1201754	DB06201
CHEMBL878	DB00524
CHEMBL590284	DB07983
CHEMBL1213412	DB06990
CHEMBL190729	DB08682
CHEMBL1574179	DB00851
CHEMBL251634	DB08971
CHEMBL404519	DB06581
CHEMBL522891	DB08066
CHEMBL240597	DB06777
CHEMBL2107531	DB01423
CHEMBL282724	DB06268
CHEMBL278819	DB00805
CHEMBL182260	DB04607
CHEMBL221046	DB07199
CHEMBL1234089	DB08126
CHEMBL371561	DB01722
CHEMBL118218	DB05786
CHEMBL116675	DB03226
CHEMBL170077	DB07816
CHEMBL2105619	DB01522
CHEMBL416	DB00553
CHEMBL1200624	DB00823
CHEMBL1213529	DB05384
CHEMBL1213529	DB02579
CHEMBL222501	DB08047
CHEMBL1234162	DB02935
CHEMBL1043	DB00250
CHEMBL23588	DB02266
CHEMBL356752	DB02936
CHEMBL168083	DB03647
CHEMBL260000	DB08149
CHEMBL192008	DB04052
CHEMBL191632	DB02297
CHEMBL122270	DB05137
CHEMBL1229525	DB06834
CHEMBL430	DB01155
CHEMBL1732	DB00320
CHEMBL1876307	DB00596
CHEMBL153585	DB08952
CHEMBL135287	DB07714
CHEMBL34062	DB02004
CHEMBL1603	DB00428
CHEMBL154111	DB01399
CHEMBL1236107	DB08584
CHEMBL9225	DB07931
CHEMBL476186	DB06920
CHEMBL1201313	DB04837
CHEMBL125200	DB03722
CHEMBL521203	DB06909
CHEMBL1229914	DB03150
CHEMBL497689	DB08484
CHEMBL848	DB00480
CHEMBL584	DB05251
CHEMBL584	DB00220
CHEMBL947	DB00486
CHEMBL383990	DB07959
CHEMBL135400	DB01198
CHEMBL549343	DB07196
CHEMBL1167	DB00919
CHEMBL1201342	DB00340
CHEMBL55483	DB08727
CHEMBL496879	DB08674
CHEMBL139050	DB02622
CHEMBL460657	DB04224
CHEMBL41632	DB03604
CHEMBL338076	DB07783
CHEMBL1201247	DB00014
CHEMBL284362	DB03628
CHEMBL56904	DB04739
CHEMBL327097	DB04565
CHEMBL2107816	DB08913
CHEMBL2105078	DB01464
CHEMBL1233464	DB02178
CHEMBL356512	DB01163
CHEMBL193264	DB08730
CHEMBL1741132	DB01219
CHEMBL6246	DB08846
CHEMBL6246	DB08468
CHEMBL215344	DB03672
CHEMBL186007	DB04586
CHEMBL333826	DB04209
CHEMBL7463	DB03777
CHEMBL1655	DB00539
CHEMBL445236	DB04350
CHEMBL1490	DB00376
CHEMBL230137	DB08360
CHEMBL74926	DB04892
CHEMBL229855	DB08569
CHEMBL19612	DB03566
CHEMBL483161	DB08172
CHEMBL429	DB00598
CHEMBL405886	DB06922
CHEMBL1090777	DB07692
CHEMBL85	DB00734
CHEMBL1483	DB00518
CHEMBL458926	DB08139
CHEMBL232148	DB07531
CHEMBL159820	DB07093
CHEMBL279516	DB08950
CHEMBL1201149	DB05508
CHEMBL1201149	DB05302
CHEMBL119443	DB01253
CHEMBL1424	DB02134
CHEMBL445162	DB07253
CHEMBL222645	DB00301
CHEMBL345524	DB01419
CHEMBL1201319	DB00610
CHEMBL408500	DB08283
CHEMBL290140	DB07988
CHEMBL1093743	DB04746
CHEMBL1215	DB00388
CHEMBL562318	DB08387
CHEMBL355048	DB03388
CHEMBL280541	DB08414
CHEMBL640	DB01035
CHEMBL439849	DB06684
CHEMBL500883	DB04314
CHEMBL274323	DB00128
CHEMBL113194	DB02359
CHEMBL489157	DB03693
CHEMBL1206212	DB08657
CHEMBL220320	DB07010
CHEMBL224282	DB04533
CHEMBL2106755	DB01397
CHEMBL576	DB00139
CHEMBL1232889	DB07803
CHEMBL1377788	DB08831
CHEMBL276815	DB02057
CHEMBL1537	DB01061
CHEMBL1222151	DB07924
CHEMBL455917	DB01563
CHEMBL1308	DB01213
CHEMBL1231535	DB02450
CHEMBL1233973	DB04147
CHEMBL842	DB00880
CHEMBL771	DB00260
CHEMBL281593	DB02751
CHEMBL1230001	DB06985
CHEMBL1235900	DB02148
CHEMBL1554	DB00970
CHEMBL204785	DB07839
CHEMBL283196	DB07453
CHEMBL2105544	DB08924
CHEMBL506972	DB04271
CHEMBL1231667	DB04657
CHEMBL12713	DB06144
CHEMBL185	DB00544
CHEMBL428690	DB03496
CHEMBL1290	DB01359
CHEMBL381806	DB04578
CHEMBL99842	DB02538
CHEMBL57004	DB04909
CHEMBL717	DB00603
CHEMBL58323	DB06218
CHEMBL15891	DB00431
CHEMBL1100	DB00617
CHEMBL560	DB00652
CHEMBL94021	DB05143
CHEMBL32749	DB07767
CHEMBL1401	DB00507
CHEMBL232827	DB07011
CHEMBL1180004	DB02779
CHEMBL1550	DB01022
CHEMBL328910	DB02839
CHEMBL1231347	DB07463
CHEMBL74371	DB08331
CHEMBL41306	DB05824
CHEMBL1583	DB01602
CHEMBL257705	DB07202
CHEMBL1230763	DB07328
CHEMBL490	DB00715
CHEMBL404216	DB08811
CHEMBL93647	DB02616
CHEMBL48608	DB04215
CHEMBL111077	DB08231
CHEMBL284314	DB06910
CHEMBL66879	DB04066
CHEMBL1464	DB00682
CHEMBL460962	DB07624
CHEMBL6685	DB08765
CHEMBL386630	DB00624
CHEMBL1162545	DB04343
CHEMBL1221660	DB07306
CHEMBL1054	DB01021
CHEMBL425181	DB07606
CHEMBL1165268	DB04711
CHEMBL217068	DB06930
CHEMBL265502	DB04786
CHEMBL521105	DB07801
CHEMBL547	DB00982
CHEMBL462547	DB04827
CHEMBL2104900	DB08796
CHEMBL1493	DB01148
CHEMBL427409	DB04808
CHEMBL389051	DB03541
CHEMBL426926	DB06696
CHEMBL476960	DB04878
CHEMBL458767	DB04466
CHEMBL1189432	DB00768
CHEMBL252967	DB03084
CHEMBL23330	DB04253
CHEMBL328250	DB00546
CHEMBL329592	DB00798
CHEMBL1186579	DB06800
CHEMBL250409	DB06933
CHEMBL173373	DB05869
CHEMBL43068	DB00161
CHEMBL1200468	DB00772
CHEMBL411084	DB01731
CHEMBL123440	DB06859
CHEMBL258040	DB07220
CHEMBL1024	DB01181
CHEMBL433921	DB03598
CHEMBL1201039	DB00562
CHEMBL46403	DB03193
CHEMBL406734	DB08505
CHEMBL24828	DB08764
CHEMBL24828	DB05294
CHEMBL1234674	DB02618
CHEMBL7010	DB01463
CHEMBL1221657	DB08750
CHEMBL1509	DB01395
CHEMBL1231418	DB04646
CHEMBL400841	DB07135
CHEMBL1095282	DB01489
CHEMBL210593	DB07273
CHEMBL1198191	DB06929
CHEMBL96433	DB03159
CHEMBL46085	DB07597
CHEMBL277062	DB01558
CHEMBL14245	DB02145
CHEMBL90039	DB01878
CHEMBL1234696	DB02658
CHEMBL607	DB00454
CHEMBL1234658	DB04110
CHEMBL1201336	DB01320
CHEMBL323202	DB04559
CHEMBL285674	DB01215
CHEMBL324951	DB03093
CHEMBL1213528	DB02074
CHEMBL489156	DB03083
CHEMBL803	DB00987
CHEMBL477786	DB07982
CHEMBL293212	DB03449
CHEMBL457	DB01241
CHEMBL1194325	DB08897
CHEMBL632	DB00443
CHEMBL1200747	DB06768
CHEMBL1425	DB01033
CHEMBL817	DB00839
CHEMBL26828	DB03824
CHEMBL1360	DB00732
CHEMBL192	DB00203
CHEMBL1190199	DB05104
CHEMBL469	DB00465
CHEMBL673	DB01626
CHEMBL622	DB00749
CHEMBL238659	DB08758
CHEMBL316157	DB09008
CHEMBL282052	DB04833
CHEMBL365795	DB01600
CHEMBL1213371	DB07760
CHEMBL221872	DB01263
CHEMBL1311	DB01020
CHEMBL112953	DB02550
CHEMBL361078	DB07502
CHEMBL400754	DB07167
CHEMBL159660	DB01498
CHEMBL1201168	DB01247
CHEMBL312040	DB01462
CHEMBL2355051	DB00882
CHEMBL114070	DB02680
CHEMBL92404	DB07785
CHEMBL1261	DB04272
CHEMBL1236788	DB08741
CHEMBL1233327	DB04151
CHEMBL331282	DB03697
CHEMBL1079604	DB00660
CHEMBL73962	DB07050
CHEMBL304087	DB04862
CHEMBL255134	DB06974
CHEMBL524	DB00723
CHEMBL56253	DB06255
CHEMBL195450	DB08092
CHEMBL1201329	DB01116
CHEMBL372227	DB08573
CHEMBL379000	DB06989
CHEMBL311300	DB02568
CHEMBL1088324	DB03379
CHEMBL1013	DB00447
CHEMBL374975	DB02703
CHEMBL1205452	DB08262
CHEMBL70176	DB02071
CHEMBL354676	DB07496
CHEMBL515	DB00291
CHEMBL365845	DB07864
CHEMBL370437	DB07758
CHEMBL101541	DB03197
CHEMBL1231267	DB02619
CHEMBL14130	DB04417
CHEMBL122005	DB04129
CHEMBL46778	DB03559
CHEMBL78	DB05494
CHEMBL702	DB00319
CHEMBL203567	DB08424
CHEMBL644	DB00726
CHEMBL1229742	DB04582
CHEMBL186174	DB04037
CHEMBL2095212	DB08893
CHEMBL105720	DB04222
CHEMBL1236126	DB08590
CHEMBL270512	DB02170
CHEMBL319139	DB07820
CHEMBL391910	DB07991
CHEMBL109	DB00313
CHEMBL2107254	DB01553
CHEMBL221245	DB08706
CHEMBL30	DB00501
CHEMBL350221	DB02959
CHEMBL888	DB00441
CHEMBL672	DB01039
CHEMBL1535	DB01611
CHEMBL71360	DB08180
CHEMBL303958	DB08312
CHEMBL20945	DB02797
CHEMBL108877	DB03110
CHEMBL120293	DB03267
CHEMBL184412	DB04855
CHEMBL360216	DB04541
CHEMBL276832	DB01275
CHEMBL1505	DB00918
CHEMBL1200969	DB01126
CHEMBL15976	DB03940
CHEMBL500	DB00960
CHEMBL25105	DB03808
CHEMBL477874	DB08969
CHEMBL43280	DB01828
CHEMBL1231458	DB02405
CHEMBL871	DB01077
CHEMBL1201354	DB00505
CHEMBL299001	DB08528
CHEMBL104264	DB07995
CHEMBL327579	DB07902
CHEMBL193156	DB01953
CHEMBL198408	DB07968
CHEMBL934	DB01011
CHEMBL175691	DB08864
CHEMBL175691	DB05083
CHEMBL175691	DB08592
CHEMBL519827	DB03807
CHEMBL1428	DB00393
CHEMBL119709	DB05511
CHEMBL278020	DB01400
CHEMBL298019	DB08012
CHEMBL1200959	DB00902
CHEMBL480411	DB07162
CHEMBL202609	DB07070
CHEMBL1066	DB00193
CHEMBL1231574	DB04789
CHEMBL593503	DB03048
CHEMBL1466	DB00266
CHEMBL1233274	DB07891
CHEMBL1200800	DB00258
CHEMBL64	DB00951
CHEMBL1230893	DB04622
CHEMBL324168	DB02398
CHEMBL469099	DB07073
CHEMBL84060	DB02021
CHEMBL84060	DB02101
CHEMBL1374069	DB03911
CHEMBL312448	DB06694
CHEMBL1075	DB00680
CHEMBL508461	DB03367
CHEMBL67791	DB01770
CHEMBL225071	DB00293
CHEMBL463588	DB07805
CHEMBL837	DB05482
CHEMBL1198500	DB07190
CHEMBL253363	DB02789
CHEMBL13	DB00264
CHEMBL360520	DB08527
CHEMBL386115	DB05434
CHEMBL54	DB00502
CHEMBL182323	DB07973
CHEMBL233553	DB07533
CHEMBL1232088	DB07631
CHEMBL127907	DB03365
CHEMBL98	DB02546
CHEMBL1231206	DB07430
CHEMBL222476	DB04720
CHEMBL402761	DB07800
CHEMBL483716	DB04114
CHEMBL403350	DB08531
CHEMBL369251	DB02112
CHEMBL1201195	DB00274
CHEMBL661	DB00404
CHEMBL415	DB01242
CHEMBL719	DB00410
CHEMBL194322	DB04797
CHEMBL259898	DB05804
CHEMBL528	DB01332
CHEMBL1233129	DB04701
CHEMBL1204498	DB08402
CHEMBL1183627	DB05800
CHEMBL1200732	DB00288
CHEMBL360376	DB03009
CHEMBL1114	DB01412
CHEMBL1201217	DB00645
CHEMBL437	DB06147
CHEMBL149502	DB02504
CHEMBL256732	DB08704
CHEMBL431928	DB01529
CHEMBL534	DB00920
CHEMBL2110900	DB04884
CHEMBL312443	DB06554
CHEMBL311875	DB04092
CHEMBL65553	DB03771
CHEMBL1374379	DB00868
CHEMBL2105804	DB04852
CHEMBL916	DB00775
CHEMBL223512	DB07311
CHEMBL1604	DB01333
CHEMBL3188448	DB00890
CHEMBL485652	DB02887
CHEMBL236718	DB07638
CHEMBL223026	DB08048
CHEMBL1201263	DB00769
CHEMBL1180725	DB00782
CHEMBL1229656	DB02648
CHEMBL2365680	DB01439
CHEMBL1198148	DB06947
CHEMBL8085	DB00123
CHEMBL8085	DB03252
CHEMBL2103873	DB08932
CHEMBL82202	DB00114
CHEMBL22108	DB08801
CHEMBL851	DB02024
CHEMBL1213583	DB06730
CHEMBL2021423	DB00653
CHEMBL273158	DB07834
CHEMBL527066	DB06995
CHEMBL1230365	DB07153
CHEMBL1201751	DB06811
CHEMBL329433	DB02096
CHEMBL2356023	DB01070
CHEMBL1179047	DB01161
CHEMBL361403	DB02480
CHEMBL361403	DB04170
CHEMBL525194	DB07164
CHEMBL264373	DB04655
CHEMBL1173655	DB08916
CHEMBL221170	DB07245
CHEMBL392149	DB04954
CHEMBL522	DB02464
CHEMBL1420	DB00733
CHEMBL222419	DB07471
CHEMBL585	DB00384
CHEMBL376685	DB00035
CHEMBL1234578	DB08238
CHEMBL478381	DB07102
CHEMBL222002	DB08388
CHEMBL1201112	DB01280
CHEMBL813	DB00876
CHEMBL1232416	DB04183
CHEMBL445245	DB08718
CHEMBL247272	DB07297
CHEMBL15870	DB08951
CHEMBL139	DB00586
CHEMBL518383	DB08138
CHEMBL996	DB01331
CHEMBL451887	DB08889
CHEMBL437747	DB02388
CHEMBL355200	DB03516
CHEMBL241797	DB00781
CHEMBL1908841	DB00650
CHEMBL1206690	DB08439
CHEMBL475534	DB01054
CHEMBL186	DB01413
CHEMBL1231801	DB04101
CHEMBL469912	DB08437
CHEMBL556937	DB04594
CHEMBL552425	DB07970
CHEMBL452800	DB07330
CHEMBL1233278	DB02486
CHEMBL1230997	DB04628
CHEMBL752	DB00131
CHEMBL1230191	DB03896
CHEMBL491429	DB07326
CHEMBL178130	DB02840
CHEMBL2110636	DB04814
CHEMBL268291	DB01844
CHEMBL634	DB00802
CHEMBL258805	DB03428
CHEMBL81273	DB03466
CHEMBL279597	DB00160
CHEMBL279597	DB01786
CHEMBL712	DB01125
CHEMBL7301	DB05076
CHEMBL192154	DB06875
CHEMBL1200500	DB00394
CHEMBL193233	DB08591
CHEMBL258202	DB06991
CHEMBL49080	DB01407
CHEMBL3182554	DB00104
CHEMBL1078535	DB08494
CHEMBL1279	DB00998
CHEMBL428676	DB05022
CHEMBL473	DB00204
CHEMBL691	DB00977
CHEMBL165	DB02709
CHEMBL270672	DB08168
CHEMBL1162495	DB03553
CHEMBL466465	DB08603
CHEMBL181932	DB03209
CHEMBL157604	DB08767
CHEMBL16370	DB03733
CHEMBL1282	DB00724
CHEMBL220050	DB07278
CHEMBL1236670	DB01669
CHEMBL831	DB00408
CHEMBL1068	DB00776
CHEMBL169186	DB07249
CHEMBL1173	DB03554
CHEMBL25202	DB04942
CHEMBL191190	DB08281
CHEMBL101	DB00812
CHEMBL924	DB00399
CHEMBL237500	DB08882
CHEMBL21	DB00259
CHEMBL326651	DB04054
CHEMBL93836	DB04165
CHEMBL17157	DB00342
CHEMBL179532	DB07570
CHEMBL406254	DB02495
CHEMBL321130	DB06919
CHEMBL1750	DB00631
CHEMBL1437	DB00368
CHEMBL119521	DB04321
CHEMBL46293	DB02481
CHEMBL1160965	DB07710
CHEMBL496102	DB08079
CHEMBL441343	DB04242
CHEMBL279433	DB07227
CHEMBL23327	DB04751
CHEMBL181936	DB07567
CHEMBL255590	DB06962
CHEMBL1182234	DB02791
CHEMBL77996	DB07890
CHEMBL59	DB00988
CHEMBL1220	DB00911
CHEMBL469117	DB07175
CHEMBL2105116	DB04860
CHEMBL387347	DB03336
CHEMBL474024	DB06950
CHEMBL258467	DB07616
CHEMBL1222313	DB07927
CHEMBL148169	DB07145
CHEMBL565	DB00636
CHEMBL1200	DB00892
CHEMBL479960	DB07099
CHEMBL1201046	DB00923
CHEMBL379692	DB07527
CHEMBL554	DB01259
CHEMBL3185126	DB00093
CHEMBL504805	DB07528
CHEMBL600828	DB02636
CHEMBL1096	DB01025
CHEMBL514432	DB06744
CHEMBL92608	DB08482
CHEMBL834	DB00282
CHEMBL2110585	DB05460
CHEMBL404508	DB08338
CHEMBL2104461	DB01476
CHEMBL434	DB01064
CHEMBL346455	DB04020
CHEMBL1235161	DB03945
CHEMBL444633	DB00615
CHEMBL190801	DB08593
CHEMBL844	DB00484
CHEMBL9352	DB03467
CHEMBL21156	DB04716
CHEMBL517944	DB08107
CHEMBL526688	DB08019
CHEMBL1513348	DB03719
CHEMBL402823	DB08154
CHEMBL18136	DB02723
CHEMBL33864	DB00166
CHEMBL650	DB00959
CHEMBL396298	DB04881
CHEMBL2105395	DB04938
CHEMBL357452	DB03302
CHEMBL287837	DB08550
CHEMBL316048	DB03882
CHEMBL203836	DB04583
CHEMBL1201087	DB00248
CHEMBL111461	DB00896
CHEMBL394484	DB07134
CHEMBL503456	DB06693
CHEMBL3185133	DB01431
CHEMBL104	DB00257
CHEMBL7087	DB08782
CHEMBL1231861	DB02203
CHEMBL1726	DB00401
CHEMBL275446	DB08805
CHEMBL386015	DB06986
CHEMBL419499	DB02669
CHEMBL324942	DB02647
CHEMBL1232181	DB03588
CHEMBL2110603	DB09021
CHEMBL1201321	DB01501
CHEMBL58711	DB08600
CHEMBL262777	DB00512
CHEMBL517	DB00280
CHEMBL1194287	DB08800
CHEMBL1201748	DB06772
CHEMBL428963	DB07584
CHEMBL326294	DB02095
CHEMBL292268	DB04104
CHEMBL559401	DB08349
CHEMBL307747	DB04098
CHEMBL799	DB01166
CHEMBL405	DB00182
CHEMBL12279	DB08785
CHEMBL1231683	DB07546
CHEMBL635	DB00635
CHEMBL601	DB00855
CHEMBL1201760	DB06771
CHEMBL26	DB00391
CHEMBL209720	DB04685
CHEMBL549906	DB07837
CHEMBL703	DB00202
CHEMBL645	DB00612
CHEMBL1382	DB01036
CHEMBL1201269	DB01556
CHEMBL256315	DB08335
CHEMBL1201227	DB00942
CHEMBL500082	DB08016
CHEMBL1413	DB01188
CHEMBL1102	DB01437
CHEMBL1186230	DB03577
CHEMBL506871	DB07232
CHEMBL150361	DB01202
CHEMBL204997	DB07207
CHEMBL29898	DB08660
CHEMBL762	DB00935
CHEMBL412763	DB04717
CHEMBL496	DB00756
CHEMBL2104234	DB01518
CHEMBL1532	DB01325
CHEMBL430639	DB07472
CHEMBL267447	DB04886
CHEMBL1231012	DB02018
CHEMBL2104254	DB01505
CHEMBL60851	DB02198
CHEMBL564912	DB01948
CHEMBL2111157	DB01491
CHEMBL314010	DB01295
CHEMBL22148	DB07577
CHEMBL205786	DB07064
CHEMBL254328	DB05812
CHEMBL52440	DB00514
CHEMBL305187	DB08954
CHEMBL1233322	DB02119
CHEMBL15063	DB07392
CHEMBL109822	DB04254
CHEMBL98350	DB02656
CHEMBL445	DB00540
CHEMBL1213033	DB01429
CHEMBL373357	DB07447
CHEMBL100109	DB07658
CHEMBL205792	DB07270
CHEMBL6995	DB01297
CHEMBL277577	DB06873
CHEMBL3306578	DB00492
CHEMBL18602	DB01919
CHEMBL1533	DB00304
CHEMBL222813	DB00558
CHEMBL648	DB01176
CHEMBL131	DB00860
CHEMBL1201151	DB01357
CHEMBL326564	DB08436
CHEMBL1531	DB00294
CHEMBL200495	DB07053
CHEMBL420806	DB03401
CHEMBL420806	DB03956
CHEMBL1230742	DB07321
CHEMBL251429	DB07642
CHEMBL1712246	DB00947
CHEMBL450995	DB08101
CHEMBL228224	DB08070
CHEMBL37932	DB05252
CHEMBL518800	DB08463
CHEMBL468	DB01041
CHEMBL13485	DB08009
CHEMBL1201361	DB00240
CHEMBL1235556	DB08449
CHEMBL99889	DB03383
CHEMBL509485	DB08341
CHEMBL300337	DB03395
CHEMBL1412041	DB01486
CHEMBL1224745	DB07178
CHEMBL1159902	DB03592
CHEMBL83	DB00675
CHEMBL92401	DB04818
CHEMBL1941138	DB01733
CHEMBL1200853	DB00378
CHEMBL741	DB00555
CHEMBL1059	DB00230
CHEMBL55400	DB01123
CHEMBL1232829	DB03311
CHEMBL38681	DB04273
CHEMBL562743	DB08776
CHEMBL89506	DB08612
CHEMBL1233960	DB08082
CHEMBL427	DB00888
CHEMBL360356	DB07632
CHEMBL278172	DB01086
CHEMBL1313657	DB00629
CHEMBL382201	DB07772
CHEMBL382201	DB07713
CHEMBL1200368	DB00522
CHEMBL488	DB00357
CHEMBL503075	DB04681
CHEMBL1094966	DB01291
CHEMBL8483	DB08324
CHEMBL259420	DB08461
CHEMBL169526	DB03841
CHEMBL168276	DB02105
CHEMBL479789	DB01758
CHEMBL147507	DB07129
CHEMBL561660	DB08791
CHEMBL885	DB00879
CHEMBL150261	DB04288
CHEMBL107201	DB03910
CHEMBL1235255	DB02078
CHEMBL259551	DB07794
CHEMBL188343	DB07340
CHEMBL728	DB00433
CHEMBL376488	DB08903
CHEMBL1087	DB00961
CHEMBL280051	DB02441
CHEMBL1200877	DB00663
CHEMBL228369	DB08032
CHEMBL1236602	DB01971
CHEMBL1199324	DB06717
CHEMBL271138	DB08780
CHEMBL12	DB00829
CHEMBL323533	DB02187
CHEMBL428880	DB01003
CHEMBL217271	DB07271
CHEMBL398880	DB01621
CHEMBL148756	DB03121
CHEMBL8600	DB01528
CHEMBL1534	DB00140
CHEMBL392452	DB08771
CHEMBL671	DB04572
CHEMBL121941	DB08241
CHEMBL29757	DB02655
CHEMBL153057	DB08078
CHEMBL448297	DB08517
CHEMBL50514	DB02104
CHEMBL551561	DB02933
CHEMBL1510	DB00216
CHEMBL187718	DB07867
CHEMBL546	DB01580
CHEMBL1494	DB06731
CHEMBL1200829	DB04564
CHEMBL178	DB00694
CHEMBL371428	DB04307
CHEMBL486146	DB08263
CHEMBL777	DB00766
CHEMBL374107	DB01667
CHEMBL685	DB00643
CHEMBL233209	DB02491
CHEMBL1162488	DB03884
CHEMBL17860	DB04948
CHEMBL1359	DB00303
CHEMBL326082	DB03137
CHEMBL108483	DB04600
CHEMBL42632	DB03678
CHEMBL253359	DB08205
CHEMBL223147	DB07266
CHEMBL40	DB01174
CHEMBL1587	DB01324
CHEMBL561639	DB07237
CHEMBL406	DB00808
CHEMBL195882	DB04078
CHEMBL1450	DB01117
CHEMBL595439	DB01823
CHEMBL106258	DB01490
CHEMBL66424	DB03888
CHEMBL108541	DB03651
CHEMBL42126	DB01791
CHEMBL2106071	DB00453
CHEMBL490867	DB08228
CHEMBL52564	DB01650
CHEMBL594972	DB08151
CHEMBL1615234	DB04783
CHEMBL272690	DB03663
CHEMBL1457	DB00956
CHEMBL1182833	DB01226
CHEMBL575060	DB00142
CHEMBL575060	DB02517
CHEMBL231813	DB05521
CHEMBL15967	DB02757
CHEMBL2107720	DB08940
CHEMBL132186	DB01642
CHEMBL240355	DB07059
CHEMBL236720	DB07036
CHEMBL1358846	DB08842
CHEMBL1233881	DB08053
CHEMBL432234	DB07753
CHEMBL176058	DB07275
CHEMBL31	DB01044
CHEMBL259548	DB01471
CHEMBL490961	DB08118
CHEMBL282146	DB08493
CHEMBL58343	DB08838
CHEMBL479	DB00679
CHEMBL78794	DB04080
CHEMBL21731	DB00934
CHEMBL50	DB04216
CHEMBL1235353	DB02142
CHEMBL313972	DB00179
CHEMBL391087	DB07089
CHEMBL1213446	DB06889
CHEMBL451332	DB08156
CHEMBL39736	DB04830
CHEMBL1372950	DB00699
CHEMBL1234593	DB08247
CHEMBL193676	DB07086
CHEMBL1237	DB00722
CHEMBL63859	DB02676
CHEMBL1201196	DB01153
CHEMBL310554	DB08251
CHEMBL716	DB01224
CHEMBL568	DB00842
CHEMBL218006	DB07310
CHEMBL383899	DB07545
CHEMBL1582	DB00858
CHEMBL1201234	DB01365
CHEMBL38380	DB08162
CHEMBL227875	DB05154
CHEMBL35241	DB03608
CHEMBL380394	DB07322
CHEMBL923	DB00884
CHEMBL2092846	DB00397
CHEMBL1540	DB00299
CHEMBL252124	DB06964
CHEMBL1221702	DB07003
CHEMBL208239	DB06957
CHEMBL628	DB00806
CHEMBL2103995	DB01542
CHEMBL1235228	DB01819
CHEMBL1088762	DB07697
CHEMBL1234370	DB02350
CHEMBL220428	DB07994
CHEMBL189558	DB08761
CHEMBL109962	DB02345
CHEMBL1201213	DB00221
CHEMBL431698	DB08773
CHEMBL151958	DB03351
CHEMBL167691	DB05817
CHEMBL380955	DB08246
CHEMBL365776	DB08091
CHEMBL474857	DB07098
CHEMBL1337	DB00348
CHEMBL1963683	DB08819
CHEMBL1201284	DB01012
CHEMBL766	DB01597
CHEMBL255476	DB07432
CHEMBL2104669	DB08967
CHEMBL1213467	DB03862
CHEMBL387262	DB07262
CHEMBL1200600	DB00324
CHEMBL45068	DB07810
CHEMBL369297	DB03206
CHEMBL369297	DB03955
CHEMBL961	DB02520
CHEMBL1201129	DB01262
CHEMBL549695	DB08656
CHEMBL559973	DB03314
CHEMBL200469	DB06956
CHEMBL1684	DB00436
CHEMBL7303	DB04365
CHEMBL1236394	DB04562
CHEMBL424	DB00936
CHEMBL7568	DB01103
CHEMBL373466	DB01701
CHEMBL1456	DB00688
CHEMBL206031	DB04887
CHEMBL1621884	DB00176
CHEMBL397666	DB07474
CHEMBL141966	DB07184
CHEMBL425584	DB07779
CHEMBL1237123	DB01135
CHEMBL489514	DB07358
CHEMBL494753	DB04574
CHEMBL997	DB00710
CHEMBL13209	DB01595
CHEMBL1214	DB00578
CHEMBL651	DB00333
CHEMBL2110806	DB01783
CHEMBL92277	DB02875
